none,bilat,nlm,perc_25,perc_50,perc_75,regNF,regNFNW,regNW,regVC,reg_fst_bilat,reg_rep_mask_perc_95,taa_fst_bilat_50,taa_fst_perc_50,taaW_fst_mask_bilat,taaW_fst_mask_perc,reg_dvr,reg_dvr_mask,reg_fst,reg_fst_mask,reg_rep,reg_rep_mask,taa_dvr,taa_dvr_mask,taa_fst,taa_fst_mask,taa_rep,taa_rep_mask,taaW_dvr,taaW_dvr_mask,taaW_fst,taaW_fst_mask,taaW_rep,taaW_rep_mask,taa_fst_50,taa_fst_25
0.877400943418201,0.925330580674569,0.924591328160597,0.864082972444257,0.920628952712141,0.91157836674426,0.869005932061315,0.867342227587815,0.854619197930671,0.847755233037643,0.89059540677354,0.835517806085671,0.863052007005803,0.829041819030842,0.925226146694521,0.896976444917856,0.842260015241441,0.860435620810843,0.842958559153754,0.856553396230019,0.842959869830215,0.861497504516091,0.762459825412988,0.77518144333665,0.761934223086521,0.768177594487201,0.755092901237864,0.785085055491423,0.882254168639995,0.882974361416328,0.878784943041837,0.87574705533845,0.867400195753169,0.882023876876482,0.83021811180272,0.869111946754266
0.878529480699448,0.923891040097818,0.92336062625716,0.861130319131799,0.921109588634565,0.912122591590494,0.867474032388862,0.867530777638115,0.881141512304281,0.8774123944652,0.922604647702463,0.887780052785886,0.9280799385765,0.903915829568574,0.941374006930067,0.934546678121825,0.87694740523026,0.885421652971545,0.876774738838292,0.882372211853272,0.876701475255619,0.885371114945625,0.835791417162878,0.84342198783403,0.834093122808,0.756122629190523,0.830895359766463,0.849334831897103,0.896019584213897,0.896812090867506,0.889336518272024,0.891944341936811,0.889465190150365,0.894922911258371,0.887220420921674,0.89490792896472
0.878180811288013,0.922173417402076,0.922897356407968,0.860810786483698,0.920799740149485,0.911142814819842,0.868274516781775,0.869683988177467,0.889929531854036,0.887100093447557,0.931042223121295,0.910222135472042,0.94239650525345,0.928155834275929,0.937886086875604,0.938937552985427,0.889168525895956,0.895300008492925,0.889465907363335,0.892545474868623,0.887065994271465,0.895911253747287,0.872052658487314,0.87799551342857,0.876664559775774,0.828075043841788,0.871560354545657,0.882155037175462,0.901684582283907,0.904429693670142,0.899822196845784,0.898450267501054,0.898771648780323,0.902755635228136,0.903466658408135,0.89907658141932
0.870318847035737,0.918896560145826,0.917533660942777,0.852488245825616,0.91364895317664,0.903780606211244,0.855731518676391,0.859254609692355,0.88564622799434,0.883516691624488,0.928232763891644,0.913817059444153,0.939687996015948,0.93199751605669,0.933954569258953,0.934837726544236,0.886793665521524,0.891288970310739,0.886266661828883,0.889649457917913,0.88559386946648,0.891620781571347,0.887645973763978,0.891048256543306,0.892074013749089,0.799522517360013,0.893407647830388,0.895242378514497,0.898101192483475,0.900971542239701,0.895259989178938,0.900038434406553,0.894207811481125,0.895983322673398,0.901332285399228,0.894657771144933
0.862734374361734,0.912606824342842,0.911169147501158,0.843670962568734,0.908011250585572,0.89775295608073,0.836876190025118,0.841421525557276,0.878955765333176,0.876947856724173,0.924650187340266,0.913370483290203,0.93455652701728,0.931137950044025,0.929958192256421,0.928270629094256,0.882849665850124,0.885965434719245,0.881148216705904,0.883601252710772,0.881692632899365,0.887166840749926,0.891319002948629,0.893489817346456,0.892896953655415,0.892870534975541,0.896036179312839,0.895895900115262,0.890182345594156,0.892811060941258,0.888597850036231,0.8929061299764,0.886295993621991,0.886868074085411,0.896354027880072,0.886826249310116
0.855958014043786,0.908674475093683,0.906720514721784,0.837477510288552,0.90227762037628,0.894977146468931,0.82400482323297,0.828646297156545,0.873315923017501,0.874592167204143,0.920434686249533,0.912061684373289,0.932257823925023,0.929584162950238,0.921708503416877,0.921269537813592,0.878840775569185,0.883076943228922,0.877714757129623,0.882685140627429,0.880242379378531,0.883558114258253,0.890442756062601,0.892349612096319,0.893350311905626,0.89194244806018,0.892378512192123,0.893007174389432,0.880560379613234,0.884064738066802,0.883189270740006,0.887522063191952,0.880488961938486,0.881199093119598,0.892517085447008,0.882535491031357
0.852939425425469,0.906300468828891,0.907079725063838,0.834258899881384,0.900530553075952,0.893633097523036,0.818975670026769,0.822982997536029,0.873694011228095,0.871710152611527,0.921634953886177,0.912534809019055,0.932455300870938,0.928681050467766,0.917402446518491,0.916705896708969,0.87878609248129,0.882059502748423,0.876575775243244,0.879808352911258,0.87750492554705,0.883734037441994,0.88911479437968,0.890749806509672,0.893566105696392,0.89089380275332,0.892007080434701,0.891083932400419,0.87487776441221,0.87846405148406,0.880972754378788,0.886613958728064,0.877881490554515,0.878962790094727,0.890346829654253,0.878916519487822
0.853571327168827,0.90453411243477,0.90749251050374,0.835825627473203,0.899944889914492,0.892237112189322,0.81254610564975,0.814540816881939,0.872587851509704,0.874588083316377,0.922691740395547,0.914353824076062,0.931357665262249,0.926987648388115,0.913559256009229,0.9138329063323,0.880779098234209,0.883190447275714,0.879658464199456,0.880693999576411,0.878253226870702,0.883840915840512,0.889337438610422,0.89041305255501,0.892013005508801,0.888967152625194,0.890768318375835,0.891048978721458,0.87166920263632,0.87516542049101,0.879005016234267,0.883130934061949,0.876433469809767,0.877931975451336,0.891244393613149,0.878700983847223
0.857155852621117,0.905674407307857,0.906930184545666,0.836028735909884,0.901293854164056,0.894639693800683,0.812204492188618,0.810011711907128,0.876941106181953,0.877531534479541,0.924564705609019,0.916403509152677,0.93256029833709,0.92830158000575,0.912439647673455,0.913288088930083,0.883460124698856,0.885349411180749,0.880204100499319,0.883053574186589,0.882371497202285,0.886011751225683,0.892010558606045,0.892667873203361,0.893031860845723,0.8901688655127,0.891277581010475,0.893377951349357,0.872586154576233,0.87478104646882,0.87949264812088,0.883536904894303,0.875716079493497,0.877833934140796,0.892263674991335,0.879212402659186
0.861532977144087,0.909556285955531,0.909352071718517,0.840540098485251,0.904224186381191,0.897048369002148,0.813649633608806,0.810858335178549,0.880789276307685,0.880473439843935,0.927035034667623,0.918396025315679,0.934525934678491,0.930261713424017,0.915188035577047,0.914263936796599,0.886025057774741,0.889031337642904,0.885194128389458,0.888844027102069,0.886378413712782,0.889240465977657,0.895968301088008,0.897045173461662,0.895039605307946,0.8915755108097,0.894568384858568,0.898304313623341,0.874440174012427,0.877890617499313,0.884630817185526,0.886156515585004,0.87965380498978,0.880402628322969,0.896721591715951,0.884423347927224
0.865994047117943,0.914279556454625,0.91359567678812,0.848646783530813,0.908947260367419,0.903796982369542,0.817365434578416,0.813638440021292,0.888541608946078,0.888175795540614,0.931551388834667,0.922565801641572,0.936772045263136,0.932240064244463,0.916250120107468,0.915436259447206,0.893329256536138,0.894532637680418,0.892112023314023,0.893739126301857,0.892922832505704,0.895775534041981,0.896052267282708,0.899064964541474,0.898699040832967,0.893609765199028,0.896196808001483,0.899308203657679,0.87538295480166,0.87874213632251,0.888081370514493,0.889103673745434,0.882643514369771,0.880300683213944,0.897429255815712,0.887991508562839
0.860482099745779,0.907319578007565,0.909890446116609,0.840363667070213,0.901229532367812,0.894496922072516,0.810115094266282,0.806162656541577,0.880815712554407,0.878476103582568,0.926855709856038,0.916757822838873,0.928037123891207,0.922865472649569,0.91014300992481,0.906205741621542,0.886142360614955,0.888216102874623,0.883651798830621,0.886680465248353,0.885394302984701,0.889736243000582,0.885114426617463,0.888664999527864,0.88672702552288,0.879048916756377,0.884576964661721,0.887908430776531,0.866921367344457,0.869883660435242,0.876478532520224,0.877970295758031,0.871669614868256,0.868577006915826,0.886794259121817,0.879699409420567
0.852975773136699,0.900736468724014,0.902542034237025,0.833218598562903,0.893545266562327,0.889144591816819,0.803159333393288,0.799749907464405,0.875181435186079,0.871541150620317,0.92105364169208,0.912498762677999,0.922182998982875,0.919005209985675,0.908216567094696,0.901542781011212,0.878570905656998,0.880325181432509,0.876614756351822,0.878934770586819,0.880015506454546,0.883148345398322,0.874234495040297,0.877700693977438,0.875852722567254,0.873005372963831,0.873964436228503,0.877145606930828,0.859108422989266,0.861601450965548,0.865633079942624,0.86978499924151,0.861734229642929,0.856952635507248,0.878525760984902,0.872099977368412
0.84413113379535,0.89270250137409,0.8953006104806,0.820734241170348,0.88747791718977,0.881283490342586,0.798681448673808,0.794479947846302,0.866641608805507,0.865298987904566,0.914506728203133,0.907730710374919,0.918113606832752,0.914481467071336,0.905144961662226,0.897376455705144,0.873531578810196,0.874272151729507,0.869713512733024,0.873245361714863,0.871257758745326,0.874321458867384,0.862434054194661,0.865719198651154,0.870085406110777,0.865422051307747,0.86036877160946,0.864901156637733,0.849392779455381,0.852867609064157,0.859263602110873,0.860658244764126,0.853237229998731,0.848422042561962,0.871771455061805,0.864606036697876
0.837696781964165,0.888579213405117,0.889154288112736,0.816461848970193,0.880902459759925,0.875347117173092,0.792616937011577,0.788315196986273,0.858908216210612,0.857211086892551,0.910295521721626,0.902134750828207,0.913121983762077,0.908630827976342,0.902507582911545,0.894435226950099,0.865529574081969,0.868349126327951,0.864804709406974,0.865612329112332,0.86554753611654,0.868037866044615,0.851863343823453,0.855263051988084,0.860027007538605,0.857194948206099,0.851943071331436,0.853515127313711,0.841256339476526,0.844146129163671,0.850251408466518,0.854558345748821,0.846417732815423,0.841683793176163,0.865792483042016,0.85649436923637
0.831999551481,0.882618896112581,0.882533779426677,0.810833427045364,0.875458227426498,0.872378788719018,0.788214528663492,0.783073673947122,0.854432192577744,0.851510706624453,0.905945412082949,0.898149746352807,0.911149217779434,0.903587171104718,0.90050185999932,0.894207362854457,0.859661422691107,0.862630021180949,0.857670534681528,0.86054378104061,0.859627874461256,0.863433909529529,0.842531229533033,0.844500249795007,0.858564281171154,0.854228236503125,0.84431087503109,0.842359430985692,0.831698180465691,0.834997461743944,0.846261383803429,0.84824551516622,0.840366649891078,0.835219342691493,0.855866110887502,0.851063410838465
0.825976774087111,0.878782898690526,0.879288173298126,0.806555421987994,0.869783521101923,0.865028301697021,0.782069629334475,0.778220648044153,0.847568917911629,0.846551638552387,0.899720314678385,0.892523171244064,0.910157526673395,0.899957862574204,0.901275601097796,0.895034499799052,0.853877586337174,0.856735662309638,0.851598699522446,0.85316268547459,0.855654880433352,0.85613235958916,0.833770299778777,0.835148534389372,0.853269661981805,0.852033082845982,0.837450348422362,0.832959280573963,0.82177113929471,0.825785504718701,0.840692018337424,0.844898025258282,0.835050471099388,0.829883553940833,0.853679941662396,0.846235458569526
0.821514238845737,0.874041160536008,0.874158957191475,0.802390136141935,0.866676644255833,0.8617003584018,0.782270038959715,0.777046588092636,0.843566668332219,0.840766654264955,0.894053768032666,0.889065541113589,0.911156258955935,0.896719804966034,0.898930792529173,0.897050995282303,0.849299111583137,0.853046564089787,0.845566970410994,0.848254319220205,0.850514661275384,0.85243841610918,0.827093209661751,0.830462635244558,0.851853346630143,0.789096957309676,0.839357562485129,0.828076033160529,0.817878506429165,0.821978071677558,0.838744966701446,0.838951437791507,0.833731430556215,0.827517592419171,0.85210474573562,0.844011392212254
0.816036220238043,0.868860245976658,0.869333866877001,0.797485458718318,0.859792482314643,0.855488474408452,0.781177778915597,0.775737342062388,0.837726509776072,0.836107061456872,0.890354971578938,0.882217668344506,0.912715316124519,0.895080475872083,0.901473143942656,0.8984777320303,0.844459361681348,0.845533555215863,0.841678866921479,0.841400352067467,0.842513629203041,0.846468309940658,0.827229854425108,0.830109230986072,0.859304585422794,0.733357418803907,0.836637274171323,0.828167777940757,0.819683562645961,0.823707707669142,0.840599961649274,0.839497637375146,0.834635383359558,0.829739270842261,0.853926562617421,0.841596258817212
0.813847705864832,0.865638060835598,0.865652197796264,0.793164794002549,0.857224627929009,0.854267947304104,0.779931998603499,0.774621996902184,0.83423429921683,0.831457248483701,0.888619573651385,0.880293667764514,0.912528152811257,0.89477189697619,0.902409630653912,0.902055253902298,0.841587107694124,0.843479595000174,0.837931997985862,0.839554443304083,0.840764281242601,0.84329245238657,0.829794768787388,0.832365356516301,0.863011975831226,0.790178625642893,0.84578551403062,0.83129430544344,0.821334038076284,0.825779380524313,0.841734069946955,0.838947884493373,0.837558846526446,0.833161342501095,0.852522487961292,0.840221075041715
0.814450580599777,0.864128533594044,0.866316007282318,0.795558787485353,0.857549428536504,0.853695348387207,0.78019645262031,0.772996378483504,0.832687721169429,0.831901856211965,0.886473334483175,0.879813231990396,0.905373829746153,0.887827232438886,0.903604368054019,0.90158832890783,0.839558001014251,0.842447908805716,0.837935973464052,0.840344900029395,0.840709397567563,0.8439124997891,0.821283569468699,0.824571688172539,0.860489452620986,0.701138368737018,0.839468064798341,0.82356752486307,0.821147405949954,0.826143940423434,0.841222783823567,0.833249086571867,0.839067595217021,0.834827430610533,0.846516972257035,0.832745398124534
0.80789919113929,0.861053120876628,0.862091309610324,0.789961234236879,0.852519301407381,0.84843273063381,0.772292985467066,0.765500136992911,0.830346799741611,0.827817894504726,0.883763300926103,0.877343721311464,0.908551186142058,0.88822445465847,0.900673419098378,0.893421688859665,0.837797373938157,0.837659773159621,0.831597514475733,0.834755164720148,0.837389981817858,0.840123754676283,0.822769407680468,0.826399237549275,0.863528481270819,0.733612449642941,0.853706605519421,0.8237131765472,0.815189177524656,0.821350966412388,0.832902020706348,0.82888395328328,0.835518056629446,0.830540866069116,0.847730175122633,0.832274892194923
0.804566626832173,0.857458184173453,0.859184425709143,0.785041304047881,0.850516639899848,0.847626123664346,0.763920467442683,0.758984700290502,0.826127950653697,0.826020363543052,0.882851613396821,0.874953775420208,0.903368122671409,0.881865484776341,0.89276306034591,0.888806870675891,0.834959739147483,0.837530198748342,0.832082303490615,0.834011360005064,0.835194434237708,0.838740185875005,0.821374602181124,0.826215291994215,0.858211215028864,0.756983263971634,0.851155764330968,0.823649163305093,0.808552789346061,0.815026712708196,0.826318242280791,0.823446859472115,0.828521169506507,0.825357114735804,0.842356464490819,0.82896919603414
0.802886282337081,0.858619888486782,0.857810812368773,0.784828611627131,0.848722542485865,0.84556773537393,0.757844871483838,0.751134854613727,0.82560036450361,0.82374411278454,0.881788039907164,0.876468936520112,0.900100373322771,0.878257397320877,0.899218745869151,0.883629123828451,0.835434839354424,0.837660288646737,0.830508196352782,0.834649797334585,0.833104783052258,0.839700542771781,0.825968800352985,0.829856750700005,0.855025225855235,0.83842619899265,0.85125764309368,0.828707943695371,0.803723806588394,0.810511159863079,0.825075469583778,0.827832355362944,0.824104427340258,0.822014702857803,0.839816404559189,0.826077766318032
0.803620552146951,0.861416998429741,0.859621354417098,0.786272710762585,0.853103935192905,0.847422213647519,0.753240224371745,0.746223698988531,0.828260178989264,0.828046717880318,0.886525380197628,0.878104907133964,0.89828912502032,0.878233855304571,0.898858623503057,0.882542357432448,0.835525362754831,0.840121641866864,0.831504926187734,0.836441668654748,0.836128421534801,0.841783405608568,0.830137622778677,0.832990584010545,0.852101997007178,0.848086813401658,0.850993649125377,0.83360033600496,0.803382774423861,0.810410512235526,0.822772155630542,0.82852502626058,0.819034844543642,0.817699449506171,0.838772179042554,0.828396178916907
0.804699985626271,0.862138710934827,0.861059538221458,0.788885848386741,0.853180031267595,0.850289592881195,0.750892973203444,0.741898470714915,0.830280540319736,0.828780806379792,0.887543175122184,0.880500527129888,0.898118871075832,0.880434869380767,0.901840978711731,0.882413880493891,0.838470814041504,0.841578550867325,0.835888230362362,0.83839731870462,0.838497700327537,0.843455530110543,0.835918041106337,0.839400799473269,0.85199593367292,0.848873067987108,0.851512112094783,0.83982328619754,0.808932458391481,0.816219721616623,0.826324544596653,0.83003788387154,0.819716682711777,0.817484192138734,0.841195698556163,0.830592843447163
0.807543918189562,0.863605848259436,0.862477560030104,0.791764676287083,0.856764215637273,0.849271804909707,0.751668212771482,0.739878122436875,0.832387374914575,0.831024340074393,0.890760836940015,0.883820829150381,0.901069174113106,0.884111754127529,0.904934454638221,0.886029259317926,0.840703057807667,0.84463454800054,0.838262488719546,0.840565358977777,0.842134234124816,0.845894248043158,0.842167976894476,0.846369014440435,0.851577627436019,0.850691981608115,0.853000664893411,0.847466220522648,0.816517168371403,0.823209404537143,0.8318103301182,0.835106162705072,0.822982365106478,0.821986364074625,0.842813919931041,0.833188462253153
0.811632057142831,0.868806539356945,0.867030770621432,0.797750217578895,0.859189465644393,0.859133615675198,0.755273521721355,0.74176844154491,0.838787148246127,0.837358358751833,0.892687427010443,0.888218745382737,0.904098461588578,0.888609064363884,0.90839050911105,0.890906371105942,0.845299486086893,0.848914999841781,0.841646866977832,0.845348675519412,0.845686774989936,0.849853158063465,0.847945584155551,0.851975922556578,0.854732175663816,0.850673314045439,0.854104107117317,0.853945281178771,0.825146191844389,0.830627240290335,0.838197793187649,0.841016310280762,0.829361743036706,0.828454402985314,0.847755612515547,0.83746890889252
0.819583590991701,0.874339913486508,0.873998988256299,0.804665661276659,0.86641339866604,0.863821996413925,0.762494630977717,0.748387504268315,0.843899850036641,0.842496424490003,0.899473423294289,0.8937625248152,0.90832142992165,0.894440324974376,0.913330112885477,0.895050513894725,0.851984615434183,0.855100533460841,0.849011639130077,0.851958060429692,0.851354751502639,0.855652018448676,0.853060791192992,0.856193162644848,0.85958347387426,0.858725656449989,0.857731731179976,0.857837784463162,0.836426981129793,0.840330893655894,0.844770734777176,0.847303693344195,0.836473581296547,0.834259251135122,0.853912341167634,0.844676212210623
0.823153731277644,0.877414733909968,0.876865012038498,0.807417435120356,0.867541048878182,0.867279245254177,0.765365407821491,0.750785605905854,0.846909420719326,0.844923748003782,0.901837884611793,0.895834689277511,0.911567125720945,0.899977022033053,0.911231521041753,0.895071803330146,0.855517427509854,0.858410261464343,0.852152248493713,0.853700957125616,0.856375510334226,0.858892563369814,0.860284653456917,0.862212470513196,0.860325931057076,0.855261645755382,0.858420616691717,0.859776657731964,0.840895562704882,0.845545990905549,0.844049779819128,0.843713659281835,0.838582200227182,0.836896982279921,0.857782448997961,0.848295293506606
0.823751120116529,0.879974624549491,0.879897335453631,0.807189584693672,0.873676919427839,0.869733729898037,0.769016303599309,0.754793401357125,0.847803322916091,0.848197691644966,0.90592118959396,0.900969299755996,0.915609399378562,0.903945512336519,0.913502692192359,0.896857643008794,0.858088077062549,0.861222064245585,0.853776817983296,0.857006625872559,0.85705276955207,0.859754546880322,0.86467073973856,0.866859904712009,0.865884591226066,0.853370013086607,0.863396545823479,0.863656351938684,0.846194014183403,0.850976476439057,0.845456768219666,0.848149618687531,0.841440511974239,0.841054401375324,0.86212028482497,0.849160626012577
0.825755995930743,0.884710274409737,0.88331597270248,0.812573175425287,0.876553663743146,0.871829197518401,0.773518527617621,0.759942454746724,0.854985795363162,0.850667072574709,0.910200866573329,0.905825088881786,0.919168269723283,0.907636523674562,0.917258198441059,0.899728733739972,0.862438372337396,0.86513563997964,0.858082534229847,0.860793992606269,0.860787333409193,0.864784857059163,0.868042503700724,0.869689715381702,0.870382078641402,0.862945153742832,0.867439812454167,0.864697456507166,0.847414848349819,0.854402250552747,0.84862505987626,0.8504734107442,0.844318309921392,0.845283816249095,0.864205157851929,0.852961778963774
0.830843749227268,0.887827450765358,0.886834107021521,0.814692669485784,0.879777631307349,0.876225587802186,0.778518846769822,0.765036279649859,0.856414536903752,0.855297673614152,0.913476346620499,0.909039681337233,0.922370827523048,0.909653830645631,0.916426497610188,0.902090279079121,0.8649879293686,0.869204877878427,0.862756049648815,0.864762572522812,0.865413855160098,0.868857354243909,0.87157701717335,0.874076805696886,0.874387878963975,0.856274035611209,0.871202159556933,0.866876681168437,0.85088820103157,0.856544543015175,0.85281355368609,0.850108246803802,0.850455376550407,0.852255890243639,0.86927999231644,0.856254806435467
0.835082051910532,0.889681441145254,0.890542579637148,0.81962860474589,0.884741329029805,0.88062847365263,0.7825974508835,0.768817246773565,0.862289280126453,0.861078452488462,0.916206576320629,0.914871947704903,0.926125011065367,0.913738837636884,0.919761825210288,0.904288599218718,0.869742387948217,0.874649557618385,0.86698250276569,0.870798400074528,0.870463774420843,0.875883577548033,0.874531486085854,0.877086194696831,0.878750012900038,0.871043053264185,0.873552257495188,0.868048938780894,0.849691240733191,0.857460678912232,0.855423600321969,0.859886546010873,0.854646147622097,0.856836658339673,0.872708081377903,0.859958075041666
0.839199135479619,0.89492241113694,0.894620117721263,0.826810438226171,0.890441252001073,0.881844226915673,0.787523591322031,0.771951092047069,0.867888408198244,0.866631806904672,0.92093885787079,0.921396450596111,0.927382564731575,0.916660697197601,0.918484587919939,0.907825700937722,0.875695398588219,0.878807224400384,0.872734690991288,0.875549999862538,0.877628784233414,0.879993461998295,0.876334950603096,0.879452555611287,0.881986840932538,0.87445607876032,0.874533076354005,0.869318694363198,0.851214619151608,0.85829231067026,0.858174831336242,0.864192804187324,0.856962239528879,0.859151469624131,0.87836385801469,0.865496930024271
0.84585363937064,0.898653709828751,0.899923036718354,0.834645563850815,0.895801561901105,0.890919128753314,0.789109932143156,0.772166843694087,0.875484606000212,0.871832303129038,0.926535292593696,0.927996036862393,0.928766126258123,0.921839399291728,0.922433301878212,0.913865207096688,0.882732909817467,0.885736653175423,0.881050863550714,0.88349990307076,0.881313278039031,0.88740925663905,0.871609680541978,0.875542738074573,0.88619502166371,0.759904373836558,0.876723308266666,0.867749419151952,0.852073945967338,0.860902271195276,0.863455887427502,0.86673337745505,0.859878068703069,0.861988300849782,0.881490493387801,0.870646095832078
0.852314727586927,0.904995045030375,0.905634703364996,0.842306016860206,0.902549022415791,0.893572437042644,0.789122532349859,0.770825287196583,0.879035189400803,0.877137786521657,0.930751264609182,0.934162032455117,0.931743626781603,0.925653420015913,0.929048811562918,0.918648723557182,0.888181134468079,0.892004312849729,0.885663966916379,0.889038598116873,0.888400424191617,0.893811884403562,0.86790933178633,0.871920321641365,0.887343411525811,0.768518106756002,0.878627426854773,0.867032743127134,0.853738033790726,0.861916841748263,0.866048025798075,0.868408153900883,0.862875285347827,0.863458702653636,0.884245126764874,0.8738723347932
0.85816239861389,0.909508369691576,0.910517445135118,0.846021374454013,0.907048149998455,0.899988348011382,0.790299815172966,0.770465417088206,0.884977889652117,0.882681478370679,0.934510713813385,0.938307876807292,0.932208363377084,0.93053676894153,0.928265157854724,0.923247507108797,0.892686635783046,0.896542967635808,0.891423840221509,0.894636307058149,0.893414282468031,0.898584035717602,0.864015583754795,0.869180236729539,0.888076730302876,0.884773801225322,0.882766859107844,0.867340296382404,0.854976565776513,0.864100670074826,0.868174666465752,0.87479288180679,0.866657911670714,0.866298274553769,0.891331417441213,0.880289927615483
0.862758516934575,0.914792667845993,0.914115233163674,0.856423514836398,0.912073263242196,0.902504917196335,0.7922203440082,0.770261264884006,0.890527800134248,0.890991267110968,0.938450630466414,0.944915446191367,0.921999645844532,0.919408691379386,0.930857161680385,0.929081794775792,0.89886529731022,0.903623427903586,0.895856961064428,0.899701408902207,0.900267289079257,0.904865413987261,0.8506510397851,0.856364882514702,0.872270203470765,0.763649677596331,0.795168677556046,0.857303957630822,0.857207071145901,0.864825349762717,0.871078938851229,0.87632323482838,0.869383667175089,0.867968473334658,0.880667654408863,0.87077557454327
0.860120915261415,0.912021256157063,0.909827135251066,0.849714383224421,0.908070476556703,0.899869691233426,0.784401207260444,0.763981823657083,0.888158999158011,0.885869928219368,0.935605427753743,0.941994657552052,0.929157255980248,0.92853474533455,0.931012330439607,0.92777107900155,0.894848825973516,0.901234697024974,0.892824167928111,0.897543693845221,0.896927668768832,0.90174673672053,0.848247348556632,0.852751011909262,0.881875766270072,0.881460717643704,0.874743071276209,0.853598058202842,0.849674955615858,0.857460484505321,0.864148686034602,0.873945250864699,0.864724511436407,0.861005643675161,0.884376991019681,0.878655644356114
0.857935666066624,0.909978252983362,0.906357728278832,0.848283484986968,0.907256628383432,0.897364106303142,0.781233349502651,0.762038700015495,0.887031099867974,0.882744015509946,0.932159935103227,0.940069576329315,0.924585910916756,0.927285686723512,0.929987428175734,0.925446590788503,0.893999844912942,0.900451418271178,0.889486299484887,0.895825670675211,0.894506685155436,0.901227102716581,0.846724589403699,0.851473865917266,0.87611242626862,0.875222203725184,0.868948985836606,0.849195504640637,0.843970230675796,0.850409989406071,0.864196956277674,0.872823509303872,0.862999243881283,0.86200492868967,0.881162833756673,0.876785892964861
0.855754658158742,0.907559978750869,0.90873394963299,0.846076357023906,0.907145455922785,0.897718768512247,0.78037696673462,0.761262291450285,0.886396927593736,0.883748711196693,0.931636958229538,0.939850801370005,0.921586347652037,0.926567697706575,0.930354042711214,0.926183430119732,0.894535567144439,0.899307242805333,0.890468004805622,0.894610623167285,0.893553569212786,0.900493795300904,0.847498061491223,0.85175845345454,0.870036242225996,0.86986213725856,0.863957248585049,0.84807366593122,0.839650968775902,0.845888379244545,0.864498990177298,0.873672104732612,0.863495318722001,0.863842818736275,0.8776970116593,0.874097224754709
0.855132115885348,0.90867806746705,0.908527974167426,0.84593238959949,0.908158748163306,0.895268751840079,0.780689836257038,0.761617317785917,0.886343844020857,0.88416597385353,0.932497968714973,0.939802944693975,0.919737243746806,0.926340342731944,0.928809961226597,0.926525793706203,0.893948614261599,0.899659663097684,0.890079049611863,0.895873757101914,0.896118084029894,0.901331816461913,0.849914762037804,0.853519256542974,0.86799151917389,0.867044673482817,0.859566714353773,0.849699168515555,0.837734135863559,0.845796083513468,0.86575795974627,0.873976597354054,0.863115376589667,0.865857760427333,0.87493511107959,0.871893603810847
0.859347508686029,0.910304286549581,0.91130570694789,0.850170451361839,0.909592561392604,0.899276198702796,0.781136857769447,0.762360452746435,0.889933384849325,0.887221564359085,0.932910368678757,0.940413777419209,0.920967064312919,0.92738613685726,0.930632740134574,0.926918970379569,0.896540788440042,0.902781817600166,0.892635617959812,0.898309457524924,0.897483396547099,0.902903059051285,0.853570797903172,0.856835200280109,0.867020574051369,0.867548485790776,0.862153977135724,0.85217923610381,0.841407848108987,0.846115856706716,0.870041005082878,0.875129946761543,0.865921157201899,0.868637806555353,0.875155487191676,0.873718311273192
0.864908990125912,0.912979235623141,0.914513893926288,0.852368934181398,0.91264372768625,0.903308823346298,0.782184629049327,0.761003484351869,0.894373095984566,0.89274920613169,0.936284411151719,0.941455523305542,0.923804276713042,0.930585573472715,0.934103705065549,0.930026112580828,0.901271055448079,0.906489473264073,0.89914909897696,0.901119836991839,0.902166325210945,0.906369641609225,0.857439503478321,0.861037544583441,0.86821824883587,0.867518388965641,0.863987293633292,0.855961878221865,0.844086012916621,0.851090677830564,0.872328851227364,0.880498749590858,0.870719047369904,0.87113765983076,0.877647035642716,0.876807887844151
0.869897275284842,0.919594275555936,0.918841871399136,0.858601724052046,0.917078732264065,0.907342425386581,0.784896900774578,0.760465976471744,0.899786824368821,0.89633644703047,0.939104262128052,0.944828267932784,0.927838865546943,0.935311491307686,0.936696633804089,0.933614806525866,0.907824041556788,0.91072960960328,0.903078727805918,0.906161554814803,0.907125049705144,0.911798773100531,0.864314216988181,0.869716609110105,0.873211837356949,0.871684324096222,0.867756632225686,0.863131694701458,0.851298826259964,0.855755031633108,0.879976160624186,0.886505980290436,0.878359193628182,0.877880631868926,0.883224888791327,0.883232107113775
0.876850414407721,0.92373049434799,0.92242881573643,0.866319867080709,0.920754208659773,0.912809388348849,0.786468069357867,0.760478791940022,0.905240080226932,0.902102549516306,0.943899743486957,0.947430619685651,0.933149706402261,0.939644797431969,0.939748526242648,0.936841870299337,0.9119396871796,0.914733870246283,0.908276286281415,0.911174362068235,0.912384131437984,0.915741280886569,0.873097017659833,0.877559104032981,0.879651551021906,0.878249047051229,0.876241938594535,0.871456447720741,0.857054903944518,0.861740457120302,0.888250055964675,0.890679620450009,0.884067190627025,0.881581749374483,0.889730094892262,0.889286944122313
0.877954056162295,0.924321859406776,0.923061929960895,0.863935055412394,0.920774017546495,0.912575854879229,0.785396705830225,0.760749369289982,0.905297419472019,0.903843013597266,0.944977958246347,0.947393337630053,0.933306084895129,0.940400489940091,0.939599559129859,0.937199586488399,0.912339394480897,0.916193806335302,0.910091291571079,0.911613858875622,0.91422125985798,0.917782537281594,0.881547960823487,0.885260742188614,0.883322959431558,0.881494509982346,0.879745799431004,0.877860540736468,0.85904921381202,0.864532672104668,0.886855531149347,0.890475980606694,0.885055499296457,0.883047532791143,0.893044587122043,0.890808982383041
0.877121852415464,0.923940061373111,0.923590395599326,0.864684770151839,0.922623617266975,0.913218634371957,0.786088755154327,0.762475438404254,0.906449158991397,0.904236016765686,0.944009143448945,0.948047338935786,0.933587824129441,0.940793857551217,0.937443306114201,0.935693845214432,0.912084046380021,0.916400305882545,0.909444132076213,0.912751074242529,0.914239900421818,0.918124118850661,0.885550131495027,0.888291258107466,0.883818496932743,0.88306686133721,0.881329476797015,0.881793145145172,0.860456067455579,0.865459998683613,0.887152473985583,0.88986643301422,0.884499322218296,0.882154769908198,0.894430701296553,0.892530710753607
0.878513711845879,0.925521328881369,0.924518927219021,0.866347266269721,0.922259536654385,0.912115709044692,0.78556172825966,0.761834532870882,0.905219441400068,0.904514058263317,0.945054230127247,0.94824768096372,0.933187043841124,0.939725465136214,0.936470616306292,0.934405793994334,0.91440479819261,0.916272118345047,0.910658891680227,0.914177323078228,0.915935187305248,0.920900569030523,0.8866271242035,0.889558027402972,0.885736686466575,0.884059657963576,0.884086247637945,0.883810378235711,0.861995439017028,0.86805363365209,0.885063024625724,0.889299447494656,0.882688428411484,0.881671457064654,0.894345210005502,0.894400381088451
0.879854602360479,0.924757001811249,0.923952315308203,0.866900320401048,0.92335234414872,0.913023479585162,0.781835931031169,0.759967438440796,0.908854310328089,0.905057657481946,0.946104550881395,0.94874859644469,0.935329278759888,0.940436636502047,0.936021289550991,0.935005246161794,0.914721717418569,0.918759712690402,0.911894682173227,0.915705606641179,0.915941689878308,0.920831476884494,0.887390506027271,0.890585702210661,0.888101889460973,0.886375263719297,0.88340327571655,0.883782920942731,0.864374229316317,0.868676342293248,0.885537011749105,0.8896415569692,0.883953651155336,0.883141219098887,0.895604379701166,0.895354858981257
0.879024657652296,0.924851042920398,0.923752053007594,0.867150759972486,0.922886802075944,0.912129356232904,0.780866928457606,0.758267773543463,0.907862419884364,0.9046355666062,0.945371229239812,0.948335947372313,0.938844809814713,0.94142618157651,0.938169686989298,0.93586748644436,0.915979336316112,0.919706806978085,0.913570459067958,0.916471674645305,0.918095773440277,0.921700755010909,0.890584043893868,0.894183378269549,0.890737174511805,0.890768849612917,0.884910069498644,0.887228149193833,0.867933691403429,0.872774747572274,0.887357897625246,0.891280326616128,0.885797110525259,0.88265906104823,0.898622504123941,0.896820378801601
0.880087906013347,0.924695202698244,0.924845791471241,0.867719301000366,0.924265531010636,0.91500692491874,0.779834650890292,0.756963390547783,0.907231599164625,0.90396870740303,0.945407605736649,0.94785766827246,0.941289425605338,0.942267374430545,0.939293270982815,0.936927625975418,0.914337977713538,0.917887165934335,0.912307694660863,0.914005387835008,0.91698431594688,0.921636432664722,0.89523730489533,0.899241673779427,0.895709095178206,0.893934781548464,0.881598831506154,0.890994976507097,0.870947035354917,0.87578277946245,0.888561380007082,0.893549319735064,0.885052467716537,0.885830728918153,0.903346046035925,0.897224799943118
0.878668087301967,0.925031916616728,0.925302197839929,0.865997999494255,0.923284884706452,0.911629116601143,0.778324246700932,0.754162202998153,0.906606318489587,0.903818687359175,0.94512326676764,0.946768751213955,0.941288219351798,0.942276260214258,0.938676138498312,0.936948387913626,0.914732755336228,0.919317498177511,0.911947643611977,0.915152812946388,0.9167115793333,0.922498562070074,0.89662442947167,0.90135180028291,0.898421082287843,0.898042918308432,0.894960094520257,0.895007074501472,0.874163431336009,0.879437549553607,0.887959033057125,0.8940285645658,0.886688334443527,0.886337043826481,0.905414410764568,0.898413673527372
0.880375433991008,0.926650102111911,0.92597768892648,0.868416090368061,0.923999306551213,0.912256900576422,0.776454062988848,0.752506583262056,0.906912708588565,0.90432818710089,0.945529018365601,0.945803842747983,0.941486225525636,0.941792068591373,0.939664549304325,0.937943666612063,0.91518023530752,0.919364172434647,0.911908325058245,0.91514342493014,0.915631014951594,0.920527128549145,0.898011720867804,0.902636417110132,0.902043029058104,0.901467229360598,0.897305479680357,0.898500793901826,0.876657594619722,0.880508885610614,0.890597553713352,0.894565941125068,0.89063703565516,0.887833413822131,0.907150078084185,0.89926689126705
0.878988662768306,0.926335715310632,0.925715836623628,0.8681108120787,0.923947482558614,0.914111624835535,0.774584995106181,0.749693964107869,0.906621671833161,0.902844823314179,0.945891750007009,0.944762550098901,0.942567274097442,0.941500185536968,0.9394276381981,0.937067274118843,0.913941236185752,0.918805558919371,0.911906292874579,0.914442734539244,0.91585203339057,0.920032840167677,0.899641694644919,0.904629119773276,0.903409068474806,0.902386929796845,0.899491191655866,0.900587172684193,0.877500447573216,0.881446157578936,0.890091182651258,0.894705120516517,0.889090338847297,0.889031211952808,0.907183155290961,0.900118293996857
0.880654668920931,0.925903546342899,0.926737986128685,0.868760659307245,0.924721034917538,0.912031918505483,0.772781243370981,0.747959398817445,0.906406215553327,0.904160971353466,0.94644177518359,0.944735034396394,0.941255761764937,0.94140644839417,0.940094909512714,0.938303477220677,0.915439992972711,0.919050889157317,0.911654050761935,0.915305945211175,0.91670716033317,0.921022642861913,0.89701841142705,0.900889165679819,0.903843527565331,0.891508585231439,0.899138049214046,0.897276875665075,0.877932254079793,0.883298215952345,0.889998521963608,0.894733638656577,0.891504304114056,0.88785089505453,0.90731476313547,0.897736513574868
0.876178194780814,0.923350175258317,0.921904949724092,0.868665176624786,0.922231604244876,0.910655470001549,0.770666124748401,0.746897829434349,0.90514555360252,0.899971668209765,0.943863999807219,0.942276219891765,0.940877501616439,0.940038686244747,0.939704631600253,0.937773389761509,0.911713496169604,0.916904422629202,0.908444643731299,0.911515758406967,0.913868671091731,0.918128435764819,0.895009034811162,0.89948542983849,0.899679095399814,0.900285290035916,0.897793226872279,0.89450683673244,0.878117460955043,0.883477370104742,0.887152965437155,0.891208385068177,0.88874702642193,0.886930773517116,0.90466526661767,0.898675841058191
0.872699488221565,0.920612411225012,0.920280991378961,0.868083348813392,0.921500206328914,0.910577025126791,0.769090587911205,0.746388757340466,0.90195015367632,0.898979898761772,0.941967061239192,0.941250285252869,0.938917573562408,0.940622260749603,0.938420988408173,0.936417776882733,0.910909231708926,0.916397588451123,0.906611396344849,0.910199357365658,0.91126349575125,0.918069578356295,0.894041839446066,0.8979570647199,0.896723029248459,0.896379092509047,0.895085354961409,0.893562493862853,0.878817502667785,0.883193756910099,0.884885642039408,0.891207187251103,0.888096722331901,0.88823977003735,0.903073396012252,0.895024012440059
0.872819778714173,0.918828956277149,0.920966627255877,0.866128409149617,0.92178719375353,0.906419749210725,0.767585989096272,0.744996511608725,0.900320243700601,0.897787001226769,0.941746514773029,0.940097640553424,0.939207660329133,0.9404788588094,0.939207352380195,0.935805829500837,0.910036317388298,0.916098754242056,0.907228947342622,0.910454360311469,0.911515494625044,0.917050730386736,0.892779947246458,0.897614848364768,0.895647514786265,0.896694384110679,0.892963818339614,0.894335543188748,0.878604716900109,0.884224917848733,0.884214982684165,0.892162618258383,0.887559683795237,0.889722796806927,0.903091651721109,0.894404595272956
0.873561589536534,0.923129601608624,0.921533362937442,0.869063194273342,0.921111308042155,0.906793155591708,0.767199167264368,0.74432967446301,0.901104887731951,0.899481490712285,0.942030672309018,0.940045377744941,0.941740168403408,0.940263653368883,0.939698646217603,0.936439752714253,0.908966356946897,0.916032817139914,0.906344885757967,0.911458269518225,0.911009871983634,0.918053492880461,0.893910347414262,0.8993600798848,0.898006034501582,0.852273223622054,0.894867569628817,0.896019429814062,0.880621333783462,0.885767441049749,0.885637421558673,0.893239832262178,0.888378363163541,0.892253356357433,0.90516544249186,0.892972467625595
0.875403363607152,0.922232316715711,0.922245870475185,0.870991513592508,0.923186024481996,0.909326240983824,0.769240346200438,0.744043423076813,0.904287416315967,0.899751823462624,0.943123634380655,0.94006348242371,0.943391179720093,0.942199663673287,0.941721104293452,0.939361341595742,0.910934436259162,0.917924580734529,0.907672025880214,0.912646876948932,0.912334873377986,0.92038281602806,0.895054918895622,0.899924450436716,0.900836620027802,0.848273157287227,0.896322024347266,0.897185049110898,0.881036211016651,0.886836294194637,0.888298785873371,0.896352264535162,0.890544861250901,0.894825935922834,0.90695505185756,0.897815487315882
0.879482767775515,0.926399757645378,0.924431406727167,0.876944894229741,0.925644999491614,0.912172282046743,0.774155658475367,0.747158479752862,0.904817619040253,0.902823888069203,0.944420068505827,0.942131839789677,0.945253812458874,0.945259940426789,0.945400993403808,0.941299699112108,0.913029085348925,0.9206466866328,0.910028298669841,0.916089096386328,0.915454182698721,0.92235675925063,0.89818413073697,0.903150280205266,0.903692400840935,0.845882349797914,0.901117994758269,0.902827068690505,0.883883469204747,0.888830650931091,0.892108782784407,0.900857209061158,0.8950703446537,0.8993475605123,0.908750848488822,0.899737563666721
0.884537527240592,0.928086717681291,0.928947351314873,0.881362286960242,0.928272970524753,0.914677973604197,0.780557767077312,0.750731209111414,0.909357282645897,0.905992028715321,0.949186844916708,0.9436469627697,0.947995837013537,0.947201222676335,0.947541515914469,0.944846036374737,0.916407281987599,0.923669605244481,0.914962586496651,0.92003162166512,0.919228649807768,0.92472933195606,0.901552697360048,0.906374142900411,0.909081560398726,0.854247138481494,0.90494830565144,0.907986508974119,0.886121980748792,0.891351805933243,0.896840893430316,0.90359736950123,0.898498591040049,0.902248668878345,0.911203727164669,0.902377685176656
0.890107287565679,0.932669339058939,0.932590881548741,0.887312776907304,0.930208549929921,0.91708014069386,0.787321268543518,0.754894661069403,0.913601189472669,0.910576215777783,0.950000818541907,0.94605078423309,0.951348984446824,0.950164014649325,0.949024786613225,0.946243307860754,0.919042560993226,0.926776216605339,0.917835082109321,0.922570882767005,0.922935730993643,0.928676915260351,0.905771657751295,0.909348761911125,0.914220010479706,0.857621782884363,0.911064149184582,0.912269196206587,0.890976093252991,0.897596877649362,0.902048560143845,0.907533622767014,0.902549366052043,0.905657954758516,0.915901559690196,0.906447096299568
0.887125410753142,0.928544373965343,0.929502263145401,0.88331772883169,0.929853025268591,0.918171205753024,0.789289733593568,0.758304767546679,0.910328487519599,0.908722449879077,0.948768463859947,0.94439153082582,0.948002782150864,0.947087484961584,0.946702257641426,0.942354269878271,0.917570522675495,0.924446399819939,0.916265311405351,0.920354308509909,0.920327894461992,0.926174786688619,0.903911370031464,0.908653888520221,0.910923681138605,0.838084429655477,0.909899902032435,0.910977777558281,0.888985059967657,0.895551697033526,0.896827616463474,0.903886428325073,0.898051615209762,0.902887294786581,0.912652413150606,0.906349855262744
0.884276741074064,0.928441777344551,0.927427136278544,0.877913795435945,0.926479384216671,0.913623823131478,0.795561323315854,0.76585832710308,0.908303012222191,0.905336905616799,0.94789924754814,0.942422186276159,0.948677506605276,0.94573209180382,0.945196115684236,0.940871340477184,0.916135374242949,0.922573142487458,0.913635495414545,0.9183447436354,0.918025782346489,0.924019581684733,0.905058903181879,0.910559767331393,0.911482186092558,0.906565577050335,0.910800048429447,0.910627155886218,0.885472307781931,0.890795312739802,0.895675559783914,0.901749389376927,0.897522248872233,0.902008025855981,0.912117462231466,0.904172845690876
0.881138564414429,0.92650635180511,0.92586063978582,0.873087973172298,0.925400796510484,0.914959544612288,0.801123507151982,0.772389424267244,0.90575271192423,0.903586489952876,0.946200731671948,0.941317501596883,0.9468882255875,0.945373320713902,0.944366551493454,0.938034470433306,0.913578430965589,0.920317007538452,0.912619525081474,0.915784459977993,0.915927686980583,0.921982083374135,0.903418584175359,0.909956650030552,0.910076188363596,0.908078473156881,0.911488347405525,0.908643101679617,0.884043211949677,0.888149917142612,0.89356750558665,0.900318257745493,0.894369349860983,0.898127425495933,0.910828977267431,0.90165845103878
0.879995224001373,0.924122965618063,0.9248843807948,0.870900066639183,0.923831283645966,0.91441054135136,0.805093391309603,0.777394517322634,0.90636598009063,0.902521572358891,0.945309769090249,0.941347779241911,0.943947390428162,0.941344112974223,0.941992877988145,0.937513509825581,0.912620980760318,0.918562295032358,0.909468961833715,0.913854958321049,0.913391516464787,0.920135338464447,0.897303961796718,0.904584350495626,0.906850958720128,0.90101286565674,0.906499038933828,0.902393343828293,0.882851031840285,0.888240986100987,0.889815368257868,0.897569844665541,0.89076211692639,0.893736723621676,0.906466107101193,0.899867953342603
0.878682235555794,0.924992877996577,0.925294980049463,0.867023559861619,0.923338752130772,0.912946950282431,0.802369073054577,0.776705508977645,0.902642958678731,0.900891706071382,0.944485419102305,0.940480464930774,0.94138215457856,0.939397628837853,0.940761074800637,0.936431102910097,0.912818969684137,0.918113273902876,0.91043909787795,0.912919461412012,0.913310674459029,0.920032035313526,0.889472178452901,0.89790292211589,0.901986893901526,0.89795546305847,0.902400870217662,0.895674214879094,0.882109324824752,0.888977833067751,0.889733701420897,0.897255270852754,0.892700998450112,0.893439476144458,0.904190395564377,0.897878860819975
0.878591466122399,0.925020105311645,0.925869722089791,0.865340489070739,0.921605566858011,0.912197016277286,0.800925721691816,0.775450005158938,0.904882914096272,0.901279973933537,0.945190732406287,0.941188530406781,0.939831236309877,0.938988386516865,0.939831920197535,0.936996473395402,0.912692588925988,0.917925692329474,0.910253669346767,0.914243266215537,0.912812808424145,0.920789936208712,0.883913032937289,0.891343515055612,0.898445622022164,0.89541541296414,0.899070765794278,0.889725414457133,0.879255087713996,0.887070062095218,0.889969926996456,0.897373360376948,0.891406518912555,0.892884982804582,0.903452514931514,0.898675593348518
0.877846552904644,0.924582145430291,0.924553000789052,0.864618833045786,0.920918993072738,0.911755712332049,0.803735184284264,0.777385567088043,0.905657279894981,0.901966701561716,0.945014868726095,0.942417965470119,0.939233655079055,0.938652841724649,0.94053818964696,0.936853379369719,0.912773763426083,0.916348182496991,0.910470454130952,0.914006733155517,0.912602100688839,0.918999720241748,0.879630676825952,0.887400760155595,0.89743889106448,0.883001754971562,0.897735191802592,0.886271046475919,0.877466134832799,0.886664862927313,0.892095053391784,0.896498327224539,0.890985816812552,0.889228573073587,0.904664737047103,0.89822748084174
0.877451314453003,0.923161490475307,0.925149997161477,0.864055289730685,0.922167592439221,0.913180910010133,0.804504667878251,0.777908931358009,0.906059465571556,0.902791542052866,0.944364852667435,0.943647086199463,0.938972263609311,0.937456060550701,0.93251536609425,0.935302882088586,0.913530037140383,0.915930918914937,0.908769338011946,0.913960251164394,0.912070539552614,0.918428485922545,0.874016516947487,0.882188186067244,0.895490057578047,0.875672893366388,0.895432903485533,0.881661683150611,0.874696279013845,0.884708573646512,0.890342518170233,0.893786334947791,0.889754041886027,0.887769577191408,0.905397074279854,0.89964407437822
