none,bilat,nlm,perc_25,perc_50,perc_75,regNF,regNFNW,regNW,regVC,reg_fst_bilat,reg_rep_mask_perc_95,taa_fst_bilat_50,taa_fst_perc_50,taaW_fst_mask_bilat,taaW_fst_mask_perc,reg_dvr,reg_dvr_mask,reg_fst,reg_fst_mask,reg_rep,reg_rep_mask,taa_dvr,taa_dvr_mask,taa_fst,taa_fst_mask,taa_rep,taa_rep_mask,taaW_dvr,taaW_dvr_mask,taaW_fst,taaW_fst_mask,taaW_rep,taaW_rep_mask,taa_fst_50,taa_fst_25
22.3212749018379,23.4988789156007,23.591068731642,22.384598310917,24.9160041416455,23.5714916729194,22.6004591191283,22.6188746359998,22.1899985165378,22.4676668829436,23.9568810929963,24.4522693738359,21.0157067746731,20.392690379477,24.1038188491602,24.688638133889,22.4521638967646,22.7372972827114,22.4557203846123,22.7729117876152,22.3354949871272,22.7253655027515,18.1662440276068,18.2185435714366,18.174540764409,18.1600900838717,18.2097022473793,18.2211584311573,22.7326448780551,22.6612321325489,20.6762055665677,22.4907909346547,22.647209187007,22.6391881423415,20.0311067206015,21.4848528775173
21.923953946508,23.2078769387183,22.941873408847,21.9992023404798,24.4220224575951,22.9962341099487,22.187425620811,22.1077994718028,22.665714445487,22.8138647591862,24.1928560462744,25.5758572394922,23.5669674338556,22.5250975504732,25.7415919978553,25.1252553883031,23.0329540451125,23.1291460455936,22.9208172877122,23.0775854611251,22.9311109172841,23.2203902798997,19.3815407646538,19.5259151230212,19.4398755317766,19.49463974396,19.4422051670608,19.4984667382715,23.0850338629542,23.0437175086832,20.6007931096838,22.91535989457,22.9487285961522,23.0523422579532,21.6106957552745,22.2544530048141
21.3669669313555,22.5542699787779,22.5985172600688,21.3905128846771,23.7371375281426,22.5648739611018,21.7340105993093,21.4945609484513,22.2439311167033,22.4762509572956,23.888784119949,25.4640824103866,24.4785022060492,23.3058851477026,26.3161240690116,24.4561704822864,22.5964941852494,22.800240263872,22.6202214016198,22.869846166948,22.5192324720965,22.7525976830226,20.2325007967878,20.3838554505221,20.2511169748123,20.3599547050019,20.2340015101113,20.354071628774,22.9516226753193,22.9466246120965,20.292583075095,22.913147712102,22.8325662810266,22.9461844706193,22.1397115547105,22.1250813635125
20.8447303960446,21.9141933586967,22.0878664796063,20.7728454669271,23.2070312077135,21.9014075240873,21.3943445124402,21.212989546253,21.7348494026982,21.9905340152389,23.5015726185105,25.1186813971503,24.5261139719305,23.5233689692164,25.9045772169956,23.4355701756935,22.104595560273,22.4364565373583,22.1261487796948,22.3859397928653,22.1512649421392,22.3871400223193,20.6796245723353,20.8753061953531,20.6761326151603,20.8305100007419,20.6410510867713,20.8267221381614,22.5914559527782,22.6692069490361,19.9546543985263,22.5618729541388,22.5209577750711,22.6334764129492,22.0797994018942,21.77662824274
20.3979511238715,21.6653014175678,21.7990333766112,20.3208126012362,22.728941398531,21.5957233586619,20.938086975894,20.5412690312456,21.3543692721504,21.6716631836192,23.0004054705474,24.7726632292948,24.0794382066078,23.2290682116091,24.9147555362006,22.3403549239591,21.8458910107495,21.947686093373,21.7230782375818,21.9750793593759,21.8056289990247,22.0093620898499,20.844413341308,21.0274119466517,20.7722174025632,20.9936530413522,20.7716759385739,20.9763508174404,22.100977217261,22.1467749605983,19.5388277593632,22.052218616182,21.9869140723612,22.082482785723,21.7180249429284,21.3705893154409
19.9325774650263,21.2381518467858,21.2460294136006,19.841484654819,22.3045871341785,21.4032030235386,20.4566859521913,20.0195582265346,20.933968389046,21.2815275783814,22.7204371357152,24.3411608055199,23.9125190766835,22.9871668143485,23.6902096015578,21.2339709606032,21.3660278551662,21.6510247552967,21.3411128813606,21.6072258965194,21.4302967641539,21.7188368897226,20.7674701218111,20.9163031435738,20.70063506076,20.9206189575683,20.7128946036199,20.9128379663418,21.4065315110561,21.5088251346083,19.0700946294879,21.4019213614357,21.3203550727849,21.3917704121851,21.3664634893449,21.0424575386828
19.6634903567993,21.0014872448436,21.016352903231,19.3706180909359,21.9428999724981,21.1761083543731,19.9569038812966,19.5178224774468,20.680319134561,21.0014815224535,22.4862842531765,24.0689870522713,23.7872385883265,22.6155187240155,22.5794986548209,20.2792033769267,21.0726410692905,21.3449937370362,21.0520889087984,21.342445639828,21.1009916577555,21.3346154670033,20.6198161090228,20.7503007447133,20.5270095410496,20.8022399997516,20.5578322594873,20.7780665048022,20.743731462536,20.7853265895116,18.6260942149265,20.7195535922134,20.6237154791599,20.6957810853605,21.049547332602,20.6313381540887
19.2734421332698,20.8634402538928,20.7469230019124,19.059070759755,21.5854278182835,20.9166349715337,19.4436141624346,19.1087014855519,20.3923758683018,20.6956767202493,22.1163775121075,23.7394834668497,23.6439732518703,22.2634224784244,21.6477779833197,19.4507126137902,20.8239920591185,21.0583745063427,20.8226703471203,21.186784686713,20.9239276827201,21.0474760102466,20.4366025773975,20.6631591268948,20.3982039062207,20.7143814064198,20.4276942034789,20.6517816688251,20.1210577153595,20.1552248215241,18.2341579776001,20.0837902386291,19.9918534538113,20.1001799542304,20.9484132831822,20.3295388618979
19.0774852846612,20.4715593396278,20.351141457638,18.6985779566402,21.1840277857172,20.7980981677093,18.9832648123972,18.7072092767628,20.1940134848195,20.5742783068906,22.097843969663,23.612442371006,23.4767277434466,22.0905316603934,20.9433048612124,18.8613274916841,20.7010413454398,20.9470308387733,20.5150330960435,20.9415991755432,20.5962254539561,20.8669636935804,20.3318483845739,20.588370958283,20.3380911046982,20.6517419325054,20.3755741135601,20.607049349511,19.602121435648,19.6226956239838,17.9220087922119,19.5658311760447,19.4895618236127,19.5690032374743,20.7787543245654,20.1964915878909
18.863417459492,20.3104078461602,20.309861810238,18.4000380172769,21.0260268029298,20.5639037893664,18.5879550475466,18.4524919323432,20.0374047903348,20.3278823928975,21.9655883811434,23.565446668179,23.5210960329042,22.0532646512377,20.4435903104198,18.4094599043595,20.4443979585462,20.824692054797,20.4386170003558,20.8491155382051,20.5376113629942,20.8368439060294,20.3352222019292,20.599794055183,20.3237335185175,20.5981081775056,20.4046216439431,20.6455816167128,19.1879267106446,19.2002052645818,17.7140791929726,19.1486418027059,19.0667197284553,19.1409868209294,20.5891574073337,20.0237861577968
18.6852343554745,20.1897059970754,20.3054507826906,18.2071096547037,20.6728659447988,20.5826528030705,18.2848780469392,18.2037454778976,19.9593700695487,20.2194721616826,22.068741860525,23.5284602739774,23.5015576274186,22.0721174814513,20.0884702315888,18.1108953652559,20.394427118969,20.6706720617701,20.4518853566808,20.6920446147905,20.376199172745,20.7293305359974,20.3798627151793,20.7252176354388,20.4023128924838,20.701302176607,20.4709190156888,20.7513383443473,18.8728470985146,18.8909576295102,17.5668551823985,18.8685527845543,18.725823355566,18.841493934511,20.5902789324602,19.8990959339824
18.5731741945848,20.1396262929142,20.203230412363,18.0859178020585,20.674818632698,20.6214376702847,18.0095484453078,18.0851992007044,19.9446418455642,20.1722464509115,21.9754204489011,23.4906725692429,23.588771714676,22.2167871911218,19.8878979010755,17.9474418122307,20.3892851459585,20.7337367380663,20.4023858837071,20.6806624958787,20.3859076354266,20.7307659669005,20.5511099423915,20.9511908148931,20.6180596206551,20.8786846254063,20.6069032025972,20.8864213272465,18.6735277160969,18.684252076624,17.553808050439,18.7022207175887,18.5343358980657,18.6511814041279,20.7038577230809,19.8253031397497
18.5415760975796,20.1867049206499,20.1706690995429,18.0487500802687,20.6228010643907,20.3624105207365,17.8941121548146,17.9703676357433,20.0121903240154,20.2096814711465,21.9744674000198,23.7101113346722,23.7147533480472,22.5522034901505,19.8050579719472,17.9399013759636,20.4311588949552,20.7267541494048,20.4476414619583,20.7114004158331,20.3379221989315,20.7590617831958,20.8195698385688,21.2293722159205,20.8279205439081,21.168813346404,20.8519144050413,21.1404758377619,18.5775440243198,18.5945537161375,17.616891721789,18.643217762843,18.4570721623833,18.5676971853306,20.8372052468678,19.8951665702984
18.5812930025618,20.23739308061,20.1616852489216,17.9780503849693,20.5656819671212,20.4968359428491,17.8384886301105,17.9774434260736,20.0744795187974,20.299520053419,22.0760044050642,23.8436420723345,23.9138100714423,22.9658777553817,19.7710797677249,18.0592987771236,20.4632115410999,20.8523350920501,20.5188656420656,20.8077581995101,20.4807850525426,20.804313540498,21.072038294462,21.5285559779928,21.0827913781633,21.4897564477929,21.1218859754211,21.4442169353441,18.5571974420768,18.569036955921,17.7530636819153,18.6590958360678,18.4571578197852,18.5778261476574,20.9880406555356,20.0153155031354
18.7087763076459,20.1510881949247,20.0977036359764,18.1725346528845,20.6479466751933,20.4006057242886,17.8211351410394,17.9363685786531,20.174883043313,20.3367924317621,22.2799717638688,24.0640108413606,24.1606346125454,23.2820686317199,19.6904862935569,18.2167442667895,20.6083479194591,20.9838471517676,20.6607698718416,20.9852594917517,20.5563221763192,20.9370155472093,21.3205050955891,21.7409186500188,21.2777393546346,21.7241962276817,21.3526652777392,21.7202233297331,18.5078272121288,18.5024368347955,17.9226198599209,18.6671729689588,18.4394152620195,18.5671383979763,21.110488116674,20.1585540305095
18.8180258760617,20.1570277634295,20.2253119041147,18.2977869207405,20.8805550009864,20.7222040390065,17.7826390856031,17.9230782066511,20.3461939840043,20.465554215954,22.2845120539412,24.3767208372004,24.1587347940888,23.630220562863,19.4917916322528,18.3217163281794,20.6531102562256,21.1177930658201,20.8608877580572,21.1776308692907,20.7194613294774,21.1090562393269,21.4984351913966,21.8924266874024,21.4787434160133,21.85157065559,21.5113940415121,21.8676056179058,18.4035078090892,18.3885606615501,18.0503871917625,18.5866349284826,18.3671800905528,18.4915998412921,21.3357689075774,20.2523331980778
19.0874188431333,20.3650661310823,20.3639767172305,18.570231578923,20.9969436839206,20.7259106344626,17.7245482033034,17.8581881982849,20.4564585760387,20.7247996803347,22.5920531597418,24.7255919119096,24.1222185006461,24.159987688677,19.1642219757786,18.3803756491993,20.8965230073263,21.3671716498477,21.0242186608166,21.349960526788,20.9131627539032,21.2703310507779,21.5836831354763,22.0198361430769,21.5780473114643,21.8985465141978,21.5893803519399,21.9757993375427,18.2450117357046,18.221570902351,18.0475709001302,18.4191947021761,18.2203977233785,18.3460512878102,21.531775853211,20.4621902222721
19.2522102352125,20.4381882451697,20.56251571,18.8595090338284,21.3058448328398,20.9528162498016,17.6039029628744,17.7215991759965,20.6481559000567,20.9414326544882,22.612962179646,24.969152064377,24.2067717320166,24.5598656459785,18.7505326271802,18.3440192573891,21.2170754233138,21.5622646386033,21.3435987856688,21.5043141593199,21.1635124721779,21.5142934575952,21.6525189134064,22.0625952357953,21.7135409953594,21.9405844213824,21.6096459002206,22.0397685586609,18.003233761704,17.9816173265582,17.9782883789154,18.1778155045122,17.9998505572005,18.1224290664505,21.7624278442083,20.7005429833274
19.5860104003657,20.8732661104244,20.8214136439363,19.218084786334,21.5414260568409,20.9225192218666,17.4448103456696,17.5304246778763,20.8991290281681,21.0511052986163,22.8984891437053,25.3923167630692,24.3168306371419,24.9912824482847,18.3468399267429,18.2629715101466,21.4983851418482,21.8301890801039,21.5248854358838,21.7946007320392,21.3853075916587,21.8695817729886,21.7228228829147,22.1258068257923,21.7790330335652,22.0320689375535,21.6972213608011,22.0920759868724,17.720386457132,17.6903879931811,17.8505859930058,17.8565253759605,17.7475010546954,17.8515421793595,21.9121258849825,20.9888130943978
19.8430502316047,21.0952439028281,20.9907299562462,19.5118083703685,21.8967060822693,21.0928459579951,17.3139464092235,17.3714390478078,21.244748885542,21.4086432341375,23.2626672387669,25.6774526443491,24.4886682887931,25.3793361974571,17.9896228968336,18.1781138294153,21.5861118338004,22.1362765458473,21.8281291795164,22.0489187145232,21.7093528074188,22.0801926008607,21.8327440777444,22.2106636391301,21.8926549912263,22.1688471548567,21.7726840695031,22.1738124321262,17.4342602819951,17.4005029554589,17.699395403502,17.5452716014121,17.4735485023203,17.5568290262808,22.1663775991277,21.2538159659134
20.1840497646371,21.2506933365736,21.2233724536377,19.840651174459,22.1591044195375,21.5388330150936,17.1806738797073,17.1929561496568,21.4678512830123,21.7226566895395,23.3967983347349,25.9291956152952,24.8965789191181,25.702185826103,17.6946786043491,18.05897859716,21.9957715175659,22.4298339448346,22.0386141557893,22.4186723424652,21.9965622143976,22.5002135675643,21.9327350282937,22.308939317864,22.0184263771848,22.3217947804034,21.9255403192593,22.2711830801641,17.1618469866444,17.1248048244938,17.5517828955691,17.256446244009,17.200537441817,17.2725831186623,22.4107950961756,21.4088299319359
20.3393294209966,21.5790354187581,21.3248792862727,20.1472447307795,22.4863982772612,21.7199763736574,17.0413216143428,17.014236160965,21.8176561324513,22.10101851625,23.6023560213123,26.4074564931843,25.1999305416323,26.0916289649377,17.507219143715,17.9772567010173,22.2611538919474,22.666331044498,22.3547488871404,22.662499750573,22.259676517538,22.5953514521428,22.0298778823612,22.4532755810937,22.1410235464866,22.4424885813564,22.0877413098025,22.3841402167848,16.9027529344334,16.8767979313334,17.434628889121,17.0287133548682,16.9503686594361,17.0087489795547,22.6245138671479,21.8552277650692
20.7324502186789,21.6518185110425,21.6923581980562,20.5449053102958,22.5895641111194,21.7372076204929,16.9727530352966,16.8672710691127,21.9975889587763,22.2982874729025,23.9102312805572,26.6735559731622,25.3080230234008,26.691066167336,17.4574558488284,17.9383395035348,22.5619387426768,22.9600877196083,22.6909054351369,22.9070244089331,22.6808402648105,22.9743840790107,22.2116456544618,22.6371815991966,22.2990154183554,22.6192149242639,22.2826021063342,22.5120498253835,16.6715765267741,16.6512853122094,17.361764135411,16.8416170858543,16.7278378281092,16.7705785724853,22.9536757244489,22.2182332447503
21.1370741996274,22.0404349258457,22.1206796118852,21.0064205650011,23.0736865424626,22.3144669113873,16.9180499175183,16.7268481455782,22.315493499868,22.7541519357255,24.2445555706719,27.1538541814385,25.5741429942947,27.1245036985564,17.5518734790795,18.0217223419067,22.8530644953999,23.3999936088046,22.9606494128253,23.2624368047727,22.9248530482661,23.3173124747808,22.3347065715,22.801292454162,22.4709984959496,22.7560619719438,22.4305202135154,22.627513016338,16.462041033957,16.4455727130683,17.3604974661638,16.753504676201,16.519742930346,16.5532188849409,23.2599495933751,22.388300943846
21.5841267463839,22.3094493921706,22.2991282108248,21.49468222973,23.6485768803393,22.3503612845104,16.8066072708759,16.5623138554387,22.8837012498327,23.0770118640914,24.6292621702965,27.4866583890525,25.9464110196577,27.6237321297002,17.7656010907825,18.1510147755891,23.121624712609,23.6367519275189,23.4530421071112,23.670305243264,23.2470641255408,23.6548876989247,22.4502879334756,22.8750222150418,22.6099322511745,22.8552884107856,22.5743239229431,22.7758136309902,16.2555574905758,16.2331327602994,17.4002430862066,16.7422160347781,16.3093299852847,16.3332177963281,23.6746435874645,22.8801221660639
22.02221845404,22.7986547900414,22.7081154589615,22.2375508377502,24.335129554683,22.861363525516,16.6946462896946,16.3614780677193,23.1867815770356,23.511273712614,25.1596433074893,28.1256835145085,26.0295794482234,28.2975240287876,18.0811003718919,18.331722434353,23.7045083146109,24.1235167963615,24.0005047048749,24.1999622378458,23.6940179513846,24.1939801377056,22.5045484987507,22.8673979505087,22.5842241594286,22.8820520511102,22.6472272735873,22.820786128901,16.0085932006805,15.9881539572291,17.4929441912388,16.7515067955803,16.0589589805601,16.0785917490981,23.9983538048913,23.2761672662319
22.7027795144857,23.3209620327595,23.2099707835375,22.8597372202053,24.8745918470575,23.3441357795181,16.5298983148094,16.1484135770387,23.5778678023632,23.9329333581133,25.6038876518029,28.7084739537739,26.2001036026954,29.1143464240708,18.550660456385,18.5668758946995,24.3469545173836,24.6745593934643,24.4488430993157,24.6653750843778,24.4390729708193,24.6690816284746,22.551826716546,22.8077602222313,22.6196171383743,22.8725548289751,22.6590724873797,22.8148386234598,15.7343233407267,15.7142156475036,17.6202218219268,16.7795059516764,15.7808740025443,15.794086690862,24.3413928556954,23.8058628151701
23.4099508011671,23.9391474136367,23.8554252649569,23.8393505100673,25.8690340314772,23.8841489929097,16.2781190819749,15.8977128790123,24.4058036149374,24.6012537176115,26.3748442982756,29.4166823607099,26.8446962925618,29.9986249201614,19.1646814746345,18.8834619824583,25.0035007556384,25.2323012712594,25.2194252827552,25.2054172020057,25.1772001213558,25.2472447076664,22.571062655,22.8418272344341,22.6614064844398,22.8268059175565,22.7218723244116,22.7938483351183,15.4387398220329,15.4231959520097,17.7602718347624,16.9027783055139,15.4876410499289,15.4978666216123,24.886782986328,24.3424551397687
23.9895766032604,24.68345839087,24.7941901410161,24.649233499539,26.4386376473106,24.473671310548,16.0536506777228,15.6423136866468,25.203449035292,25.4249726894223,26.7101277993893,30.4238530305709,27.491747855143,30.7348123068763,19.8982932149441,19.2735335849649,25.5840271436447,25.9655026332979,26.0200219653785,26.0159412817424,25.6617314435849,26.0813331887858,22.7226890252229,22.9392991774355,22.781121774784,22.9364807685167,22.8343528440462,22.9779578866893,15.1578456123078,15.1461522627712,17.9848956370989,17.0412741300624,15.2104222272681,15.2182602936586,25.478798541567,24.9531215089068
24.9874184400989,25.3761769683754,25.4617321605131,25.4605085210771,27.4079086922234,25.5205167912418,15.8287311074394,15.4285366250461,25.8082241805964,26.2554517362245,27.6467714055012,30.969627234249,28.3119398859357,31.5994139114276,20.705448266038,19.7707177090613,26.3550461152597,26.804485734554,26.9310984623746,26.7297250006551,26.4927650940814,26.9296817933432,22.9476312050682,23.1728864879627,23.0279191122505,23.1716031879187,23.1515851884081,23.1755571445985,14.9073083382019,14.9001817687984,18.2127631043862,17.262209262402,14.9666727897831,14.9714803283678,26.2088375722547,25.8239046079807
25.7504585456657,26.236505327229,26.3853675782979,26.2286426354573,28.2216708455159,26.174867008031,15.653490198252,15.2459943034827,27.0736606456406,27.0440337342517,28.728671495926,31.7154188824104,28.9835056523962,32.8846379118496,21.7017775723256,20.3270170203179,27.4115984141011,27.7159371354442,27.7736820815421,27.7629765840167,27.3599428655324,27.8710939689037,23.3153149040632,23.5709558953118,23.4187710806243,23.5569519772685,23.5067730990076,23.5164683767461,14.7130782695225,14.7074588193472,18.5012437003498,17.5189752478988,14.7820199552221,14.7794333952766,27.0379721972032,26.7726411019609
26.6397749397546,27.8506842108743,27.505211830627,27.2537304899567,29.207800302417,27.3753220619785,15.5651995333174,15.1025422865486,27.8314927722532,28.1491858064392,30.0467111923566,32.7466964622029,29.6924471095732,33.4636863677581,22.7606246620213,20.9703958701026,28.3349291717981,28.7845197833017,28.4937567259709,28.5653309525533,28.3840692595425,28.7108766604247,23.8091821731212,24.060934643781,23.9553945531045,24.0969145323719,23.9855861426411,24.0135892654002,14.5772641016133,14.5721335516228,18.8418259082265,17.8066008229338,14.651605977817,14.644492126328,27.8326242152228,27.4678332703183
27.8520583658846,28.3740017287764,28.1756219544879,28.1611225844928,30.0252087507672,28.221770391573,15.5625494875453,15.036617650533,28.8638420050803,28.9815371979146,30.7658839909604,33.7540520867467,30.5518435348568,34.233760633375,23.7751800394657,21.7156946402659,29.2500562118491,29.6417500018181,29.3923387046125,29.6484810140946,29.400647314693,29.7116976308933,24.4809436968036,24.617639283394,24.575166370028,24.7056121086389,24.6193379049332,24.6538200366957,14.5097086805928,14.5053115812881,19.1853569431825,18.1948528084951,14.5875470731536,14.5827751895981,28.9383414985179,28.5963345284722
28.5347922567915,29.2380478913418,29.5217061767171,29.4173204219168,30.8663093315022,28.8095084582026,15.5635425207583,15.0175486810659,30.0164459179214,30.1924682680797,31.6385615543699,34.8172106439241,31.8585568054231,35.2831006739917,24.7181922340524,22.5649012486521,30.3646007530395,30.5862648472014,30.3160286504038,30.7991351980471,30.3012356556746,30.7869469061715,25.1770937746878,25.3115759176072,25.2561818170702,25.3975284878472,25.3072857916911,25.3573660897387,14.5001707940801,14.4956573273046,19.5649763902059,18.5633783427127,14.5848704027746,14.5758040116864,29.8956776910518,29.5216448559432
29.7411729972221,30.2660520484835,30.5884459522992,30.7168008253868,32.0161564338922,30.6282156038726,15.6438912545343,15.0295770000913,30.7192109339225,31.0225020254137,32.5351054096383,35.4986872659901,32.1405523538543,36.0928372970203,25.8754048538156,23.586202038711,31.251227927944,31.7334056049282,31.4353017002754,31.5905507738809,31.2882450389778,31.6645687060165,25.8966204759389,25.9527773187762,25.8814640789888,26.0524906598813,26.0208720535069,26.0308577189901,14.5208981602771,14.5165549289331,19.9605469319484,18.977922499757,14.6079768320417,14.6002809803825,30.6674383178613,30.8521800890043
31.0024772709811,31.5074308194593,31.6667486528354,32.4753780274992,33.8332166925038,31.1497651311669,15.6747430205413,15.0615362172603,32.1402884757254,32.3724327559126,33.2644009650576,36.6163516980105,33.2884106587607,37.0152229232161,27.1191507832586,24.7108006543289,32.4378281318818,32.9995040673089,32.3129519246153,33.2143823317792,32.4727518208725,32.6754565456007,26.549818137274,26.5724602901416,26.5219103351299,26.6275460999161,26.6574933819599,26.7485398167395,14.5591319136227,14.5551233764346,20.3845450833836,19.4486367518835,14.6533484701998,14.6416515885936,31.6837079519106,31.8914483346152
32.5626544938169,32.4770079870882,32.4063802144379,34.2169182977274,34.9168836310694,32.4461035081437,15.7857234828004,15.1055958422122,33.2631431172088,33.8797611169744,34.7859564572015,38.3986847765644,34.2103153710639,38.6963851822405,28.22274622735,26.0304932171739,33.9889921827559,34.4834757087267,34.1118541215832,33.9798282275256,34.0080148074924,34.1584880711115,27.2644481119673,27.2459333595062,27.1770832905236,27.2870896860397,27.3378791126001,27.442522409379,14.6181332331387,14.6140703461019,20.8654895199742,19.9391721654617,14.7174184010309,14.7068363655971,32.4741523294065,33.0633578164443
33.9315789906178,34.4401370799139,34.0610597618551,36.2636736312704,36.9665745325317,32.9994723559433,15.8577615588856,15.1740945400333,34.2529547808463,35.6383394411426,35.9386135549744,40.8013345046917,35.187051229961,40.5951287172474,29.7513961300076,27.4913834286841,35.5216360164124,35.4469520164377,35.8481790529446,35.8978379657098,36.2861871760404,35.2365388899686,28.0710097707277,28.026647986922,28.057375547745,28.1043183802804,28.1593791702908,28.2526259845177,14.6982186370672,14.6951208037081,21.3921105770267,20.483077460554,14.8094213974102,14.795280786593,33.6520582315184,34.0513392732913
35.7537868979792,35.7356283535966,35.062324862431,39.1242187267536,39.0147365882427,35.1113574954855,16.0186204973632,15.2423142114317,36.6355474981365,36.4255561632346,37.2209465924223,42.6571772951653,37.1201528042307,42.4793476157322,31.5590790741556,29.0573406092511,37.5518868170427,37.6544402209729,36.778620777473,38.0674789575567,36.801002655215,37.5923082573212,29.0565084297067,28.949776841947,29.0018156951698,29.1015326485065,29.166365264379,29.1975268317231,14.8025527176064,14.8004009725724,21.9774582515622,21.1075062343901,14.9320483785851,14.916796506707,34.6023656538798,35.8895572937057
36.8651699319514,37.2346295415329,38.7836460926428,41.6880012682342,41.7385727644425,36.6291475439459,16.1381434605462,15.3776596448675,38.4202676319323,38.7374178770244,40.9275479404747,45.2600269234124,38.6534986650095,45.5607288784806,33.3239992722833,30.7121210291773,38.8411574445819,39.1803108989936,39.5663804465324,40.5369792165581,38.5337716554133,39.6864192872898,30.4292480055748,30.3209685610258,30.2510618285826,30.4033101309974,30.5060402964076,30.4262675605899,14.9335425133062,14.9319742559468,22.5900377157354,21.7542489411423,15.0804198041382,15.0665127446938,35.8610254701143,37.310397200558
38.6850123809579,39.4871979786711,38.5723564600917,44.7612896306287,44.7865599046813,38.2382576205395,16.305298299912,15.4960356462377,40.353867419727,40.9752305101289,40.9067863948623,47.1567626718295,41.8701513754726,47.3796485742442,35.1878963717154,32.449553579995,42.4385508865766,41.9430081247613,42.0362997185222,40.0507405531701,42.4009806085359,41.3041370723124,32.1202549217487,31.9226398246571,31.7550274789625,31.9495495366564,32.0416923062798,31.9748731631763,15.0838067837504,15.0828885640006,23.3093272277955,22.476776071861,15.2506129420873,15.2347318881099,37.2895010850038,40.1385743779366
41.30647182563,41.1188290510343,41.1361203954086,46.2939705318443,46.9579239827638,40.8661578747622,16.4364259398419,15.6455742690568,40.9047107201558,42.9633043585265,45.7175903843415,49.3354015397535,44.2428360329815,49.0609231112378,37.8780961771584,34.2519562870661,41.6967234734715,44.8929630592342,42.7935735940104,41.4959708484077,43.6265120502183,42.5497822950097,34.0364895435483,33.781645989744,33.6385386475629,33.7719941546558,33.8936758240761,33.7003983852146,15.2468331260856,15.2470402037698,24.0305260874059,23.2301735303507,15.4308703198441,15.415795240482,39.6686259662516,41.524513902129
43.2368951907104,44.8399484067431,42.2852388345756,49.2248179924264,47.1643432228498,41.5264737651451,16.6572214820561,15.7774936506462,42.4259979293737,44.2928102771772,48.0350661584662,49.2242178580959,46.5020160586359,51.1803302471257,39.9194652520561,36.1201330875077,43.5634523703223,44.1612988816892,44.4687527573112,45.7771879774112,45.6409223166958,45.3901434620665,35.9713589740831,35.7198158148347,35.5441633901647,35.8082654959101,35.8511476098343,35.7846388852123,15.4168582364761,15.4180561527081,24.7863422088616,24.0155977510239,15.6203925357516,15.6035621357918,42.4436800292949,42.1824142148279
46.2953404159625,47.1691579727118,44.8915024986481,51.7240759457565,51.7243562027377,45.3122782608278,16.7515158568829,15.9366609080045,43.610021766942,46.5090982652688,46.7951211650892,51.7237885214846,49.6668364302396,51.7237885214846,41.2614144660084,38.0540666979077,45.6477380482813,46.9212686683887,47.2011977252674,47.1388301547906,47.9037840183188,46.456460333892,37.9740910465849,37.5160226160634,37.4162454197492,37.8305769415051,37.7602811926693,37.8482594266696,15.5895721943369,15.5921793000759,25.5631331669492,24.7989587778864,15.8070861948419,15.7911823124481,44.8825568578446,43.785086270949
46.2357589294751,49.7335887380635,46.218962013752,Inf,99.994715765634,43.9522001632932,16.9629703609862,16.0756431715237,44.3371345840445,47.9720703359627,47.7662755195094,Inf,47.8485964954332,Inf,42.494255352368,40.2276922978464,48.0869600417155,49.8586108761079,45.8276802807141,46.7823952730761,46.1400482783216,45.5016283134549,39.6646989941521,38.8970661137683,38.9060912014103,39.1529387268503,39.3248324141458,39.3024772212905,15.7553592877427,15.7590856532671,26.3771664624082,25.6066409990929,15.9887138659215,15.9703811075743,44.3688148407192,46.1467686294924
43.8603576730624,40.9035588883744,45.2954725580036,109.537140860027,104.765928312831,43.2319351374703,17.1069390468304,16.206736257597,44.319214567531,44.8402061076813,47.0768673885794,Inf,48.5450044162313,Inf,42.7764274022733,42.5072557261736,44.6875838790043,48.0513240615255,45.7662294047665,48.1481452481059,46.7312046551966,48.9578033838506,41.2363551562188,40.9276236097071,40.584165419356,41.008321900121,41.1407602022517,41.1155666023375,15.930388271886,15.9355741992687,27.1901433085048,26.4658383632623,16.1721765892272,16.1554101688734,43.9064844885583,46.813337776169
41.855340480858,41.0645838005577,45.697288938396,49.1968515283357,47.8854308851267,43.7278871136911,17.2557985834251,16.3673133053363,44.7313359171858,43.8818744533852,46.2075730709985,49.1968515283357,48.0782870258929,49.1968515283357,45.2046788047374,43.845128749684,45.0607247340679,45.1346442029452,45.1951696620834,44.2588042382235,47.1650235312476,46.3471062395814,43.0296782651046,43.1487224522062,42.0953462116451,43.1998331499278,42.9089054864846,42.9354864202503,16.1134226088332,16.1196722974719,27.9859123162818,27.2941214664189,16.3568729856278,16.3398031710862,44.9174632756,44.1936625137812
42.605648955092,41.5821380800612,43.8909896854654,45.5623136951282,48.2666714340565,38.857465213676,17.4578432585622,16.5234252591839,41.7714756870527,44.2358363702754,45.2826831473461,45.5623136951282,44.9089944020261,45.5623136951282,45.8081496483966,44.3904316789391,43.0114117969994,43.705120803509,43.1986952260951,42.3601646124179,42.7637189638516,43.5324009908564,43.2685072420913,43.0077936824812,42.4319820790698,43.3964350085929,42.9770486115679,42.8092495664192,16.2906066170717,16.2981471386505,28.6825832172276,28.0789216828086,16.5383851097894,16.5198217265109,43.1511467199425,42.9277450926865
39.4304252976475,38.8219873380537,40.7537095670414,44.020751012622,45.2420598364799,39.5494226863088,17.6434219096237,16.6914002964031,40.0494160672512,42.2291582730193,43.7989689134763,41.9161549372263,44.1592205650139,44.9779616914903,40.7281378634177,43.0021184970313,40.6756286361269,40.8677673727694,41.4094173091703,40.6844615317034,41.6955896736625,41.6327895085832,42.0770601801105,41.7204719440455,41.7148142923918,42.0185880766523,42.1611672789172,41.0056812589887,16.4700425917818,16.4789275019155,29.4076377393328,28.7748808706151,16.718896104986,16.6990638174799,40.4807576711819,40.1324852906846
36.7973760410111,37.3542764944665,36.6938023883503,41.2256241841861,42.4160144031871,35.9847283867306,17.7997526558813,16.8382732064597,38.0279276830956,38.941097395737,40.3815810698982,41.4877991332747,41.2250873380647,42.0837664912738,39.4430005580616,41.0385820144255,38.8023607511051,39.2939746892594,38.5267181758051,39.3077127961203,39.429929323118,40.2495527839469,39.8830342809355,39.7540177087248,39.94134954957,40.1485136364025,39.9476218665483,39.8486655320605,16.6540103165977,16.6638792200579,29.9076531129303,29.3941386686482,16.9001261297571,16.8781494315118,38.6557007371595,39.3135298824202
35.9327729469539,35.4269962398393,34.8668425064345,38.7808083996349,39.2099337057731,35.9535233550564,17.9832980125266,17.0126366588752,36.456995469748,37.3669839249484,38.4555254483139,39.0178026645979,39.5470636559074,39.6786777983922,36.8858545243338,38.5499146763715,36.9846582968495,37.162592767486,37.2658695557731,37.3860403613166,36.7761207950985,37.3459419949914,37.6221950454058,37.4635939413337,37.556078715022,37.654924608714,37.4406823984975,37.6634918921276,16.841130553671,16.8523125901727,30.1368673910752,29.8211013250916,17.0835362571558,17.0629442240606,36.7100473785686,35.8494316284583
33.6549292277154,34.1376593142409,34.0659447803032,36.1904384476532,37.104452773209,33.3275631554776,18.1994093909931,17.1593306007996,34.4276482056303,35.2802550972698,36.0867236957704,36.867223571394,37.2048457330966,37.2825035991598,35.6581867219452,36.5467758619393,35.2838221659338,35.0913988297754,35.0894716539336,35.2584461673957,35.2728675568338,35.1511355040054,35.4166092476384,35.5207037393476,35.4504108549516,35.4529023760839,35.3822895639239,35.335667700348,17.0303408331054,17.0428083919568,30.205933925998,29.6276119875508,17.2682514757097,17.2498215405185,34.9210368352509,34.3277119742962
32.5485022752269,32.4868141884299,33.3077199696003,34.0600611084388,35.0299460820254,31.7766710210171,18.3354991998627,17.3407738170762,32.9120653669441,33.3523450452831,34.900298099885,34.7817181802812,35.2700826525934,35.1970286583758,33.3284362714286,34.5479211082054,33.4450888080899,33.7939168379058,33.8192725701929,33.4449618224501,33.5700202200795,33.4104831517554,33.4225586877461,33.4408044799246,33.4088910036537,33.5229201496695,33.3755692632111,33.4035890951426,17.2197497155334,17.2342146224696,29.5212917049507,29.6777399313319,17.4572926580036,17.4342557152968,33.3213620523274,32.9921126215971
30.9789955912591,31.0069004636161,31.7032414928908,31.8127449019874,33.537339686853,30.4429117344346,18.5431482455813,17.4903861325171,31.4010871825423,31.7189310194748,33.1851664566745,33.0246673544077,33.7366481101555,33.5001041862754,32.0656197683384,33.0534535994132,32.1080270743805,32.0631374550661,32.0496023570723,32.5293530382409,31.9026781876074,32.2292483584899,31.6401163686694,31.6553318486846,31.6848498339514,31.777109447185,31.5655210125504,31.5204982258376,17.4006841744056,17.4182070638017,29.2311323276791,28.7191910051698,17.6395163677692,17.6189358239274,31.6579554493548,31.5355472629584
29.4210322149246,30.4616525354757,29.98531924043,30.3407524209448,31.9665452277434,29.605388655428,18.7031810250001,17.6318013734181,30.290184827026,30.8380882565035,32.1241124344048,31.7695118284154,32.610393726373,31.7842356472895,30.7343400061509,31.7939926752723,30.5960327595574,31.0150501313726,31.1665588318171,31.1034432112957,30.6956508136606,30.7641136581077,30.1356402223849,30.1016917408594,30.1403617016823,30.1951684161091,30.0935746390837,30.1940041081399,17.5764990892212,17.5964111980887,28.3223284867981,28.1841310893785,17.8187299680786,17.8049331747044,30.155519253352,30.1147350200826
28.4662506724427,29.063930359009,29.3612368715297,29.0700269646154,31.0739876956884,29.1687571204391,18.8790838596395,17.7767378628729,29.2745747099739,29.4252139757679,31.1153978914794,30.5510509372816,31.5721298198669,30.6729230914201,29.6474879021119,30.5889310339523,29.5444150839171,29.9923606462892,29.5999611624677,29.9127796078795,29.6266055476971,29.8158967773218,28.8549436731036,28.7963229716317,28.7678396115925,28.8237647112555,28.7390641320087,28.9308958718541,17.7494334221198,17.7742643634497,27.7518837060605,27.6736340917829,18.0085415515053,17.9929924427664,29.1098950581355,28.8404427263252
27.1558657911597,28.1441762808117,27.9291774128075,27.9283871673001,30.2556065615124,27.9255183083628,19.0313381223395,17.9086192047865,28.5059171739854,28.5309120638852,29.9877031591437,29.4670484159782,30.257780917929,29.7882763405885,28.7066957304906,29.7667542752118,28.7923825589395,28.9972244990641,28.76538148592,28.8266751475421,28.5409047999651,28.8184188723783,27.6752937326488,27.6996793162956,27.7037998572958,27.6614414744395,27.6456755120981,27.8091978196246,17.9273007530075,17.9552080296456,26.800032251894,26.7346573750254,18.2014390093405,18.1785458737656,28.3108931781794,28.1929366312349
26.4546179261223,27.2672192073868,27.4112397461598,26.9853646168622,29.1172256843979,26.9863803621232,19.1581440438592,18.0605386603962,27.5794080400942,27.6207865012767,29.2427802971445,28.6567769084947,29.82153797947,28.8111447211438,28.0017646162997,28.9134839855884,27.7912630613303,27.9449340337375,27.916075548399,27.9728361261489,27.747123069787,28.0309037024105,26.6918095082459,26.7557346695007,26.7163921730689,26.7731560956908,26.620715419918,26.8392738556602,18.0974801941223,18.1259870051769,26.1719682895658,26.1616531436291,18.3790988724307,18.3647529950021,27.2913407577441,27.3535009138674
25.560841561318,26.3827642190995,26.5704598619726,25.9282020353855,28.2345791999649,26.41702315791,19.2363285878549,18.1601443572151,26.8175639320389,26.8496266379329,28.0096118802872,27.721151418881,28.8786403523052,27.849853712993,27.3262187885361,27.9150648811649,26.8088944209475,27.1568034161472,26.959547818534,27.1807455723897,26.8015664788875,27.0775467512195,25.7842568073317,25.8143734793874,25.7693873362399,25.865864159423,25.8190344969105,25.9556969580664,18.2521667006785,18.2841445062623,25.3569327039062,25.4356878730088,18.5360661601647,18.5252149883618,26.5549521065137,26.4085758681728
24.7694362300555,25.7318888236793,25.6682480630206,24.930571533919,27.2909551568356,25.7653967078701,19.2930081995593,18.2754339067244,25.7878991747473,25.9925534039088,27.8492560189055,27.0222206857427,28.1514000542948,27.0592285539078,26.1735452662388,27.2968773421759,26.1039446175976,26.3053027033784,26.133121017539,26.2574958605134,26.0498355428134,26.3856697228983,25.0435681864092,25.12606647473,25.0710219672858,25.1273666064764,25.0308681720659,25.2446409718556,18.3842197079661,18.4169973486177,24.8185140889791,24.8842308862634,18.6673050766993,18.6637536087374,25.7466874776602,25.4790268207406
24.0443888682093,24.9239090461837,25.137397817008,24.287639940112,26.5272356950151,24.8336282057198,19.2782834574693,18.3193248786713,25.2393580238767,25.3069485163721,26.8550476800675,26.3925408524503,27.4633805121585,26.4737076497207,25.656514759836,26.6554076237193,25.4180102147815,25.6337574389488,25.4710616006212,25.7612379195195,25.3140728137913,25.6998473858845,24.4178541376957,24.497135539562,24.4394707088556,24.5263659064956,24.3646929967422,24.5688081013007,18.481020528968,18.5124276162002,24.0714102359169,24.2840171479014,18.7586054731987,18.7494775602747,25.0489496077961,24.9837348759725
23.2989592202359,24.4649273001329,24.5007687487691,23.555318740134,25.92950160138,24.5370137508081,19.2371077252272,18.3663514135177,24.6999744559113,24.6465725177965,26.4312512517888,25.9581428683824,26.9298733649049,26.0077002310105,25.2644078545744,25.9089051775941,24.7837586988823,25.0093804950833,24.9278383692014,25.210418724073,24.7556677066635,25.0951600806136,23.8523849182591,24.0051965116267,23.8680589579737,23.9877547487705,23.8799317833915,24.0503263945789,18.537891313224,18.5730126628894,23.5849098403567,23.584784539976,18.7911635654173,18.790257290219,24.6233949521479,24.1996568829046
22.9143379507785,24.1713360607034,24.1457125407831,22.896639996526,25.4030297403688,23.8224916039422,19.1148279184959,18.3523358438293,24.2672653493739,24.1455356091275,25.93297200551,25.4416835370859,26.6062187256165,25.4459988340298,24.6567347851426,25.2731355700817,24.2410767272153,24.6410683911405,24.2393115875233,24.7111227646837,24.382538709976,24.6654119043743,23.4850955510258,23.5677355034621,23.525514934989,23.5381417443242,23.4736447284939,23.5975575371031,18.5563860139622,18.5941454421183,22.9493907055455,23.1659051598083,18.7786083587733,18.7902723889898,24.2044551202524,23.8171729367878
