none,bilat,nlm,perc_25,perc_50,perc_75,regNF,regNFNW,regNW,regVC,reg_fst_bilat,reg_rep_mask_perc_95,taa_fst_bilat_50,taa_fst_perc_50,taaW_fst_mask_bilat,taaW_fst_mask_perc,reg_dvr,reg_dvr_mask,reg_fst,reg_fst_mask,reg_rep,reg_rep_mask,taa_dvr,taa_dvr_mask,taa_fst,taa_fst_mask,taa_rep,taa_rep_mask,taaW_dvr,taaW_dvr_mask,taaW_fst,taaW_fst_mask,taaW_rep,taaW_rep_mask,taa_fst_50,taa_fst_25
14.0757055243484,14.3449249388015,14.3860274232971,13.6139760121167,15.899712469186,15.2660183461478,14.5218917169134,14.488501595914,13.9229231840298,14.4927890590107,14.829856948276,15.5709175666414,11.9819341839024,11.587986665042,15.0465723293659,15.6826354990526,14.3612680763922,14.6614984929451,14.4030557739203,14.6657163128573,14.2980963967609,14.6161858935933,9.43445974203755,9.48655158116017,9.43902242226816,9.42636158151361,9.47425768364415,9.50084756425025,14.5255356457741,14.4867841664103,13.1041112383301,14.3489240955546,14.5165757632978,14.4474250421673,11.2641522085581,12.8646317256065
13.731657311648,14.1810698904778,13.8581599210397,13.2453419980454,15.4343045397676,14.6828851064615,14.2504678249515,14.0664771807874,14.72320302488,15.0375788811485,15.3005071892681,16.7594864355729,14.3708568240406,13.7215949723934,16.4631240335382,16.2052899840178,15.2484174629203,15.4078783205045,15.1602779998212,15.3504526030447,15.2054585658971,15.4403973947915,10.6727392249653,10.8201032354816,10.7297978111815,10.781869212261,10.7219541614821,10.7982059529656,14.7564640668173,14.742113583059,12.9999451330523,14.6405376146083,14.73675595547,14.7579979358689,12.9855450649926,13.8903494170311
13.2607482932473,13.5925216224679,13.681376582265,12.6957239024564,14.85457492438,14.383983606069,13.895971291813,13.5714278449656,14.4358671443126,14.8506477836351,15.112106175794,16.6860092826553,15.2971062654953,14.5474550803805,17.0542558279737,15.6768343931176,14.8912026663003,15.1942812382203,14.9810368034727,15.1990425687773,14.8643068624649,15.1214103822022,11.5701009499514,11.7257586357966,11.5895084415427,11.7067991398623,11.5642941355462,11.714909006744,14.5279353259332,14.554122338992,12.6205230647827,14.5808012855145,14.5505623078378,14.5904921796342,13.6652102511936,13.889644958009
12.8183273516016,13.1086118717775,13.2092622407669,12.121988518144,14.4257531877101,13.9621782753134,13.7242356590181,13.4640703248196,14.0439534577467,14.4055016678905,14.7077739441274,16.4138500325563,15.423908483643,14.8004617151555,16.863355560747,14.79984296178,14.516033501412,14.8809528816832,14.5600222642944,14.7839674343052,14.5751583750735,14.7643554812118,12.078922444345,12.2951838880086,12.084302509928,12.2527900348484,12.0468563059593,12.2440944326225,14.1349935426937,14.2511940252008,12.2507867032726,14.2013979484269,14.233509934433,14.256809265351,13.7336306237874,13.6896783335085
12.3874843800899,12.8838845662122,13.0480532041486,11.7433100343088,13.9912935982265,13.6802739880366,13.6246889620113,13.2198864783372,13.7510939954705,14.1458361937886,14.3080390443264,16.106682550959,15.0343306979245,14.5686663326847,16.1091572361694,13.8113766710826,14.2900377132388,14.4451003414556,14.2108798865389,14.4284671023964,14.2925341368152,14.506992178691,12.3188347111611,12.5216399230061,12.2608883578044,12.4840515096027,12.253697526484,12.4631232964989,13.6709269865192,13.7402584155034,11.7922374863827,13.6807244757645,13.7026398069823,13.7096381108246,13.4467750128743,13.3858052911814
11.9746209854791,12.6190018649916,12.6529154607251,11.3040971349456,13.6422395359408,13.6706044063105,13.2123867101941,12.8501044400417,13.458082332637,13.8268825200923,14.1328403916258,15.7536121128078,14.9217589492077,14.3899679535769,15.0315181668296,12.7968253658957,13.9088943158432,14.1734596783034,13.9444052061747,14.0990281351175,13.9978372260722,14.2595630203852,12.3256050981608,12.4845120164318,12.255077734172,12.4925116443988,12.263767689138,12.4710474622659,13.0055074789365,13.1259368748623,11.2944666327629,13.0487353743086,13.0567254453925,13.0567588520856,13.2038149701821,13.1031328866437
11.7744578742804,12.4822602663996,12.4697334116135,10.8930492006542,13.3471951656531,13.5151085446908,12.7103109556612,12.4077053021245,13.275009531721,13.5790984313702,14.0431785371734,15.5679884338838,14.9325670324629,14.1068036911818,14.0713790451174,11.9268855715666,13.7304791514398,13.9511855682785,13.6239259895307,13.9636167525092,13.7070525101225,13.8813623333374,12.24740850746,12.4121734809819,12.162050820168,12.4487811814302,12.1887215471811,12.4155333212488,12.4011792181472,12.4358739810134,10.8403808084148,12.426601824285,12.395655663349,12.3979219525568,12.9804607529464,12.7838987305887
11.4427014841777,12.4203752144373,12.3024924331249,10.6352147656208,13.0664727258283,13.4882955478403,12.1650725296444,12.0150563906653,13.1073675569621,13.3289303746128,13.7977340589989,15.3159696524369,14.8195862366489,13.8247626350013,13.248525133581,11.1747511953287,13.492084392653,13.6623418536779,13.4706200350965,13.8741632823512,13.603170825682,13.774116968571,12.1538614097188,12.4149215504958,12.1046228090511,12.446361361885,12.1358393538776,12.3866908490263,11.8355323676221,11.8624167009805,10.4503629108403,11.8471449224807,11.8208932953628,11.8566966970245,12.9416209551811,12.5032353402397
11.2806136104808,12.0664007106825,11.9403281332237,10.3272192590309,12.7243082161087,13.204565041834,11.7058994164446,11.6340368666607,12.9473352501993,13.2551459483,13.8893893916625,15.2503367176717,14.7693499450215,13.7057250057821,12.632475692816,10.6563895550494,13.4205546598451,13.6734411303765,13.1805142629462,13.685717476071,13.3401063997026,13.5895614209602,12.1301056957005,12.4226907283232,12.1194582217184,12.4730381858121,12.1524279100362,12.4356751400734,11.3689725489307,11.3891839347633,10.1597867573201,11.3920436204565,11.379249836596,11.3869952833215,12.8795986700162,12.4222634888943
11.1372802792981,11.9616261866621,11.9501843632783,10.0820165359868,12.61288211811,13.1823087378458,11.2938971331909,11.4590741713812,12.8146155164419,13.0332161713994,13.7676380430995,15.2902799848638,14.9404977658317,13.7582634296608,12.2242444228477,10.2751680172908,13.2080266544209,13.6588956243996,13.2236247091635,13.6572329495257,13.3268023909307,13.6279493870012,12.2128675562444,12.5253893187447,12.1877782008398,12.5075705938567,12.2746590397141,12.5655942580616,11.0132614126422,11.0238385212034,9.98291079895283,11.0410648231068,10.9972471305395,11.0159759740862,12.7685929420728,12.3432799552581
11.0144630852118,11.8916139213637,12.0267415406262,9.93482374818531,12.3594126546548,13.3606451184854,11.0236633231363,11.2310031232766,12.8526139030285,12.9559282494069,14.0168070553154,15.3189202009113,15.0041558794316,13.8380927848281,11.9471173529119,10.051045855444,13.1724423518389,13.5302541700773,13.3229591017643,13.5537191869391,13.163855525647,13.6063235298397,12.3148824312409,12.729532451396,12.3698767319824,12.7286284647863,12.4404732987699,12.7590662178623,10.7645375931404,10.7766117591396,9.8844582792609,10.828599079127,10.7254832708033,10.7811604504455,12.8659925952042,12.2704042303257
10.9093784197649,11.945523085375,11.9971100439316,9.88915755684453,12.3888171456814,13.3387164625931,10.7854011615184,11.2047391984815,12.8561473527584,12.9976006902847,13.9554669398028,15.3290575175579,15.146913769566,14.0849877984999,11.817146378186,9.95914822199409,13.2796813771046,13.6045554842852,13.2525246472958,13.6244522482861,13.2053433618609,13.6588806082003,12.5533273804168,13.0794201349046,12.6881147019214,12.9938545072513,12.6593017046904,12.9867196945203,10.6195163562585,10.6288334312374,9.9377006552484,10.7444922714513,10.5940430513088,10.6602666482097,13.065381192657,12.2214863197362
10.8677608058412,11.9878663269211,12.0010046118013,9.87973026450576,12.4064460592532,13.1021357859667,10.7513056241609,11.1580889576656,12.9885668192406,13.0620143097464,13.9984400697653,15.6103815914968,15.3766168818389,14.5015294517899,11.7796520055649,10.0082048252592,13.3128345381767,13.607391075955,13.3669971143712,13.6762980531392,13.2068517613732,13.7506776541325,12.9347375908438,13.4636949603191,12.9815196974389,13.3741105860512,12.9972716584258,13.3412113287885,10.582620678359,10.591575240717,10.0577715583106,10.774704523176,10.583766436603,10.6352698558193,13.2505311128375,12.3800773984117
10.9698817379309,12.0666530278055,11.9437444070365,9.8688121345821,12.373916120106,13.1352498185454,10.7326445616716,11.2624676908487,13.08494521653,13.1442270302201,14.075175270155,15.786250469308,15.5883464821373,15.0031150631846,11.7453256542348,10.1662411486828,13.3536161660272,13.8206442272236,13.4434409174301,13.7482437419274,13.3775431339625,13.7536596205905,13.2688293869438,13.8298763889018,13.2850215424531,13.7848882167569,13.342264015202,13.7147406857051,10.595364021895,10.5899594560581,10.2442674102293,10.8305087762336,10.6286407095829,10.694561472245,13.4708514970289,12.5174745404192
11.0919469343906,11.9128000959456,11.8545046345421,10.096676599397,12.5099563458301,12.9104475862003,10.7546247253472,11.2403141836936,13.1448156196045,13.1374543555452,14.2710819349782,16.1032314876432,15.8995787249717,15.4276951775641,11.6450373968569,10.3290142057719,13.5518744821987,13.9081017471728,13.5328794399758,13.9652322765724,13.4889584010998,13.8799717630463,13.5321851967033,14.0910603831118,13.4875381442689,14.0414039077141,13.5919966932196,14.0535127609296,10.5425450453194,10.5148866960943,10.4398562751061,10.8632579856161,10.6237521451022,10.6893303528847,13.6103891751086,12.6394210866758
11.235430923597,11.9091588251217,12.0002121870887,10.2760769004695,12.7239701395604,13.228369645564,10.7025860692288,11.2018761796156,13.3770205882953,13.2806187873718,14.1589906422953,16.4222141750474,15.8510814395827,15.779454160083,11.3682590903794,10.4081522420679,13.5122607029154,14.0681479016101,13.8300222336205,14.1756897151254,13.6271206435687,14.0212888765502,13.7193480024749,14.1997630168297,13.6766775158746,14.151422095014,13.7183588242768,14.1722775137377,10.3885250446961,10.3535198162979,10.5337649690328,10.7557893471889,10.5010881190855,10.563178126732,13.8601481538774,12.7408369188673
11.5203560760636,12.1227763884934,12.0960890641525,10.5488144335837,12.8807717552999,13.1678418600697,10.5758185534872,11.0832704724187,13.370533101493,13.5439239608717,14.5244331441077,16.7766989039566,15.7869608238254,16.3671833355554,10.9513337128914,10.395694296758,13.8378610023185,14.3199937225768,13.9475301857421,14.2687747095124,13.7746489269529,14.179188545616,13.7954507653008,14.2629951611084,13.7486786365971,14.1634692319424,13.7726065639913,14.2331596325211,10.1427185318347,10.1080534457131,10.4813523056711,10.5233902215069,10.2788180124968,10.3419373181959,14.1194011446728,12.9603155581134
11.6112458413153,12.1107316154407,12.307959100261,10.9000767626551,13.1905221466584,13.4455107733037,10.3620211540918,10.8320182379874,13.5557239401322,13.7346271795271,14.419079087005,17.0025597021924,15.8726235061924,16.759201027833,10.4501523723593,10.2801007905826,14.1816578680127,14.4932628729063,14.2610692428986,14.4397173393934,14.0638058058019,14.451101960043,13.802521557294,14.2614616841115,13.8577188738,14.1721790321439,13.7628528871136,14.2444497750952,9.80993520339729,9.77620234302901,10.3303463449399,10.1969023683986,9.95921394243129,10.0200368450103,14.3578428205285,13.1354273923849
11.9555179245587,12.5733739770482,12.5502148725402,11.2365288395106,13.4548309663258,13.2458251353897,10.0781235129145,10.5112202651015,13.8000835523793,13.8113237571247,14.6380313042354,17.4030482901352,15.89793530851,17.1452424468778,9.9764097718252,10.099838190561,14.3770281385023,14.7531605203266,14.4566970989007,14.6796185376023,14.2374723253705,14.8390283281971,13.8267513974716,14.2836128219698,13.8872748148774,14.1927524948552,13.806675633178,14.2655685671619,9.42861903997327,9.39347137984623,10.0992251906144,9.80073694706431,9.59795102278442,9.65238243414058,14.4343813253158,13.4639498771572
12.183628439996,12.7927501713889,12.7366940921425,11.5154893109401,13.7856655081747,13.5248170793612,9.81344688061412,10.2004289517352,14.1465505581377,14.2305793013967,14.9943713642126,17.6751060689433,16.0696608403392,17.4560547818348,9.55769682444656,9.91706621490737,14.4380731441327,15.0392333628836,14.7014480939839,14.9235608324286,14.4777560889333,14.9475764103635,13.8997130261955,14.330605801844,13.9748379690927,14.3021768856587,13.8492717595301,14.3247837428788,9.05460475016877,9.02069108553054,9.8717855317186,9.41555097480937,9.22608861621736,9.26209277512209,14.6230429881391,13.7719259045004
12.5592382818369,12.9432698856935,12.8701521145877,11.8268115346585,13.9953577287683,13.8995577148114,9.59244406825892,9.90329052145326,14.3779055630941,14.4557471965641,15.1379246733387,17.8604806323574,16.5517146875458,17.7560193854362,9.21228975273795,9.70991108475967,14.818106511415,15.3155930323072,14.8739928757589,15.3211439689105,14.8434704978299,15.3989288422393,13.9627883771465,14.4453385776284,14.0738506270145,14.4268055274422,13.9617593937584,14.4058227137265,8.71549221451486,8.67806076692355,9.64597250363396,9.06748075156,8.87471160263298,8.90184965647097,14.853338516385,13.8203082850494
12.6931062777263,13.2299984252258,12.9864627806877,12.0944303841186,14.2790873502892,14.0161939740736,9.33468925142067,9.60856099127499,14.7376346781432,14.7782451491896,15.2780815117927,18.3103597767466,16.8713381377117,18.0698054892022,8.96759870703952,9.54731213421003,15.0300571557775,15.5002708194004,15.1223200239864,15.5248679203756,14.9514473305975,15.3747772020157,14.0531072029766,14.5578850856634,14.1906536321422,14.525800810064,14.1146299795433,14.5013449029175,8.40114795773232,8.37676420004048,9.49381849385221,8.80993780309693,8.55947336880751,8.57987152436833,15.005447855479,14.2679161763363
13.0105988220479,13.2627122774764,13.3246861179649,12.4494299901479,14.4240767410899,14.0266852135095,9.19755482429015,9.37238538726703,14.7869277384892,14.9092596509505,15.5299103966805,18.4244133677302,16.8381778616298,18.6237658308756,8.88303537715996,9.43615390792492,15.2623015184643,15.7502037901293,15.4879051476798,15.6308557199571,15.4420316002462,15.686436107026,14.2420979110992,14.7206252367908,14.3664510214322,14.6804652148706,14.2980663620802,14.617616920542,8.13213402822611,8.11277807776929,9.38623365982105,8.60020182570091,8.28800156459015,8.29875495489083,15.3365441110556,14.6316954087581
13.3385820847102,13.6769747299216,13.7179611488837,12.8469631783949,14.8391795840989,14.5031484058104,9.08163877157287,9.16005523332914,15.0407614767237,15.2923878179003,15.754915917158,18.8543820492408,17.0599248452967,18.8578877402985,8.93509349928034,9.44925307854035,15.4785972969573,16.1046620692086,15.6830256895843,15.905762288807,15.620420899595,15.9735784109504,14.3536844732151,14.8612890010337,14.5209071953212,14.848164742057,14.4587699659674,14.7261225317917,7.89753648576865,7.88205721846578,9.40205250487616,8.50467343743737,8.04702428503764,8.05182867522778,15.6695724823154,14.7172661793718
13.8092497122507,13.8445524119056,13.7586546255726,13.2724231377437,15.2554508068584,14.4493967898795,8.92234476642424,8.9272308147774,15.5346960762638,15.5788360438466,16.1443857925293,19.1063814989284,17.3992969467851,19.2338103762381,9.1102529725351,9.52302303558426,15.6907860397688,16.2236925533901,16.1280093837518,16.2642794488057,15.8229367892249,16.2247549273565,14.4741233753589,14.9562413998514,14.6343738115443,14.9403238351124,14.6011320794477,14.8255750975955,7.68070513033447,7.65968701658575,9.46612384945362,8.51292561236858,7.8155016241816,7.81742269158224,16.0444284597848,15.1949814236197
14.1936637085273,14.2369038989371,14.199273041263,13.9744533561554,15.9196741260777,14.9097402567543,8.77161834620449,8.66766146397879,15.7961635592896,15.9542973265834,16.4968770560735,19.6217512402833,17.4208039264959,19.8117160885229,9.41263803036582,9.65343686299903,16.1638593777539,16.6588084195507,16.5392394164112,16.7177585221234,16.1641909293207,16.7210061479589,14.4773510635315,14.9112110973837,14.5629765943746,14.9540202213754,14.6447332132322,14.841966794887,7.43757589261151,7.4164942493839,9.60284183057126,8.55583543595683,7.56071984809694,7.56083838196091,16.3361349873446,15.5667835009686
14.788824427321,14.7273315585898,14.6228382736678,14.52948203157,16.3598762007629,15.4283026865011,8.58153653111496,8.42663248015581,16.0614361430692,16.2947544050742,16.8023833281374,20.1097614165683,17.4929185578557,20.5357579227472,9.85188601444927,9.84467082644269,16.7425430019969,17.0572733197424,16.9511072714306,17.0724757776449,16.8555988823947,17.1060442081856,14.5060888754707,14.7974584648124,14.5564492564938,14.8861249333455,14.6142443565684,14.8121577264609,7.17275023199541,7.15246137842513,9.79712530650401,8.64346576442567,7.28585019135465,7.28347641273634,16.5914310721864,15.9702841452155
15.4494271690289,15.2469840006152,15.1167533514077,15.4426300544853,17.2858770959246,15.8228700745614,8.3077636792845,8.12840269986495,16.7770062717501,16.8838155100559,17.5464218245144,20.8085123504133,18.1309510160946,21.3800913695398,10.438826847656,10.1202327732653,17.3684157666712,17.6197639492892,17.5947219514052,17.5189773925722,17.5302827343241,17.5241353774033,14.4634511283901,14.7601908545311,14.5454459134843,14.7765084782059,14.6298490378837,14.7402569426615,6.89239819121707,6.8741114082855,9.99759146567924,8.82349163911026,7.0026580897498,6.9983848021894,17.0273611828207,16.4902413104672
15.9530624679753,15.9062267060232,15.977033297683,16.1621482582858,17.7834593838997,16.25051721581,8.05893349298116,7.83193710114821,17.6350368033535,17.6787418402158,17.7923755945128,21.7476885297763,18.6799839712356,21.9663352103726,11.1566005385483,10.4834664671351,17.8412544397872,18.2617969472751,18.3066296464284,18.3245375290378,17.9393746121839,18.2874791580854,14.5757949317671,14.7954297389172,14.605147752334,14.8127582875903,14.6995356700604,14.8586467994208,6.62639597257805,6.61184332172204,10.3117562187628,9.0424344627832,6.73254623880859,6.73260779759441,17.5022008503935,16.9670800615258
16.868386882693,16.5260267118967,16.6088414781506,16.9089838103713,18.7200503561358,17.1769264041709,7.81631880465649,7.58360464756309,18.1883183275719,18.3977850993506,18.6676520191512,22.2185974110656,19.4368468355904,22.7333794796263,11.9410637069075,10.9541004525733,18.5254078399107,18.9961843979368,19.0819017820553,18.8740639700812,18.6798027334475,19.1307581810851,14.7485163255152,14.9842415526993,14.806176971337,14.9932427520769,14.943193837338,15.0128435060175,6.38853082322368,6.37697394834128,10.6240187609962,9.34619172542161,6.49776811642623,6.49716481372307,18.2512230364498,17.8120682894033
17.640553220985,17.4066740923647,17.4516453959765,17.6039401067771,19.4351465081384,17.7000451291198,7.62820999837519,7.37262160147346,19.3205485842129,18.9703428250251,19.7295289711682,22.7379296899941,20.1008501687021,23.8496026742831,12.9171099659962,11.4765409634726,19.4478644343118,19.756746591596,19.8218454957232,19.8263253826703,19.4451375446633,19.8460276197995,15.0743425797875,15.3171522112875,15.1507472686499,15.3253126380053,15.2490055341343,15.3130697989838,6.20318065966134,6.19410459386499,11.0220131280825,9.70337915503612,6.32049788303001,6.31534194045529,18.9343117723455,18.6375451358386
18.2940881766158,18.8143186016529,18.4971477401559,18.5220604314471,20.2895090325532,18.9076887757577,7.52259870313628,7.20005053187213,20.0134475305884,20.0417591201499,20.9827060276883,23.717391555243,20.6903918824753,24.3487349348668,13.9479850213139,12.1027426644113,20.3535179397188,20.7024518517694,20.5812658686316,20.4598346959671,20.3965354734624,20.6709494065366,15.5160542157243,15.7657136947104,15.6479189076048,15.8065655841687,15.6837764944893,15.7532144227987,6.07381239641847,6.06533599376096,11.4926498659308,10.093185805902,6.1953914013718,6.1891618956587,19.6622738005011,19.2854314191079
19.5194084360426,19.1706528853638,19.0811667588068,19.347143172807,20.9799316184657,19.6099932989674,7.52071373435897,7.1204518605636,20.8229929749246,20.8562447534373,21.3817875477115,24.6166750912146,21.454651255649,25.1232818316297,14.9601744233891,12.8269030912774,21.0786940992193,21.5519700930833,21.3572820852438,21.4655665505668,21.2505687096637,21.5723723498255,16.135390249787,16.28679903787,16.2407141797309,16.3738462674507,16.2620568762297,16.3378632513563,6.00886807014988,6.00103265329343,11.9365253412575,10.6011180732514,6.13253728470258,6.12909833975127,20.6970530903002,20.3361656234855
20.1607912100526,19.9092053405747,20.2460239335852,20.5047261931312,21.7079762447723,20.126038353714,7.50930232886217,7.08861150263269,21.7835443029447,21.9585038550647,22.1709737585914,25.6362229387066,22.7960660802857,25.9832627115949,15.9081717608136,13.6535367446438,22.0336611598602,22.2251685188053,22.0255677078036,22.5255051119077,21.9708218035949,22.4307144335411,16.7727232537554,16.925064136793,16.8546256665215,17.0120281532311,16.8943690496635,16.9755665797434,5.99820525354249,5.99074552695874,12.4171357045794,11.0830361705227,6.12856386781337,6.1231541966637,21.5157438081149,21.1694371151695
21.1655972694557,20.8266678531933,21.0282624603674,21.788450189372,22.8207725920127,21.5471617742056,7.59512235309659,7.09412845914819,22.4180456903734,22.5446743934069,22.962511632993,26.1710773948418,22.9182434883867,26.7447085189598,17.0221601937581,14.6541445355074,22.7881829288176,23.2208728570666,23.021523204496,23.1271997140246,22.8207279489726,23.3031620494268,17.4326393241732,17.4851487369909,17.4268981301368,17.6278582406815,17.5391029109968,17.5720842249619,6.0164255286533,6.00965184774192,12.9181446262263,11.6107063216687,6.14958255410857,6.14685037716361,22.1206748044723,22.3937260139058
22.2851392127735,21.9568653852579,22.010328692879,23.4543969021288,24.5653546957089,21.9676711784276,7.6217842091159,7.11154321542866,23.7919233315227,23.9121444725209,23.5835979183078,27.1627588937935,23.8935714347755,27.5951685207454,18.2247835931234,15.7581106818908,23.7098317496839,24.3933204997756,23.6918692030207,24.5762336268429,23.8000699302028,24.1092396118221,18.023756431691,18.0396762255774,18.0063051053637,18.1122724959664,18.1226895811731,18.2195432610917,6.05029831455402,6.04357247673039,13.4311075027377,12.2111523452625,6.19206533895325,6.18446368555615,22.9316982786263,23.262642479862
23.8076776041331,22.7485280612146,22.8656068615092,25.1089229874566,25.5958656467766,23.0573057731613,7.72633787984952,7.14428091835878,24.9215228583639,25.1833568713157,25.0101405160004,28.9273107274411,24.8670043141502,29.2517890682044,19.3381271700525,17.0796907142426,25.3920859142943,25.7215860896426,25.4693971392059,25.3051344631922,25.2283687516126,25.4875038453758,18.6762784921349,18.6319314618173,18.595144161788,18.6800725492175,18.7307376974796,18.8532365004607,6.10283222110018,6.09634634691261,14.0161549980257,12.8238771644485,6.25097457422986,6.24386786118122,23.7431908335059,24.3065296619858
25.2092317773708,24.7372322538381,24.4725966473791,27.1840367904961,27.4775254242596,23.9256439570523,7.79376672130297,7.20059670295746,25.5722244986127,26.9016054869697,26.22730095647,31.307971817585,25.7741971029457,31.2263390844772,20.8000872372736,18.5493665372993,26.7767301051916,26.5195307609914,26.9729154800205,27.0050796166574,27.5392591582496,26.484608988478,19.4103858006845,19.3364231837252,19.3971731318333,19.4289030241447,19.48134704707,19.5897422794233,6.17519442397125,6.16981713486508,14.6493539768402,13.4929845840592,6.33721066069083,6.32716537702949,24.8762246234503,25.3408606471766
26.6633081398902,26.0899827214891,25.2404885379976,30.0000253057648,29.5497888744749,25.5111600781158,7.94925498059791,7.25969531918307,27.8969990282711,27.8131261728426,27.7330941133348,33.254483964008,27.7378496859304,33.0353113813143,22.5767211233886,20.1365087523255,28.680388531239,28.8583941349662,27.952262434275,29.3145869157904,27.9664203483088,28.6029299744233,20.3268960457684,20.1907622170803,20.2601929683812,20.3758301755114,20.4310205405083,20.4805369616343,6.27102650915117,6.2668549134772,15.369572660355,14.273189498268,6.4533761716573,6.44293154837076,25.6131223223189,26.9997147429013
27.9316014650094,27.3751347907366,29.0029788769828,32.4118111833012,32.1475085165365,27.0565457541295,8.06876325302239,7.38524939109197,29.759301802568,30.1814332506555,31.0999755725933,35.9173972144226,29.1246344705433,36.2224197450478,24.2925311887448,21.7793125133705,29.9913493196105,30.3022947058774,30.8179663640444,31.8752728968458,29.6871879007277,30.9051385357132,21.6496970239159,21.5233115723573,21.4343864761858,21.6429467047966,21.7133388663421,21.6348064508638,6.39380868511613,6.39034710802278,16.0681795194802,15.0554053852203,6.59801754537908,6.58751837962472,26.9233051839451,28.4538628031806
29.5158599813299,29.6838648301354,28.9100404693067,35.5650837271098,35.3584319283504,28.9807081457623,8.24026978908517,7.50469151262783,31.6116146368091,32.2066620918199,31.0242297622243,37.7311424654121,32.2647379296678,38.0477954395625,26.1303095547935,23.4998267656182,33.7766045343033,32.9399361926694,33.3403078673561,31.3374431059899,33.2781528820175,32.7474218237613,23.301465815922,23.0712259098457,22.889247349304,23.1290217718018,23.1858594320701,23.1313952574132,6.53711563294229,6.53443597688147,16.9539979663718,15.9419805826218,6.76554616289493,6.75332826083155,28.3223069230788,31.2266991990668
32.3232308700703,31.5235527291262,31.1993568077323,36.9394531911191,37.6942875019967,31.5889304355926,8.37469033274995,7.65020817814936,32.4089468201673,34.4992435751095,35.9351017777521,39.9966825032515,34.5406627142174,39.6170697494973,28.8846626656472,25.2975651135079,32.9469499361857,36.124966413315,34.196836883188,32.6667432757633,34.6215334040862,34.4944962568221,25.1972071799165,24.8907924983226,24.7275336213728,24.9222549752094,24.9821527973956,24.8084175365004,6.69428689654286,6.69284277152554,17.8011701240927,16.8457541965931,6.94272672827181,6.9323590840187,30.7383666660211,32.712582316379
34.3907487868046,34.6624239713907,32.4003575768293,39.8392784886598,37.4148733565403,31.8669986776723,8.60457180510732,7.78092535220243,34.2587345429071,35.6596928777437,38.1897174371299,39.8385378872697,36.8669061546218,41.7243991765158,30.9083072711747,27.1667034115671,34.8804192399644,35.749745907201,35.7220620960387,36.9873920466398,37.1930199809582,36.789543013533,27.115125404513,26.8037786121299,26.5947146539554,26.9275864291631,26.9025619147956,26.8650012523674,6.85968026430857,6.8594104035753,18.7060590255268,17.7963720595943,7.13008526115789,7.11785203168701,33.5165361705879,33.2079353707966
36.9694495026758,37.4543402962676,34.8226827979773,42.2959266338211,42.2963422192436,35.3331860065095,8.69813834974286,7.93711282218761,35.024018066185,37.8971992087486,36.7242590297378,42.2956558060845,39.8044504606332,42.2956558060845,32.0185990747933,29.0747748176784,36.9475988908646,37.6612218345688,38.6431329437386,38.5096366691824,39.2906238758703,37.9261131162099,29.094214356169,28.581685440036,28.4431101027814,28.9114373995132,28.7766909339186,28.9146091798368,7.02854833019774,7.02983974136287,19.6247723366015,18.7255935056335,7.31519421675209,7.30358355609967,35.8636328174057,35.0397121626364
36.9099310975035,39.548436099749,37.307994883504,100000,91.3407037575649,34.2221249194764,8.91776432279557,8.07969221317512,35.7600357921184,39.7986262052912,38.4667648241124,100000,38.1180354467299,100000,33.1937016554259,31.2025432676182,39.5029441038414,40.9828235145801,36.7938943580156,37.8869007393124,37.5204248945258,36.8653102742512,30.7224044353577,29.8724974005696,29.8220737001685,30.127246974476,30.3062573240145,30.2661247416645,7.1902284914982,7.19276678929598,20.5732150638746,19.6683859341921,7.49555013936003,7.48044695095364,35.3193959115695,36.7744555466998
34.4741836883977,30.9635862220289,35.2868702248834,103.270170058681,97.5735527703774,33.4524660412226,9.06893006602716,8.21007843320701,35.6950532821698,36.0051620097725,37.0746921048205,100000,38.7692554871108,100000,33.200540236339,33.4513652171367,35.7264946267128,39.0869592549879,36.8448710345829,38.9701651409047,37.535665866036,40.13385549914,32.235346310511,31.8768523630385,31.505023676813,31.9758804369842,32.0537105250683,32.0393667611747,7.36298168266085,7.36709854310007,21.5070891268815,20.7047430241174,7.67802457757231,7.66605821470543,34.7547635139687,37.770975910212
32.6175406612069,30.9264863922867,35.4996804771271,39.7900219154424,38.339530780692,34.1697605665481,9.21944878713101,8.37425789128203,36.332045314953,34.8611581957333,35.9387503701759,39.7900219154424,38.174511386551,39.7900219154424,35.7131459550055,34.6985473658208,36.1028392981645,36.319940722964,36.2789104452112,35.3930381604151,38.2009919454284,37.4058243347856,34.0105648233124,34.098821517817,33.0064227809451,34.207362527454,33.8349276562855,33.842758306207,7.54498799528069,7.55032334985841,22.4012305768317,21.6535776413033,7.86233723449347,7.84996622180513,35.8227518626912,34.8709864842275
33.2890388528261,31.5198858261363,33.5751919339939,36.2134646114534,38.8036637542146,29.0025184180042,9.43414455027226,8.5300904839776,33.0441897968391,35.6435169190467,35.2184371072988,36.2134646114534,34.6561557190161,36.2134646114534,36.2442978763611,35.233330926959,34.1593016618109,34.7139942719194,34.3008338118163,33.3734658575055,33.7160309563067,34.4369413875053,34.2061606791607,33.9257632616128,33.2518662264395,34.3414600668518,33.8277512102837,33.7982354238439,7.72084670973416,7.72755083825066,23.0660051986898,22.4871666311345,8.04461883500513,8.0298658755228,33.9580590554861,33.7829859455026
30.1573402538992,28.871342064527,30.7814967803545,34.7715804352095,35.8522033521021,29.5570815933089,9.62338928963928,8.70344218658992,31.2955539659555,33.3301184122129,34.0397047426,32.6226288519176,33.9275642932882,35.5337541747967,30.6964294945029,33.7326467524777,31.5834628505866,32.0033484682954,32.1215168001875,31.7433229879458,32.8470857365884,32.6070262158243,32.9363233455459,32.5752111721696,32.5582759622594,32.9126834692912,32.955976245723,31.8743679985216,7.89956502421949,7.90757795810663,23.8030564299324,23.1421768719841,8.22554987358098,8.20881279703099,31.3472662638832,30.8738476736485
27.5861322342416,27.3807613520123,26.7244662915762,31.9937082171887,32.9204404334037,26.2649425129938,9.79057667967811,8.86092828746645,28.975753227183,30.0617696183419,30.4973380002404,32.2464105491609,31.2156255873364,32.7344192497125,29.5061513202093,31.7274471540382,29.7790110653862,30.2625544008015,29.5046569721842,30.2325803592959,30.448803632746,31.1491898578197,30.6616046635235,30.5863364214669,30.8457258854755,31.0190090950007,30.7864827541351,30.6894564246294,8.08305692656759,8.09220327672192,24.0246679672338,23.6286161494054,8.4076962195225,8.38827149089708,29.3909162871961,29.8732544206878
26.7415067452969,25.4541383504209,24.8754647625348,29.650642599421,29.6308909462907,26.2021717365757,9.98713975262921,9.04192730511989,27.6604967509045,28.3892449089993,28.6782077854115,29.8214160027573,29.5573306712195,30.3116855269535,26.7968795692809,29.1593397217448,27.9385467457601,28.156426257052,28.269030217637,28.3492116044071,27.7751819612951,28.2468587477525,28.5375768415413,28.3561868230858,28.4807124303638,28.5087852889999,28.2956153891313,28.5182954024746,8.2700737145353,8.28047570055361,23.7934453860551,23.7238428008408,8.59427874266659,8.57562069417465,27.4560362069712,26.5840309439201
24.5121990886765,24.3141450404171,24.0902902944091,27.0567425454521,27.4710408444351,23.588964190384,10.20301460497,9.18760728715351,25.7114933796842,26.3097740862638,26.2144736835791,27.6830455992538,27.315877060676,28.0308646424972,25.7500523328353,27.2243531464224,26.4126866748562,26.1089373888455,26.2184779777113,26.3255949749014,26.2261089767782,26.1075556518157,26.3808796223166,26.4275690879206,26.3913318835215,26.3735439914881,26.3185482627139,26.1693655034459,8.45883993584996,8.47067868603006,23.4254338674339,22.7733813797028,8.78054280080748,8.7658559275171,25.6616677867936,25.1441042421499
23.5166210813486,22.60236346074,23.3859413348147,24.9566211923595,25.4296310691742,22.0703459165169,10.3541808516635,9.38191609742325,24.1739746275315,24.5575765776863,25.0476308699107,25.6699319416499,25.3200765944512,25.8494603829196,23.4404445186016,25.1290653577906,24.5277882526891,24.8499802913058,24.904147126392,24.5104608734279,24.4986866478975,24.3603689983574,24.3327211807535,24.3368140962963,24.3333521302746,24.4914697823697,24.3440125339346,24.282888218419,8.64660413347283,8.66044976410888,21.9830544934912,22.4059800475352,8.97066694539764,8.95123288240948,24.109885295825,23.8210098159096
22.010243519904,21.1465279847614,21.8349028739897,22.7538378201808,24.0854747033612,21.0171354390795,10.5713922911013,9.53178366248712,22.6417268868357,22.8431754284753,23.4325080624837,23.9059808198724,23.8720663796434,24.2958843092189,22.2003192005118,23.7481390998856,23.283406118019,23.1449959034327,23.1685458355213,23.5494045593988,22.9651104583335,23.2310264482253,22.5754398050054,22.5856884909862,22.6271704000824,22.7534396652087,22.5271355804306,22.4071973617725,8.82466039535989,8.84183442476631,21.5080471874611,20.8642977959496,9.15358740091021,9.13659280270223,22.5134819500875,22.3958541486919
20.4373828753575,20.6932826154039,20.1726670863168,21.2910269172633,22.55844498527,20.166312176893,10.7286842797431,9.67300659995589,21.6142356915339,22.0540965439524,22.4011991192228,22.6977897134384,22.8775598640152,22.6615925611767,20.8502653552542,22.474671992644,21.7623860084047,22.103140266154,22.3462736006104,22.2513859392127,21.8479896058188,21.8828136031209,21.089801587854,21.0848428310345,21.1037431614756,21.1809873867425,21.0744150559998,21.1357662315576,8.99722249359614,9.01727048037565,20.240942755996,20.219517688352,9.33829532384322,9.3236037084342,21.0012888376965,21.1077448242206
19.580886306553,19.345090375146,19.5191621510667,20.0572024394756,21.6960499132293,19.8302805964455,10.9057653712481,9.8184494931128,20.6461841209275,20.7615145028883,21.482229629665,21.5137581797201,21.7950815827006,21.5594847454866,19.8519535661713,21.2949184579852,20.7668691683261,21.2254284829093,20.8016812602709,21.1443414025897,20.8292446934386,21.0252452760094,19.8425636432497,19.7970013572337,19.7331681344562,19.8394234840043,19.7369961591955,19.9062616751812,9.16755710099197,9.19301690760384,19.561003860413,19.463313429301,9.53153734724183,9.51525702553309,20.0352631685038,19.8638353230543
18.3934544839964,18.4292357608749,18.2149931552842,18.927410585638,20.9091783656499,18.6672751719614,11.0703424186052,9.95637127209047,19.9706760486249,19.9980495969922,20.3437857991154,20.4515534945326,20.5449595510657,20.6738195802505,19.0777682956719,20.4627431556431,20.1516679852163,20.2709096966134,20.0589310764779,20.1444498550986,19.8692914777242,20.0653363712137,18.7314040938193,18.7424793005979,18.7348304116726,18.7035108129597,18.6590619828709,18.8709935922116,9.34423230670595,9.37234279106766,18.5543051484355,18.4601579438299,9.73057351575712,9.7051286778952,19.2734836076619,19.3508052616796
17.726724099895,17.545085982285,17.788179247962,18.0105870176842,19.781901816273,17.8771744356981,11.1992702030707,10.1043748167119,19.1281618205211,19.0332476129197,19.6557373419724,19.6503252945642,20.1667004550134,19.7530122830596,18.3818684603412,19.6066127311871,19.1700995738242,19.3214086774602,19.247580679088,19.3404630854724,19.1629026032169,19.3604774715652,17.7873245640534,17.8173822638406,17.7815796382029,17.8537309426121,17.6696922676974,17.8879670561983,9.51251156583193,9.54059331997146,17.8704399030374,17.9258004140485,9.91363411036756,9.89439783718785,18.3082613446574,18.5534353907409
16.8566873285665,16.8944105238961,16.9992731456636,16.9763865151839,18.9434400068459,17.3213324047313,11.2706859370495,10.2047000624589,18.49170924259,18.4490333446836,18.4159343285729,18.7262185245634,19.2706140669567,18.8126210853032,17.7725510997887,18.6221827269625,18.3041563885761,18.5911738181551,18.3772872028293,18.6184209006708,18.2380062862886,18.5098968266962,16.9014136739024,16.8930904211783,16.8422210376873,16.9566442970744,16.903390618086,17.0262253385035,9.66359843400139,9.69486996258522,17.1049185703907,17.1186915528507,10.0750223799781,10.0523486647036,17.6818906147168,17.6515147425846
16.2018944868684,16.2927559627409,16.1416216811692,16.0126543908286,18.0830056229821,16.7577805881435,11.3044042746314,10.312903122469,17.5188336712686,17.6559371518208,18.3872372961873,18.0782407150422,18.5725101345087,18.0453800388829,16.7314705038198,18.1081334019254,17.6226485959123,17.8379170281808,17.6710433921094,17.7958741911279,17.5680145447335,17.915218674318,16.1648066334776,16.225827051485,16.1872005942231,16.2373836842225,16.1408768153508,16.3720868515592,9.79079115556363,9.82151342996308,16.5395981216972,16.5916575772331,10.2076945596031,10.1897117498567,16.9208133424232,16.7928403564754
15.5570049435146,15.5514432676529,15.7236718396896,15.4022685989625,17.3389035256803,16.0398784227066,11.2707913270504,10.342984205337,17.0157871937907,17.0311336293205,17.402150392185,17.4843035620996,17.9267721509467,17.501955053266,16.2425557315557,17.4465705114868,16.9772461759983,17.2281796275253,17.1256780470426,17.3433976876295,16.9383470776162,17.2913321969737,15.5660553744458,15.6489491620088,15.5963436790332,15.6813099829524,15.5226259394365,15.7137704649629,9.88208991158148,9.91212315077084,15.816983493867,16.0470820608105,10.2935466487003,10.2710009434641,16.2681041195257,16.3713502830549
14.8767733045754,15.1515687320133,15.128637564302,14.7026136787974,16.8108108327671,15.87899415536,11.2014498567117,10.3832111353609,16.5826850746454,16.3824338543599,17.0851738831106,17.0745984650314,17.4891106086708,17.0606714261596,16.0306842780683,16.7888608112157,16.4940547114384,16.7152769115639,16.6769979950299,16.9657295831427,16.450392921205,16.7597497808463,15.0383290243472,15.1927794647943,15.0644855028858,15.1909017363738,15.0807129180254,15.2339431748863,9.93728820854625,9.97150342571671,15.3824523979122,15.3479466907507,10.3283797121872,10.3097978968466,15.9219566708655,15.6670833459749
14.6079633148079,14.9385137838144,14.9318459546734,14.0930556287568,16.363253763918,15.3588332481876,11.0430108463004,10.3609001834122,16.3064862102775,15.9897689133036,16.6238715145436,16.594121464143,17.1810785800037,16.5479805493913,15.4456864205486,16.2235441172248,16.0059784787575,16.3943707465787,16.0448175924388,16.4971732098574,16.1379802329562,16.4615450349478,14.703455316525,14.8032174311967,14.7845908401716,14.7768015074413,14.7118547962706,14.8379215291863,9.95433545500848,9.99321391483452,14.8427694035069,15.0065081378184,10.316609846876,10.3048706761607,15.590484486966,15.4120327328239
