none, bilat, nlm, perc_25, perc_50, perc_75, regNF, regNFNW, regNW, regVC, reg_fst_bilat, reg_rep_mask_perc_95, taa_fst_bilat_50, taa_fst_perc_50, taaW_fst_mask_bilat, taaW_fst_mask_perc, reg_dvr, reg_dvr_mask, reg_fst, reg_fst_mask, reg_rep, reg_rep_mask, taa_dvr, taa_dvr_mask, taa_fst, taa_fst_mask, taa_rep, taa_rep_mask, taaW_dvr, taaW_dvr_mask, taaW_fst, taaW_fst_mask, taaW_rep, taaW_rep_mask, taa_fst_50, taa_fst_25
0.618361, 0.535322, 0.536532, 0.268463, 0.428188, 0.554514, 0.580954, 0.635072, 0.621609, 0.606759, 0.454177, 0.195703, 0.441241, 0.331689, 0.197001, 0.212327, 0.591237, 0.266704, 0.596981, 0.265824, 0.589997, 0.266266, 0.485691, 0.241409, 0.502081, 0.254020, 0.511554, 0.240237, 0.331153, 0.266526, 0.638067, 0.342016, 0.629851, 0.339296, 0.565750, 0.595488
0.615967, 0.535514, 0.538513, 0.271240, 0.432640, 0.555094, 0.571922, 0.616837, 0.612663, 0.598753, 0.458084, 0.180747, 0.424169, 0.309321, 0.194227, 0.180646, 0.581061, 0.258671, 0.580913, 0.258712, 0.585791, 0.259289, 0.493999, 0.221080, 0.510676, 0.266355, 0.489675, 0.225183, 0.340648, 0.242356, 0.635636, 0.282868, 0.629144, 0.277049, 0.568356, 0.584556
0.600660, 0.518967, 0.521831, 0.259723, 0.419139, 0.540126, 0.555236, 0.597441, 0.599664, 0.586023, 0.454582, 0.173941, 0.415308, 0.296755, 0.197318, 0.178585, 0.570047, 0.257927, 0.570292, 0.257583, 0.572484, 0.256771, 0.488697, 0.217887, 0.485608, 0.274527, 0.470761, 0.222282, 0.349579, 0.231627, 0.616284, 0.278058, 0.606892, 0.269592, 0.560428, 0.578063
0.570168, 0.494620, 0.488642, 0.246912, 0.391669, 0.514418, 0.524705, 0.579986, 0.562328, 0.562763, 0.420204, 0.165542, 0.389762, 0.272500, 0.193363, 0.177100, 0.545834, 0.253523, 0.533438, 0.259864, 0.537288, 0.252710, 0.484250, 0.207562, 0.475920, 0.273880, 0.442308, 0.209499, 0.341088, 0.219263, 0.589872, 0.268733, 0.576617, 0.265353, 0.530383, 0.552995
0.544013, 0.471694, 0.475022, 0.253942, 0.381004, 0.490038, 0.534075, 0.578264, 0.538913, 0.531482, 0.400339, 0.164695, 0.361195, 0.271474, 0.195286, 0.172924, 0.516747, 0.255201, 0.524140, 0.257146, 0.517781, 0.256992, 0.472200, 0.201850, 0.473425, 0.277374, 0.420638, 0.207254, 0.333357, 0.208179, 0.556744, 0.280975, 0.556346, 0.268815, 0.514231, 0.527066
0.535470, 0.466363, 0.469625, 0.248582, 0.375691, 0.480724, 0.532941, 0.587590, 0.530121, 0.521444, 0.391843, 0.171713, 0.360407, 0.273159, 0.199139, 0.174747, 0.510346, 0.255522, 0.500303, 0.256222, 0.505443, 0.259582, 0.452857, 0.203516, 0.466314, 0.300087, 0.411437, 0.205390, 0.323205, 0.206274, 0.543793, 0.275892, 0.544136, 0.279494, 0.506785, 0.521947
0.545896, 0.473764, 0.470051, 0.264103, 0.381729, 0.487803, 0.562083, 0.609752, 0.539684, 0.527204, 0.405336, 0.172497, 0.376553, 0.277460, 0.201470, 0.182635, 0.513368, 0.262982, 0.510948, 0.265321, 0.515243, 0.259085, 0.449285, 0.204618, 0.480605, 0.296274, 0.409766, 0.208966, 0.319242, 0.203819, 0.556043, 0.283246, 0.555684, 0.278402, 0.514400, 0.527435
0.550642, 0.480114, 0.482958, 0.262101, 0.389440, 0.490925, 0.564139, 0.613977, 0.546467, 0.541283, 0.406919, 0.172583, 0.363745, 0.273863, 0.202732, 0.185938, 0.516815, 0.265386, 0.525911, 0.266980, 0.520318, 0.265661, 0.445349, 0.209222, 0.490682, 0.302012, 0.424085, 0.209035, 0.321244, 0.205188, 0.567776, 0.287223, 0.566141, 0.281511, 0.520364, 0.532075
0.558546, 0.471943, 0.480684, 0.271809, 0.388673, 0.493267, 0.581625, 0.627696, 0.550163, 0.536248, 0.409519, 0.172239, 0.367258, 0.274152, 0.203097, 0.187358, 0.527836, 0.258316, 0.526911, 0.267367, 0.518933, 0.264201, 0.453170, 0.212881, 0.486835, 0.301872, 0.417477, 0.209509, 0.317774, 0.203432, 0.567781, 0.287242, 0.563020, 0.280328, 0.521178, 0.536134
0.554746, 0.483484, 0.480519, 0.277382, 0.388282, 0.498236, 0.581045, 0.637325, 0.548464, 0.536786, 0.408507, 0.169508, 0.370743, 0.275295, 0.205312, 0.181579, 0.519408, 0.258850, 0.527952, 0.263550, 0.525370, 0.261828, 0.455111, 0.210388, 0.496772, 0.307606, 0.422889, 0.212057, 0.318639, 0.207704, 0.568642, 0.283933, 0.564633, 0.278068, 0.522125, 0.533241
0.557076, 0.478746, 0.478141, 0.274110, 0.392866, 0.489683, 0.592480, 0.633584, 0.548812, 0.541427, 0.405661, 0.166689, 0.374334, 0.283658, 0.207704, 0.181789, 0.528051, 0.259022, 0.528800, 0.263525, 0.526384, 0.264061, 0.458622, 0.209588, 0.494787, 0.304049, 0.417549, 0.209105, 0.318947, 0.206512, 0.576275, 0.290374, 0.566060, 0.281562, 0.511822, 0.537616
0.554219, 0.478044, 0.482288, 0.277339, 0.384568, 0.496602, 0.585340, 0.642981, 0.543973, 0.535041, 0.399739, 0.164530, 0.361918, 0.277680, 0.222664, 0.180135, 0.524624, 0.256218, 0.526162, 0.262230, 0.515481, 0.255990, 0.457731, 0.207870, 0.491196, 0.436739, 0.412672, 0.206576, 0.315446, 0.205603, 0.563244, 0.282823, 0.560750, 0.275700, 0.509979, 0.531383
0.547992, 0.472328, 0.472002, 0.271841, 0.381556, 0.477455, 0.587327, 0.642676, 0.535974, 0.525836, 0.391539, 0.158785, 0.357515, 0.278701, 0.193026, 0.178470, 0.517272, 0.251184, 0.517599, 0.260347, 0.515307, 0.253325, 0.455895, 0.203450, 0.473087, 0.288078, 0.404910, 0.199495, 0.314926, 0.203814, 0.560341, 0.280987, 0.553840, 0.275206, 0.501729, 0.528797
0.536088, 0.467206, 0.466280, 0.282835, 0.385043, 0.483043, 0.584487, 0.636208, 0.529656, 0.520462, 0.389886, 0.164349, 0.360151, 0.282780, 0.195516, 0.179752, 0.507812, 0.248184, 0.511996, 0.254317, 0.508370, 0.254342, 0.459959, 0.207077, 0.479905, 0.288177, 0.402992, 0.202863, 0.318086, 0.204194, 0.553836, 0.327717, 0.552040, 0.271695, 0.501131, 0.514474
0.553741, 0.479688, 0.476463, 0.296963, 0.391226, 0.491501, 0.586646, 0.638138, 0.544408, 0.537673, 0.407520, 0.162525, 0.378787, 0.293392, 0.196869, 0.181197, 0.520266, 0.249749, 0.528583, 0.254867, 0.522921, 0.250840, 0.454633, 0.212368, 0.487448, 0.287092, 0.424111, 0.211684, 0.322766, 0.205111, 0.562320, 0.276411, 0.564012, 0.275704, 0.513269, 0.529790
0.588601, 0.511189, 0.517526, 0.295025, 0.422162, 0.522273, 0.666700, 0.671732, 0.574550, 0.564308, 0.430387, 0.168132, 0.400595, 0.308791, 0.203332, 0.183385, 0.548774, 0.249861, 0.561827, 0.257802, 0.549432, 0.254559, 0.466279, 0.213421, 0.518446, 0.285838, 0.452617, 0.217516, 0.325283, 0.209146, 0.600304, 0.279257, 0.594438, 0.276249, 0.547239, 0.563347
0.609654, 0.537891, 0.529526, 0.295341, 0.428264, 0.551183, 0.631734, 0.677090, 0.602031, 0.591991, 0.443964, 0.164797, 0.421320, 0.326900, 0.195653, 0.182362, 0.569884, 0.252416, 0.574467, 0.257209, 0.581397, 0.250789, 0.486336, 0.211220, 0.525042, 0.391405, 0.462597, 0.212166, 0.320414, 0.201800, 0.626970, 0.275298, 0.622014, 0.274780, 0.564457, 0.581063
0.626602, 0.554174, 0.556029, 0.312848, 0.445185, 0.563010, 0.643608, 0.690223, 0.614237, 0.600434, 0.459817, 0.169340, 0.437387, 0.325873, 0.203085, 0.181153, 0.593344, 0.251010, 0.593550, 0.258602, 0.584980, 0.251511, 0.481269, 0.204707, 0.543077, 0.297231, 0.480134, 0.210707, 0.318030, 0.198427, 0.635418, 0.280142, 0.633474, 0.277102, 0.573070, 0.596878
0.634451, 0.563146, 0.554628, 0.317144, 0.449935, 0.567921, 0.647955, 0.697831, 0.618293, 0.611403, 0.454399, 0.166274, 0.439911, 0.341746, 0.210163, 0.187003, 0.591361, 0.258954, 0.595041, 0.262583, 0.591812, 0.259159, 0.494660, 0.206446, 0.550566, 0.292587, 0.486197, 0.213866, 0.320145, 0.203557, 0.648890, 0.289802, 0.640831, 0.283803, 0.582091, 0.601506
0.629025, 0.549022, 0.550337, 0.311716, 0.453193, 0.566897, 0.709876, 0.713896, 0.618093, 0.601150, 0.470173, 0.171229, 0.428861, 0.327754, 0.204149, 0.187669, 0.597105, 0.257822, 0.601772, 0.264420, 0.593034, 0.257169, 0.497811, 0.206217, 0.548884, 0.294052, 0.473239, 0.211824, 0.323452, 0.203797, 0.644063, 0.289108, 0.641978, 0.283815, 0.578962, 0.597983
0.607436, 0.535140, 0.535936, 0.308683, 0.427006, 0.542804, 0.619617, 0.662624, 0.599423, 0.594368, 0.450068, 0.167263, 0.420792, 0.311075, 0.203418, 0.184129, 0.575152, 0.255695, 0.574552, 0.260927, 0.577498, 0.255840, 0.497949, 0.209302, 0.534872, 0.291872, 0.471554, 0.209780, 0.322298, 0.208820, 0.623329, 0.285262, 0.616974, 0.277769, 0.572312, 0.585014
0.587725, 0.517875, 0.518987, 0.279853, 0.415275, 0.532134, 0.601356, 0.657473, 0.580114, 0.563641, 0.428917, 0.164412, 0.399569, 0.304566, 0.209782, 0.184923, 0.551904, 0.259229, 0.555528, 0.265796, 0.553611, 0.258330, 0.494749, 0.207320, 0.517306, 0.305455, 0.445184, 0.214200, 0.323455, 0.209464, 0.599071, 0.287278, 0.596923, 0.284354, 0.551177, 0.560717
0.561072, 0.483001, 0.484307, 0.285112, 0.397945, 0.498524, 0.590107, 0.640193, 0.542840, 0.536864, 0.402076, 0.166491, 0.375641, 0.300497, 0.211351, 0.188487, 0.522775, 0.258713, 0.533456, 0.271415, 0.518640, 0.261672, 0.482468, 0.207095, 0.493262, 0.305320, 0.412920, 0.213607, 0.323364, 0.208297, 0.574842, 0.295015, 0.564476, 0.286098, 0.520861, 0.533703
0.546826, 0.471823, 0.474305, 0.283442, 0.390152, 0.489000, 0.579351, 0.630234, 0.538668, 0.523435, 0.397130, 0.166830, 0.358010, 0.291082, 0.214103, 0.191340, 0.513126, 0.258072, 0.514576, 0.269461, 0.513219, 0.263139, 0.471133, 0.213255, 0.486137, 0.305215, 0.408246, 0.215953, 0.321292, 0.205648, 0.562783, 0.299160, 0.555231, 0.292930, 0.509795, 0.526096
0.548269, 0.478565, 0.469154, 0.276635, 0.384529, 0.492607, 0.591151, 0.635073, 0.537921, 0.529969, 0.394993, 0.171456, 0.373866, 0.289103, 0.209116, 0.197238, 0.512131, 0.264464, 0.521628, 0.275830, 0.515205, 0.265325, 0.456343, 0.215910, 0.495033, 0.309681, 0.420789, 0.218058, 0.319488, 0.211055, 0.561449, 0.293802, 0.565769, 0.292139, 0.510746, 0.530127
0.553326, 0.477339, 0.476237, 0.280362, 0.398088, 0.491322, 0.591693, 0.635913, 0.541969, 0.532713, 0.394646, 0.174271, 0.366246, 0.280803, 0.214541, 0.195523, 0.523615, 0.269510, 0.528518, 0.279780, 0.522542, 0.267526, 0.453687, 0.217847, 0.491034, 0.308145, 0.416828, 0.219909, 0.311618, 0.214314, 0.571424, 0.298173, 0.565621, 0.294619, 0.516275, 0.531111
0.552616, 0.469635, 0.467703, 0.279831, 0.388214, 0.488363, 0.638923, 0.645750, 0.543660, 0.532189, 0.399547, 0.171897, 0.365520, 0.278244, 0.215695, 0.200149, 0.522770, 0.270272, 0.531966, 0.272531, 0.515812, 0.266806, 0.451005, 0.220073, 0.490490, 0.305362, 0.410527, 0.219593, 0.313456, 0.220368, 0.571365, 0.299661, 0.565439, 0.300276, 0.515579, 0.533334
0.553412, 0.486136, 0.481285, 0.285156, 0.378421, 0.492667, 0.587086, 0.631372, 0.542541, 0.534872, 0.396961, 0.171477, 0.362905, 0.273827, 0.220063, 0.197638, 0.517845, 0.269558, 0.524248, 0.272039, 0.517945, 0.264839, 0.461613, 0.224937, 0.497902, 0.308140, 0.416569, 0.222968, 0.319359, 0.224931, 0.565929, 0.298088, 0.562087, 0.295346, 0.518194, 0.530618
0.552528, 0.486506, 0.484984, 0.281304, 0.387373, 0.491610, 0.588796, 0.630871, 0.543124, 0.534822, 0.393613, 0.176756, 0.366552, 0.277009, 0.217630, 0.198309, 0.521578, 0.275215, 0.522504, 0.278641, 0.520288, 0.267882, 0.463529, 0.224143, 0.485068, 0.314298, 0.414877, 0.222795, 0.324805, 0.226359, 0.566067, 0.301697, 0.566281, 0.300987, 0.512808, 0.528172
0.553129, 0.471528, 0.475549, 0.280900, 0.387825, 0.486747, 0.579123, 0.629480, 0.538504, 0.530890, 0.391109, 0.171846, 0.366131, 0.286583, 0.215944, 0.200640, 0.513283, 0.273460, 0.521867, 0.278164, 0.513344, 0.271638, 0.465509, 0.224304, 0.476133, 0.297384, 0.416067, 0.220648, 0.324266, 0.234016, 0.560851, 0.299088, 0.564464, 0.296390, 0.508781, 0.525519
0.539753, 0.469577, 0.463389, 0.283350, 0.384473, 0.480784, 0.569311, 0.622284, 0.537124, 0.522849, 0.399161, 0.171256, 0.368806, 0.276276, 0.216564, 0.209860, 0.506373, 0.266044, 0.520312, 0.272947, 0.506335, 0.266982, 0.468430, 0.227239, 0.464265, 0.303844, 0.403616, 0.217692, 0.321788, 0.235391, 0.554356, 0.407092, 0.549699, 0.287959, 0.496641, 0.522411
0.526593, 0.466383, 0.458671, 0.275932, 0.377097, 0.476123, 0.559402, 0.610476, 0.521721, 0.512340, 0.380923, 0.167195, 0.351832, 0.279306, 0.215799, 0.192767, 0.495327, 0.258340, 0.503219, 0.268231, 0.504019, 0.262889, 0.457227, 0.223827, 0.462028, 0.289625, 0.405200, 0.223412, 0.324362, 0.237009, 0.547881, 0.288750, 0.541053, 0.288280, 0.493604, 0.513883
0.548086, 0.470661, 0.466246, 0.270359, 0.382831, 0.487683, 0.558062, 0.615689, 0.536245, 0.523474, 0.389000, 0.168784, 0.359523, 0.287321, 0.213254, 0.190957, 0.507371, 0.260091, 0.506788, 0.267598, 0.506055, 0.261499, 0.460516, 0.228613, 0.465970, 0.276599, 0.415917, 0.226794, 0.326141, 0.244117, 0.559377, 0.285646, 0.554474, 0.286529, 0.500380, 0.520919
0.574020, 0.496171, 0.494772, 0.260704, 0.405498, 0.514244, 0.569585, 0.621667, 0.559841, 0.547501, 0.406051, 0.166586, 0.385020, 0.292726, 0.212878, 0.185352, 0.535973, 0.256930, 0.541429, 0.265528, 0.531910, 0.257098, 0.461047, 0.233351, 0.485083, 0.271405, 0.440698, 0.230097, 0.328645, 0.248910, 0.589479, 0.282554, 0.586807, 0.286741, 0.524322, 0.555796
0.600667, 0.511191, 0.512731, 0.281435, 0.409920, 0.526128, 0.593933, 0.646737, 0.586132, 0.572885, 0.433987, 0.166446, 0.395511, 0.292121, 0.203958, 0.187455, 0.548068, 0.258078, 0.568792, 0.264611, 0.557674, 0.258194, 0.476432, 0.231700, 0.506800, 0.284074, 0.460512, 0.232482, 0.326335, 0.242083, 0.608535, 0.286646, 0.610851, 0.294401, 0.544934, 0.572610
0.604112, 0.519087, 0.524691, 0.277628, 0.419317, 0.544284, 0.606875, 0.651350, 0.592656, 0.576970, 0.438419, 0.160269, 0.391981, 0.275588, 0.208560, 0.186546, 0.570581, 0.250293, 0.568144, 0.263237, 0.572317, 0.254262, 0.476113, 0.223510, 0.505135, 0.276727, 0.453799, 0.228300, 0.322569, 0.241352, 0.613661, 0.288820, 0.623354, 0.293515, 0.557620, 0.574634
0.622015, 0.531909, 0.527690, 0.281516, 0.423964, 0.554230, 0.618923, 0.669739, 0.606629, 0.595302, 0.439522, 0.162232, 0.412188, 0.309218, 0.213969, 0.190814, 0.568037, 0.261176, 0.588369, 0.272987, 0.577305, 0.260687, 0.486692, 0.219638, 0.524217, 0.291726, 0.465983, 0.231209, 0.326068, 0.242061, 0.634247, 0.300519, 0.624360, 0.298905, 0.571971, 0.597943
0.611347, 0.529391, 0.521228, 0.283286, 0.427145, 0.546797, 0.604744, 0.657376, 0.600507, 0.586702, 0.445664, 0.165794, 0.401324, 0.294082, 0.210012, 0.192237, 0.574135, 0.262259, 0.576432, 0.275516, 0.568764, 0.264573, 0.493456, 0.222649, 0.524776, 0.293869, 0.471552, 0.223532, 0.330732, 0.243021, 0.623272, 0.290907, 0.618566, 0.299643, 0.563079, 0.584821
0.596403, 0.511684, 0.511452, 0.280175, 0.405181, 0.528207, 0.594131, 0.634656, 0.575866, 0.573291, 0.427744, 0.169267, 0.396775, 0.301437, 0.208783, 0.187526, 0.555558, 0.259137, 0.563190, 0.267484, 0.552810, 0.253614, 0.490340, 0.223449, 0.511465, 0.289387, 0.451293, 0.221529, 0.333306, 0.246779, 0.611069, 0.290405, 0.604856, 0.294481, 0.555900, 0.573929
0.567888, 0.485099, 0.491544, 0.262370, 0.393719, 0.507789, 0.560218, 0.617326, 0.555080, 0.548916, 0.413684, 0.164646, 0.374325, 0.285941, 0.202459, 0.188738, 0.528708, 0.253702, 0.529504, 0.264846, 0.527784, 0.255427, 0.475894, 0.219083, 0.489886, 0.290058, 0.435940, 0.220341, 0.335056, 0.244873, 0.590156, 0.289781, 0.573457, 0.285222, 0.529653, 0.539930
0.539069, 0.462036, 0.448557, 0.251806, 0.352706, 0.467874, 0.554462, 0.599233, 0.523580, 0.509455, 0.371469, 0.161012, 0.355891, 0.250309, 0.204651, 0.181059, 0.492281, 0.253170, 0.502657, 0.256988, 0.502948, 0.253374, 0.463867, 0.210159, 0.466885, 0.289953, 0.397569, 0.211862, 0.331810, 0.246469, 0.551652, 0.287004, 0.541382, 0.282933, 0.498849, 0.515640
0.534693, 0.440860, 0.445191, 0.243944, 0.364429, 0.467961, 0.545482, 0.595758, 0.520733, 0.507213, 0.377208, 0.161698, 0.349764, 0.254036, 0.210627, 0.189494, 0.493821, 0.262631, 0.493586, 0.269946, 0.484738, 0.261480, 0.452799, 0.213872, 0.457302, 0.298516, 0.384043, 0.213650, 0.337430, 0.249261, 0.546153, 0.296218, 0.537645, 0.287942, 0.500073, 0.509343
0.544641, 0.452401, 0.455158, 0.259262, 0.376462, 0.476898, 0.555631, 0.596037, 0.523647, 0.513927, 0.374694, 0.163598, 0.342486, 0.262691, 0.217387, 0.196296, 0.492802, 0.266240, 0.502321, 0.272678, 0.498538, 0.269387, 0.443893, 0.217555, 0.459221, 0.303110, 0.393862, 0.218390, 0.340687, 0.255667, 0.555203, 0.303415, 0.547934, 0.297736, 0.498450, 0.521484
0.543584, 0.458090, 0.457211, 0.273869, 0.378146, 0.477961, 0.615076, 0.621403, 0.533162, 0.522388, 0.379601, 0.167966, 0.355346, 0.253675, 0.225074, 0.202870, 0.500677, 0.272043, 0.511002, 0.281332, 0.500633, 0.273188, 0.454967, 0.223236, 0.475046, 0.308674, 0.399023, 0.222540, 0.341157, 0.258698, 0.560583, 0.306038, 0.551930, 0.304268, 0.510831, 0.523747
0.551317, 0.460748, 0.462701, 0.266763, 0.367437, 0.483350, 0.612414, 0.622401, 0.532865, 0.522710, 0.380745, 0.166008, 0.355528, 0.268501, 0.221593, 0.202009, 0.503850, 0.270218, 0.516539, 0.281575, 0.508528, 0.270581, 0.449145, 0.229069, 0.472449, 0.303518, 0.397063, 0.221274, 0.341591, 0.262961, 0.558885, 0.307735, 0.556896, 0.302697, 0.503532, 0.523513
0.551713, 0.460417, 0.466572, 0.244285, 0.384621, 0.476330, 0.560354, 0.596056, 0.533099, 0.525060, 0.388090, 0.164716, 0.351754, 0.276173, 0.225144, 0.206235, 0.508759, 0.272702, 0.512965, 0.283504, 0.510903, 0.269892, 0.453487, 0.230539, 0.477212, 0.301297, 0.402415, 0.221902, 0.344883, 0.267611, 0.568001, 0.305143, 0.558729, 0.307570, 0.504660, 0.529375
0.545917, 0.463195, 0.460092, 0.254800, 0.368186, 0.479056, 0.552006, 0.585971, 0.528808, 0.516454, 0.382121, 0.161388, 0.360366, 0.279004, 0.229411, 0.200067, 0.495899, 0.268586, 0.511097, 0.278597, 0.509975, 0.270277, 0.453910, 0.229759, 0.470236, 0.295114, 0.399331, 0.221981, 0.343959, 0.265152, 0.554184, 0.302521, 0.552054, 0.300640, 0.505022, 0.520228
0.546506, 0.456049, 0.462651, 0.265658, 0.384667, 0.478049, 0.550720, 0.580771, 0.524227, 0.514066, 0.382539, 0.159768, 0.348525, 0.245849, 0.221853, 0.197559, 0.497130, 0.267653, 0.506337, 0.272296, 0.497923, 0.272724, 0.456063, 0.229286, 0.458017, 0.297706, 0.390583, 0.218501, 0.342836, 0.263576, 0.557195, 0.300987, 0.547408, 0.298587, 0.496356, 0.521494
0.540565, 0.457370, 0.444379, 0.256010, 0.366269, 0.474251, 0.534517, 0.585161, 0.514285, 0.510042, 0.372413, 0.154736, 0.353531, 0.253928, 0.221446, 0.196784, 0.503695, 0.261271, 0.497175, 0.264326, 0.491984, 0.260643, 0.449751, 0.224066, 0.457896, 0.285800, 0.386867, 0.212991, 0.337720, 0.256190, 0.549040, 0.308125, 0.539252, 0.293484, 0.489170, 0.511868
0.526685, 0.452431, 0.451172, 0.260145, 0.369813, 0.466389, 0.533708, 0.577778, 0.507786, 0.497818, 0.366620, 0.149490, 0.350893, 0.253471, 0.212500, 0.189366, 0.491615, 0.258209, 0.495868, 0.260994, 0.483048, 0.255858, 0.446669, 0.228046, 0.444439, 0.286058, 0.383055, 0.217393, 0.342328, 0.254879, 0.543477, 0.294298, 0.534368, 0.291087, 0.486324, 0.504289
0.543066, 0.461681, 0.462535, 0.259400, 0.373748, 0.475350, 0.537640, 0.574374, 0.526546, 0.509557, 0.379033, 0.154616, 0.360643, 0.261824, 0.210313, 0.188805, 0.499811, 0.255536, 0.508498, 0.263510, 0.502488, 0.255313, 0.442260, 0.229809, 0.451984, 0.268974, 0.402227, 0.227336, 0.346480, 0.255080, 0.555580, 0.288475, 0.545794, 0.291772, 0.492376, 0.516328
0.571104, 0.491574, 0.492116, 0.254509, 0.400197, 0.506428, 0.610081, 0.619251, 0.553056, 0.544879, 0.410969, 0.151138, 0.377338, 0.276603, 0.209945, 0.187695, 0.528441, 0.252261, 0.530330, 0.258224, 0.532051, 0.250912, 0.452065, 0.226820, 0.473013, 0.270369, 0.431918, 0.226258, 0.348186, 0.253856, 0.585024, 0.289026, 0.578724, 0.287038, 0.518242, 0.550923
0.594423, 0.512237, 0.508908, 0.250423, 0.403664, 0.530573, 0.576704, 0.608850, 0.574660, 0.567208, 0.418847, 0.148135, 0.400669, 0.287311, 0.208686, 0.185590, 0.554353, 0.250792, 0.558326, 0.259894, 0.551496, 0.252274, 0.455428, 0.230938, 0.503359, 0.277450, 0.441473, 0.228918, 0.350167, 0.255432, 0.611308, 0.290760, 0.608652, 0.293075, 0.545502, 0.575710
0.612028, 0.522613, 0.522147, 0.258966, 0.421390, 0.534577, 0.578712, 0.626503, 0.589676, 0.580745, 0.445476, 0.148745, 0.403825, 0.277521, 0.211081, 0.186422, 0.555668, 0.254650, 0.578071, 0.257883, 0.563392, 0.253665, 0.470811, 0.222857, 0.499689, 0.282003, 0.455219, 0.233767, 0.353289, 0.253167, 0.622654, 0.298762, 0.620714, 0.299946, 0.560358, 0.585750
0.622499, 0.528584, 0.526668, 0.262222, 0.425655, 0.546660, 0.579117, 0.625526, 0.597219, 0.590454, 0.437130, 0.148319, 0.413734, 0.278289, 0.204384, 0.186661, 0.569242, 0.256515, 0.578221, 0.261397, 0.570393, 0.256328, 0.475653, 0.213672, 0.519277, 0.284445, 0.464303, 0.226092, 0.351727, 0.255969, 0.629849, 0.295468, 0.628004, 0.297700, 0.569048, 0.591011
0.611777, 0.529779, 0.527929, 0.253639, 0.407892, 0.554818, 0.585672, 0.618385, 0.605179, 0.592146, 0.435977, 0.142828, 0.414808, 0.294172, 0.207144, 0.185297, 0.571384, 0.252732, 0.579971, 0.265773, 0.565066, 0.255956, 0.478295, 0.209073, 0.510225, 0.284062, 0.459105, 0.216486, 0.351762, 0.256494, 0.622454, 0.287275, 0.617484, 0.289391, 0.561952, 0.586433
0.601357, 0.516492, 0.502940, 0.257076, 0.400114, 0.533428, 0.565713, 0.602161, 0.581280, 0.575530, 0.429012, 0.148912, 0.398152, 0.271986, 0.206992, 0.183288, 0.553204, 0.251745, 0.557766, 0.261175, 0.561172, 0.252431, 0.480708, 0.210734, 0.512461, 0.282502, 0.442473, 0.218064, 0.349887, 0.257767, 0.605845, 0.289441, 0.597525, 0.287168, 0.555773, 0.571400
0.576800, 0.493075, 0.498372, 0.242313, 0.390480, 0.508945, 0.536247, 0.582778, 0.558689, 0.543217, 0.406127, 0.146584, 0.372726, 0.282816, 0.204706, 0.181279, 0.523355, 0.251332, 0.532345, 0.264499, 0.530695, 0.252271, 0.469746, 0.206477, 0.493837, 0.290757, 0.427490, 0.212470, 0.350070, 0.258621, 0.584975, 0.285237, 0.577677, 0.287279, 0.535808, 0.557666
0.548047, 0.463119, 0.457762, 0.228788, 0.368194, 0.479991, 0.522068, 0.564515, 0.522325, 0.511669, 0.378542, 0.143277, 0.355593, 0.253256, 0.205574, 0.180071, 0.493917, 0.253940, 0.501250, 0.259495, 0.496374, 0.252346, 0.454554, 0.202656, 0.462309, 0.288884, 0.394792, 0.212036, 0.352936, 0.254612, 0.560457, 0.291268, 0.548606, 0.285519, 0.505154, 0.520152
0.529422, 0.447033, 0.459537, 0.237545, 0.361011, 0.474623, 0.519681, 0.551072, 0.507847, 0.502954, 0.369048, 0.144449, 0.341378, 0.244655, 0.204341, 0.190581, 0.488877, 0.251970, 0.495520, 0.268630, 0.485958, 0.255104, 0.441216, 0.204465, 0.456329, 0.292174, 0.390249, 0.209925, 0.354512, 0.257224, 0.544472, 0.293537, 0.536230, 0.288873, 0.492599, 0.510844
0.539893, 0.445313, 0.452667, 0.247670, 0.369969, 0.478885, 0.522089, 0.561126, 0.521805, 0.512367, 0.374597, 0.143199, 0.355348, 0.251270, 0.207154, 0.189779, 0.487100, 0.258625, 0.501283, 0.264074, 0.498607, 0.257829, 0.429117, 0.204457, 0.466630, 0.290180, 0.391314, 0.206501, 0.356978, 0.259832, 0.551664, 0.299108, 0.542114, 0.292900, 0.495982, 0.518209
0.541084, 0.448537, 0.456365, 0.247077, 0.379010, 0.478405, 0.523221, 0.563006, 0.526314, 0.518748, 0.377012, 0.146719, 0.350586, 0.263424, 0.213320, 0.190405, 0.490332, 0.261936, 0.505194, 0.262901, 0.499980, 0.260341, 0.423230, 0.209829, 0.461991, 0.296303, 0.397854, 0.205466, 0.352759, 0.263652, 0.555719, 0.290811, 0.552125, 0.288095, 0.505679, 0.510551
0.543265, 0.472987, 0.458648, 0.241567, 0.374805, 0.477760, 0.530934, 0.567479, 0.529735, 0.518538, 0.385022, 0.144576, 0.343864, 0.258569, 0.212337, 0.189611, 0.507280, 0.260999, 0.513964, 0.267844, 0.507651, 0.259363, 0.432446, 0.210299, 0.467267, 0.294837, 0.403482, 0.209941, 0.359112, 0.267594, 0.549261, 0.295038, 0.547576, 0.294751, 0.497779, 0.524806
0.545729, 0.467510, 0.471181, 0.250650, 0.379432, 0.475520, 0.534435, 0.573070, 0.526566, 0.517860, 0.386028, 0.146069, 0.353750, 0.264198, 0.209082, 0.187883, 0.505025, 0.262570, 0.512643, 0.267796, 0.503541, 0.256205, 0.439319, 0.212189, 0.465112, 0.306394, 0.397693, 0.211615, 0.364224, 0.268637, 0.555990, 0.298699, 0.556610, 0.294596, 0.505784, 0.528482
0.549645, 0.462711, 0.461458, 0.262064, 0.369301, 0.476100, 0.536893, 0.568815, 0.527975, 0.526519, 0.388412, 0.146586, 0.356683, 0.260771, 0.210090, 0.193201, 0.509012, 0.257349, 0.513900, 0.262641, 0.500856, 0.259961, 0.440588, 0.213304, 0.462858, 0.293644, 0.396089, 0.207663, 0.365817, 0.273515, 0.556614, 0.295235, 0.551753, 0.294228, 0.512588, 0.525499
0.546211, 0.469707, 0.465561, 0.256423, 0.377794, 0.479083, 0.526382, 0.564752, 0.532025, 0.517875, 0.393131, 0.147265, 0.357458, 0.259621, 0.213941, 0.188206, 0.509922, 0.257481, 0.513164, 0.264659, 0.507857, 0.253807, 0.450572, 0.214125, 0.469338, 0.309357, 0.406152, 0.207862, 0.367631, 0.273358, 0.556709, 0.318988, 0.546695, 0.288363, 0.504740, 0.524698
0.545334, 0.460298, 0.466932, 0.250966, 0.360548, 0.474332, 0.524361, 0.573904, 0.530537, 0.519476, 0.381022, 0.150634, 0.359657, 0.266486, 0.209804, 0.192738, 0.513521, 0.254805, 0.518054, 0.258848, 0.508250, 0.251880, 0.446976, 0.211467, 0.461515, 0.316318, 0.403427, 0.211747, 0.360949, 0.266408, 0.556243, 0.287161, 0.552566, 0.281598, 0.499766, 0.519506
0.537818, 0.451525, 0.453375, 0.244846, 0.367930, 0.467546, 0.530046, 0.568303, 0.524900, 0.510834, 0.386961, 0.146433, 0.359967, 0.267455, 0.199394, 0.181208, 0.495949, 0.248544, 0.511109, 0.253611, 0.496289, 0.246056, 0.445487, 0.210209, 0.454713, 0.293230, 0.405698, 0.204222, 0.357398, 0.262972, 0.554172, 0.280758, 0.546903, 0.272727, 0.490509, 0.512999
0.552014, 0.469185, 0.470763, 0.262842, 0.374978, 0.479009, 0.524260, 0.570369, 0.535919, 0.532555, 0.386979, 0.147614, 0.364327, 0.273330, 0.203079, 0.181406, 0.504859, 0.243229, 0.517928, 0.252554, 0.510389, 0.242525, 0.441778, 0.214618, 0.467466, 0.271173, 0.415637, 0.213289, 0.356433, 0.261509, 0.563885, 0.279150, 0.555435, 0.280448, 0.504298, 0.524903
0.580138, 0.491354, 0.495911, 0.260036, 0.405988, 0.516468, 0.546255, 0.584193, 0.561123, 0.548746, 0.425021, 0.147739, 0.386046, 0.286768, 0.194270, 0.175673, 0.539364, 0.239776, 0.544074, 0.246371, 0.539893, 0.238948, 0.449971, 0.217566, 0.481669, 0.270187, 0.442643, 0.217280, 0.353668, 0.256817, 0.587206, 0.272213, 0.592813, 0.271892, 0.537679, 0.555297
0.596679, 0.517559, 0.513953, 0.265778, 0.418424, 0.533098, 0.557133, 0.606449, 0.585981, 0.570693, 0.435200, 0.142153, 0.408705, 0.280081, 0.191793, 0.169067, 0.555448, 0.236708, 0.560187, 0.251017, 0.558348, 0.238156, 0.462378, 0.211544, 0.513050, 0.277761, 0.457521, 0.213512, 0.347851, 0.253494, 0.615048, 0.273819, 0.609658, 0.274506, 0.549895, 0.579519
0.609284, 0.521542, 0.525580, 0.267318, 0.419868, 0.535909, 0.578530, 0.620942, 0.593509, 0.583727, 0.442473, 0.136457, 0.407762, 0.289216, 0.195028, 0.170472, 0.567818, 0.233290, 0.572650, 0.240932, 0.564712, 0.236361, 0.477210, 0.204399, 0.520509, 0.279513, 0.464495, 0.211565, 0.341761, 0.250563, 0.623268, 0.274946, 0.625168, 0.270195, 0.564824, 0.587468
0.618159, 0.530950, 0.533756, 0.263897, 0.430050, 0.545730, 0.570012, 0.615456, 0.607219, 0.588366, 0.447386, 0.139099, 0.407601, 0.300537, 0.193202, 0.173026, 0.572326, 0.237371, 0.576149, 0.246271, 0.572417, 0.238898, 0.477403, 0.199617, 0.520998, 0.277935, 0.464255, 0.202919, 0.341413, 0.252562, 0.630103, 0.275205, 0.622430, 0.272823, 0.566895, 0.593755
