none,bilat,nlm,perc_25,perc_50,perc_75,regNF,regNFNW,regNW,regVC,reg_fst_bilat,reg_rep_mask_perc_95,taa_fst_bilat_50,taa_fst_perc_50,taaW_fst_mask_bilat,taaW_fst_mask_perc,reg_dvr,reg_dvr_mask,reg_fst,reg_fst_mask,reg_rep,reg_rep_mask,taa_dvr,taa_dvr_mask,taa_fst,taa_fst_mask,taa_rep,taa_rep_mask,taaW_dvr,taaW_dvr_mask,taaW_fst,taaW_fst_mask,taaW_rep,taaW_rep_mask,taa_fst_50,taa_fst_25
23.6748512418989,24.6292004965351,24.6138984143374,26.7408152534196,26.7408152534196,23.8980870881146,23.7721964632998,23.6779397891618,23.6294250943991,23.6649099595766,24.900909948935,26.0529747174598,24.3029393461623,23.6899150232056,24.5904944339473,26.4959104256236,23.7582577196607,23.7685568781057,23.5790436328061,23.7487289414523,23.7352516411667,23.5839571937967,22.0101775077309,22.0000504789903,22.0590152536054,22.0132921143839,22.0089166911144,22.0890750524771,23.7556456923329,23.6705201879583,23.8334050028143,23.6364765340687,23.676558998094,23.672157921303,23.0405625909362,23.5671017942157
23.1660336270085,24.3420849511039,24.1917386446127,26.326572862305,26.326572862305,23.5505352328704,23.6211887434301,23.515221103815,23.7211258042092,24.0420016888333,24.8909154991341,27.4952055094772,26.3555010347345,25.5576058487932,27.1445507824876,27.7313057685664,24.0206443105481,24.1558494927637,24.0150928298576,24.0984799520766,23.9455562693484,24.0121627509615,23.1748518861961,23.1624150895927,23.2573449610026,23.185419340818,23.2151528252493,23.2657102071889,24.1456661250962,24.1186183714702,24.1324855504848,24.0888164483972,24.1928752542973,24.1034062978331,24.070422335809,24.0866864396492
22.9356166310463,23.9479010724869,23.7083833064563,25.9439043957468,25.9439043957468,23.1991443449113,23.2439425954595,22.9705500746748,23.3472167218662,23.8115543022276,24.8954286607902,27.6759097720755,26.9301722648687,26.392918610781,28.0916605515334,27.6175283642056,23.6559399344906,23.7655588578288,23.9144921183519,23.8184106195868,23.8317847723701,23.8120444428518,23.8917086221635,23.8730729132151,23.966525580784,23.8639462761999,23.8966021360731,23.993070832661,24.4736246917347,24.4237198864568,24.3820280571373,24.2465478644533,24.3104336569456,24.3826854198812,24.3343855151417,23.8753659834282
22.6020099228175,23.5817197357958,23.302250728014,25.539021121842,25.539021121842,22.7312121740113,22.9800002671677,22.6972271746304,22.9857072985565,23.3123354036594,24.3227792744001,27.3712991540396,26.8074737936465,26.5036490735547,28.1547972905522,26.9320765150457,23.3450973216173,23.4137830322968,23.4366160384435,23.4891724125207,23.5834390557512,23.5022193567604,24.1314362149526,24.1734374061301,24.193344132752,24.1383302953199,24.1120649719883,24.2061749428295,24.5980192588624,24.5661156228125,24.4217443336548,24.3716072330136,24.3339941921377,24.3570287029264,23.9626520798759,23.4460496992161
22.2064242722876,22.9177948443611,23.0238006665353,25.0945138595048,25.0945138595048,22.3628047703145,22.9115806733971,22.323367839671,22.5771563435164,22.8462227571708,24.1715519651211,26.958596658709,26.3730137263505,26.0411676935024,27.3269051846619,25.7738822281723,23.0637419289659,22.9769163663496,23.0500872622795,23.0577020986203,22.8387810052857,23.1076398496386,24.0444437282806,24.0849933993784,24.0398191941921,24.0028639977599,23.9297955630444,24.1054945325085,24.3960251291109,24.4261444464801,24.189019158723,24.1129044653234,24.1426016164753,24.1052753594721,23.658388445395,23.0425346028558
21.8326667411085,22.5125899494838,22.4649600569332,24.4146415282612,24.4146415282612,22.1208434513266,22.6125124446242,21.8394542277294,22.2215795617037,22.6954139695264,23.8116944305587,26.4583615670573,25.7470656746879,25.4495277650942,26.1774984449035,24.4726241556784,22.6454831939709,22.5907948676659,22.6065726206478,22.7229654004999,22.685447717973,22.6488250780078,23.6513120351264,23.6868789649742,23.6210015948929,23.6164040469435,23.5930194474673,23.6816049790543,23.8865234677176,23.9503479654262,23.6734261011459,23.6462393751094,23.6322853662694,23.6550560583156,23.2491590111425,22.685731632825
21.4209686815681,22.1470074308846,22.3329374460738,23.865574675108,23.865574675108,21.7561748597021,22.1828841213754,21.4767928563894,21.9334773085133,22.2904930002177,23.2189773194903,25.9319987592747,25.4656461692426,24.8264193988763,24.9528679243339,23.2210750179527,22.4499485071179,22.4142862440384,22.3700270742469,22.3841348755105,22.4241717819794,22.4854052972189,23.1946179531843,23.1828176792704,23.1374931399311,23.1689164148122,23.1125435489769,23.2154367374556,23.1878861496948,23.230260753114,22.9695117650034,22.9437667566639,22.8958559438584,22.9798281790355,22.9452872059665,22.2698588005554
20.9796615768841,22.0250278730309,22.0091672851083,23.4853183647322,23.4853183647322,21.7224114842116,21.6225407034336,21.0325259144577,21.7713709531093,22.0790581237188,23.4845451977213,25.5486480941449,24.972486928039,24.33765631578,23.749246819539,22.1693279919298,22.1085135540957,22.1504420984075,22.1927667957554,22.1253559955868,22.1167480952851,22.2131104202807,22.7828343541735,22.8112655906119,22.795066963102,22.7981659333197,22.7066020452611,22.852596973749,22.4389433572744,22.5219160495922,22.3073330032016,22.2650788829082,22.2665291358806,22.2704340982673,22.5950497048112,21.9297521481684
20.7173664534944,21.8345219106596,21.9120072135796,23.0408871184862,23.0408871184862,21.3897475075379,21.0284992428485,20.5841643802865,21.5543972567394,21.8749915866184,23.0468131256924,25.0459381265186,24.7261369811758,23.813101815614,22.9305794998158,21.315315656022,21.9611835424404,21.9378516040561,21.970099916534,21.9234909112371,21.970679499294,21.9848703754123,22.5357205841138,22.5768820531759,22.5070068208429,22.5084199321157,22.4981734036126,22.5598276404408,21.7929735678847,21.8888281843564,21.6399385623522,21.6973770993313,21.6284946223248,21.674712439639,22.321004012288,21.7419840700783
20.5185997197916,21.6655204277835,21.5858080247439,22.6341178743222,22.6341178743222,21.3428295961305,20.4703877848495,20.2040350717003,21.405166977894,21.6199630494913,22.9923326808655,24.7534448947138,24.5640502480173,23.5647273248146,22.2210262891784,20.5946977895962,21.7492920822039,21.7618799915508,21.6755060673555,21.7431187315357,21.8024696556329,21.7612598687644,22.3367484314875,22.4246554810455,22.3309744667895,22.3541698805434,22.2627462318252,22.3691137566864,21.2473441261021,21.2924448196906,21.1137701527834,21.1584255322477,21.0821230107433,21.1291221979871,22.1200802137537,21.5205283717639
20.3274851426188,21.5115129643728,21.5115140968242,22.2506879987772,22.2506879987772,21.1650160584305,20.0947869823104,19.9336481209074,21.2245392469211,21.5090437423562,23.0925143275722,24.6352409306193,24.560085789515,23.4181112395902,21.7504152837615,20.0911234564223,21.5392447908506,21.5603059368824,21.6659807733865,21.6902502482748,21.6871325433196,21.6689402768994,22.3319611292088,22.3561505182462,22.2842885746533,22.2814715129757,22.2455828330079,22.3223046721193,20.8471705609281,20.8595572298571,20.7011598638903,20.7987770804161,20.7343407928469,20.7559980562558,22.0312620826418,21.2439004045676
20.1547325790967,21.4598924406977,21.3812527061483,22.0721950288066,22.0721950288066,21.2583577540767,19.7505638800716,19.6883573662286,21.1081221585804,21.3348726833614,22.8158492903715,24.5522949703457,24.5998548133801,23.4471375012857,21.5293177224335,19.8188712543001,21.5200097559196,21.5637918730425,21.5577023966885,21.57370462241,21.5066044931313,21.6406883091219,22.3914982486614,22.4563489925114,22.3547505821625,22.4201430627444,22.3621833224404,22.4266387350443,20.6005612662895,20.6296257862126,20.4846460708834,20.577450146843,20.5148848726702,20.5353373047258,21.9599609559361,21.3049888932417
20.010801426422,21.294947029551,21.3513823135415,21.8474404283168,21.8474404283168,21.2273035956757,19.5382821708469,19.5385515125482,21.0684128168502,21.407655766487,22.9437583827372,24.580106738789,24.721802372903,23.516049689758,21.4898973501784,19.681176532479,21.5016680556712,21.5549385179693,21.4898385512171,21.5404439887251,21.5120697247318,21.6105297164831,22.5693023774265,22.6021832326735,22.5872601780339,22.6140557930427,22.5759413796986,22.5557456267568,20.502917968204,20.5253010111672,20.4491874619982,20.5193566752408,20.420672321868,20.4334954670806,22.0294123466311,21.2061523989852
20.038023301779,21.3103807197195,21.3192064513438,22.023375500501,22.023375500501,21.0402753090081,19.4378714149716,19.5412906235483,21.0640338819936,21.3531442949958,22.9712775639566,24.704682815744,24.801582634588,23.6969315088914,21.5682658088848,19.6760202981031,21.518465327807,21.6059834573826,21.5509899236461,21.5160948491868,21.4650723421574,21.493263358401,22.7340363727106,22.8217319211015,22.8027596563558,22.8171558429405,22.7564929620354,22.7225023024594,20.4895691859418,20.4888970437296,20.4349208232616,20.4684283657975,20.4488244948645,20.4324168517047,22.150677060097,21.1254065076024
20.0492162393518,21.2898574283577,21.2606789181904,21.9337091531121,21.9337091531121,21.1218930659838,19.3832894879302,19.5269289319761,21.1699522033112,21.4472060314958,22.9826892663562,24.7999364578813,24.8333344313922,23.7788833905783,21.72527979186,19.7910649500671,21.604233298495,21.6259405050714,21.5393104948621,21.5251621825248,21.5526409574181,21.566583170876,22.9310978805923,23.0388302755367,23.0301880369593,23.0010421054993,22.9781900873462,22.9636129686415,20.5381098112764,20.5529521853574,20.4880109709289,20.5478041332977,20.5496476088841,20.5493937134625,22.1977892673716,21.151718845713
19.946410645936,21.1803959670103,21.2561131154004,21.9864390928568,21.9864390928568,21.1858716418293,19.3643633964148,19.5373103728147,21.1164421457975,21.3560533041014,23.1589911068801,24.9147750342392,24.762831543973,23.957870557477,21.9399757700007,19.9430172557643,21.5442072900005,21.5930366788019,21.5850640381237,21.5012598886499,21.4769317401511,21.5803597322748,23.1611945752243,23.2348800798192,23.1825176340272,23.2771339065472,23.2203590183304,23.1778381751883,20.6260986131019,20.6633163144945,20.5723068197356,20.6436637397434,20.6870396161735,20.6919206563491,22.2074839168573,21.1836982900094
19.9173040925568,21.3405511779833,21.3349925196415,22.0691679147151,22.0691679147151,21.1125510551428,19.3838100195643,19.6173090895243,21.1416550449961,21.42658722644,23.0798145713239,25.1532686737948,24.9180400139954,24.0851599732273,22.0713717179458,20.1062929657611,21.6319800909187,21.6848953032635,21.6155981207688,21.667686290241,21.5980566047469,21.6120315946232,23.3454942418968,23.4059502507861,23.3495485787802,23.4043916583355,23.3776348438054,23.4024178557342,20.7582330781381,20.8013011823563,20.6657544666162,20.8149750297438,20.7888899680215,20.8344881390221,22.2087621619118,21.2321957159714
19.9818335599568,21.2062295736398,21.1784031258547,22.0456296367541,22.0456296367541,21.0277492734285,19.4720536753909,19.6514464621119,21.1727744530999,21.456720037284,23.0838252931532,25.1911087565615,24.974459639082,24.1870886152592,22.2358470520909,20.3105096204272,21.6701561162689,21.7719602370037,21.7019113866221,21.7703302128115,21.5944624970183,21.726668204274,23.5004599829778,23.5359070770449,23.4571562174592,23.5221208437955,23.502979073668,23.4954769578998,20.8739159796367,20.9137542827165,20.7844745567576,20.9197002066266,20.8986090025536,20.9454502757217,22.3279326712159,21.3093614565849
20.1067654923761,21.3953679271728,21.3014016443513,22.1988181980794,22.1988181980794,21.2030855648911,19.4959043925744,19.7074935777728,21.2721066537764,21.4634800834583,23.3223737742053,25.396003470681,24.9874798332868,24.3817883065803,22.2596334786861,20.5229500300565,21.7848329536417,21.8901340396208,21.7947756577426,21.8514119856067,21.7440628657321,21.9041219916433,23.6041834939033,23.5959338681984,23.5820506645688,23.6318277914994,23.5442088999207,23.5713197214508,20.9567584094881,21.0174495070394,20.8653855776593,20.9670902745783,20.9803175621567,21.0347211746931,22.4063111660195,21.377585788266
20.1319874184174,21.4603252957675,21.5761978608651,22.230724355361,22.230724355361,21.3442465479551,19.556604831397,19.7518645193653,21.5222786204118,21.635624778501,23.4960424222472,25.607670977056,25.0337328115639,24.5920905545103,22.3008823958795,20.7003282845499,21.9295193544824,21.9665243472656,21.9063965918228,22.0633595860973,21.8581826979067,21.976857777738,23.6421965775559,23.6224870380132,23.6248369420593,23.677898529926,23.6135917057396,23.6306949500236,21.0222485768042,21.0913014813704,20.9210167790088,21.0193979985367,21.0637167382981,21.0727337080627,22.5087142778805,21.4428601587526
20.2173332233699,21.6876451764966,21.5843161118176,22.3335650914979,22.3335650914979,21.2762634540826,19.6337112364359,19.8027722633226,21.5499235085043,21.7886506197113,23.662873194144,25.8524535627532,25.0758816180797,24.6914283051031,22.3884251645772,20.9368489830074,22.1231784964786,22.0646387776737,22.0057706281106,22.0980047060065,22.0207496486232,22.1265489372327,23.6867847144394,23.7299547658551,23.7048252460537,23.7900043237367,23.6758270404641,23.7552836776666,21.0861515940821,21.1368699294343,20.9408195089007,21.0704659126294,21.1356695202895,21.155474402318,22.6805528273086,21.5903506531081
20.341081653277,21.7259350269812,21.7009823032524,22.3139488887402,22.3139488887402,21.2888032644104,19.7483691194376,19.8716436167545,21.6993410288174,22.0017905607142,23.6238575245162,26.0196030939799,25.0604143300291,24.9668536675433,22.509350930975,21.2318760542656,22.1998030184023,22.2614005236366,22.1093050832673,22.2447064670548,22.0839196775777,22.2936911007932,23.7757157298299,23.8277915866018,23.842486382803,23.8824094889165,23.799632035822,23.8621057001832,21.1916815538068,21.2340957894651,21.0198202997245,21.1472552384907,21.2094558973216,21.2452235340171,22.7224364551526,21.6760624048107
20.4830508801017,21.6615354611982,21.8723882246785,22.5092153679644,22.5092153679644,21.3708233524267,19.9104886974758,19.9633077858915,21.9042235760983,22.0450307004026,23.8682984272043,26.1947658489846,25.1278977557408,25.1414600992958,22.6702678254177,21.5203570368017,22.1995066898166,22.3340256713738,22.3179301828579,22.3288365838094,22.3091836257532,22.3713894140436,23.8961425216506,23.9848474703203,23.9603090778031,24.0446891634005,23.9748249563019,24.0258391237873,21.3119495442598,21.3339562882422,21.1666949443001,21.2513102418187,21.301276981381,21.3509051622015,22.8362475562137,21.7731270388542
20.5423538993283,21.7627962908804,21.7536308185472,22.5233201747864,22.5233201747864,21.5861896567487,20.0785689406987,20.0898907902403,21.9103114034858,22.0305325547324,23.9325159449489,26.2416363944923,25.4340451651063,25.3416462669104,22.8391990616308,21.9405800934241,22.3658091040855,22.4494932043723,22.3622286714472,22.3580219276568,22.3235225049579,22.3871585351187,24.071463279378,24.1043256400661,24.0799126539288,24.126085286964,24.0715010683815,24.2058729619057,21.4650171582774,21.4876954176547,21.3326458577956,21.4181533074999,21.4739047760554,21.505108681717,22.9674166444166,21.7742717863274
20.5843729978029,21.8675326156177,21.8232398426782,22.570596913277,22.570596913277,21.6677866168465,20.2931979615314,20.2359988820601,22.0539954727875,22.1615998474213,24.149500124565,26.3168142081724,25.5261611860934,25.646605463514,23.0740290083251,22.4284500447778,22.5300799235636,22.5884376060344,22.3792140080123,22.5605290738269,22.5146794368862,22.51463464441,24.1279945898603,24.1881868185692,24.1613775196352,24.2053392321849,24.1142539590637,24.2465240503874,21.5925926065651,21.592719302432,21.5060028196196,21.5593832191411,21.5773329033134,21.6454045619449,23.0801445542475,21.9431163363996
20.7378075095458,21.9730429463282,22.0779874286946,22.7686811100339,22.7686811100339,21.7596754700358,20.5911248383122,20.365048235047,22.217450997261,22.2605140330631,24.0895023482161,26.4877787577898,25.536318890307,26.0230656936542,23.3283182551067,23.063777409794,22.6884444178425,22.7507808189564,22.6420092828386,22.6600712238253,22.788729691812,22.551805136439,24.0376218512851,24.1047293649406,24.1669064628536,24.0445819819217,24.0139255210876,24.2102180409805,21.6473989212402,21.6233358625287,21.5946268380691,21.655841703697,21.6277289466426,21.6979910557805,23.3125668741852,22.0682352275076
21.0636066580223,22.0798288595798,22.0951118763679,23.2050307416753,23.2050307416753,21.7598109353433,20.7988276563238,20.3315939491297,22.4850427248004,22.534154832803,24.1853733819072,26.8073773273406,25.6473449138421,26.4926763295403,23.2410011176791,23.4922565464036,22.97709849883,22.8883180951448,22.898562579203,22.9998305921765,22.9573694078171,22.8282719855585,23.6452586145317,23.7321770594468,23.7172941539858,23.6710747928289,23.6758297886297,23.8215710333541,21.3840912872575,21.3425146951604,21.4807898125685,21.4394387406699,21.3558809655977,21.454712692485,23.3472227679026,22.4698439358042
21.5673622682876,22.5046200514264,22.434221594368,23.7169897281849,23.7169897281849,22.0003765732322,20.6856449160179,20.0075186748922,22.7436219348659,22.8999455841715,24.4875213749773,27.2847364152981,25.59303137955,27.0792613314159,22.6126600130655,23.3177608424005,23.3985877003537,23.2345547132777,23.3358235108286,23.3152433652664,23.2328145359758,23.2332011524045,23.0745072182921,23.1724783721117,23.1767643830354,23.1071103283964,23.1289957800874,23.2801706727333,20.693099282856,20.6471363755708,20.9349740500932,20.9080732369146,20.707110740552,20.8270960372934,23.4398385614598,22.7274787350341
22.0364685749919,22.6827087520821,22.7822485206089,24.4819559216972,24.4819559216972,22.4773548553934,20.1521329157491,19.4607007582394,23.1408370275459,23.2571774804462,25.0804897369706,27.93658192548,25.8185561582031,27.5712204684036,21.7475429543862,22.7030456858939,23.812150470138,23.7472941017577,23.6378741636601,23.6179710716668,23.665836909456,23.5716759302925,22.6323571282044,22.6748789178492,22.6865630312485,22.6870677707202,22.6647471738289,22.8264910200077,19.8296245255259,19.7795335140375,20.2472162657789,20.1903203114337,19.90745657618,19.9935491467838,23.5716135005074,23.1250415347843
22.4448109082844,23.4556264851341,23.3577335701789,24.8939118968865,24.8939118968865,23.0627203825042,19.5814879936033,18.8960885548558,23.6750134966055,23.8549811907093,25.6751687621977,28.491395629448,26.2637156008283,27.8864144699606,21.140529956865,21.9948515372224,24.3140923709143,24.2815477441276,24.3209582369467,24.2506938612911,24.1860620933124,24.2789507401413,22.5313042245461,22.5528138080571,22.606110045786,22.6034686382772,22.6549132888678,22.6789491198684,19.0595194841538,19.0072247723583,19.5882751880317,19.5446346801333,19.2131260912613,19.2661030953311,24.0116114779576,23.5269740388426
23.1494298652717,23.8100605143905,23.8122365385841,25.6381105517949,25.6381105517949,23.2007781560745,19.0294513964568,18.4782316398216,24.3259791183064,24.4863250291313,26.3718103824965,29.1436202976101,26.9364872329883,28.4115626629032,20.748485403168,21.4899663017577,25.0070745031598,24.8095155441195,24.8393346983108,24.737196723345,24.8212736326193,24.8462393077185,22.934344950377,22.7932327358535,22.9511465677869,22.8723881629197,22.9647331472634,22.9762906450014,18.4903255927339,18.4410627379926,19.1461038709613,19.1012609855939,18.6824613916168,18.744299737472,24.4664141691917,23.9539475711922
23.6089127651318,24.4312988449814,24.4825587411574,26.1408641553156,26.1408641553156,23.8446459440887,18.7650973701347,18.2210978712739,24.7037742572554,24.9427295621572,26.7031014636004,29.4854294612131,27.6639940921476,28.6151844097485,20.6407681194606,21.2692363253906,25.4475029895906,25.3414543250584,25.3863852048174,25.4690011471891,25.2186331980732,25.2517662033982,23.6187696970365,23.4913629962993,23.6422985941019,23.550118347667,23.6659156484697,23.6961069866499,18.1676083897145,18.1239420928052,18.9066544352382,18.871826472578,18.3921210768706,18.4347858558868,25.0297765938446,24.5024707019173
24.0130865617906,24.7744222500976,24.6606480340908,26.4654843863847,26.4654843863847,24.3107962427395,18.7671729231983,18.1651259312219,25.0610333629481,25.182755211717,27.1945103533291,29.622390758243,28.0919539069071,28.74059743889,20.803350176674,21.3052026257899,25.583516829376,25.6097938768724,25.6123715686524,25.7283585787341,25.6284011191556,25.6194428017065,24.5178618549376,24.5126362126877,24.5977209288296,24.4608559528664,24.5379551191736,24.6364387515444,18.106498497596,18.0633145508792,18.9404774777245,18.8870394727642,18.3447444941085,18.3941521578939,25.4938692723961,24.7255063946979
24.0619581800426,24.8598745565628,24.9522552095905,26.5701708483546,26.5701708483546,24.2771495881955,18.8954661075973,18.2715737266832,25.1116541382408,25.4157144169362,27.2601205233662,29.6804043308101,28.3584708681027,28.9654105111885,21.1349650827895,21.5650647120862,26.0592741159195,25.9310544873275,26.0289533397483,25.9736301811946,25.6758435633684,25.8650912252143,25.5603059353997,25.5907547375751,25.5630551497236,25.5347499145483,25.5600542941634,25.7089052493092,18.2565084058295,18.2148675261587,19.1303785151106,19.0838534874417,18.493739327785,18.5581672145876,25.8958533440626,24.9631807407798
24.216317835827,24.9751223279121,24.9689946937023,26.5145785438224,26.5145785438224,24.3903089310108,19.0246370969659,18.4188242151327,25.3799025866084,25.643487159508,27.4909977087478,29.7932297853468,28.4149139497589,29.0768503155425,21.484188422251,21.8890503614186,26.1301966956254,25.8286886965061,25.8427277043498,25.9638812077037,25.8634911292018,25.963582698475,26.3599017725397,26.4080681742374,26.4378649678958,26.3761614385138,26.5132955686629,26.5027009561068,18.4503865963775,18.406160143204,19.3558736033028,19.312022997253,18.7097009874357,18.7463018566726,25.9522792175894,25.0284252708779
24.2802397180642,24.9689987894544,25.2889227347503,26.6380722054703,26.6380722054703,24.6996345157586,19.2123567167739,18.569860328972,25.4214693537659,25.682333398618,27.1184241223099,29.7257996609966,28.6929294324313,29.1423249579378,21.8876535487066,22.1643404714613,26.2401274999513,26.0681232924261,26.0968613771611,26.0433387703198,25.9373465700376,25.9324711332175,26.9897165425173,27.0332044592499,26.9740280232027,27.0608559857684,27.0830120880968,27.0946091639775,18.6286784787219,18.5845095836674,19.5827230781539,19.5387769035705,18.8804993310584,18.9351246424676,26.1400502150992,25.1734580467239
24.3196933812862,25.1936056000665,25.1853815216231,26.8674799658985,26.8674799658985,24.4207687938611,19.3709108110067,18.740157399739,25.3895999682861,25.6746680682524,27.529249965153,29.7914028162204,28.6386944456975,29.287818254789,22.136018363141,22.4197250279289,26.318087248649,26.1158549050814,26.151355777707,26.3499839328166,26.2285570809958,26.0097420954335,27.3319513787442,27.415036284521,27.3343524130692,27.4169151687924,27.4630851717145,27.4031085706898,18.7920320405069,18.7503697013512,19.7678496310821,19.7357166444679,19.0515319060736,19.1141923460966,26.2370960172426,25.2230672408316
24.3170626115608,24.9364121051808,25.1889363546592,27.0153523306952,27.0153523306952,24.5366470281743,19.4845277670745,18.8683077345958,25.4281851211949,25.5861362501813,27.4579257339899,29.9617700997267,28.7791485272749,29.4931654106823,22.4451177844748,22.6665932683175,26.3193964454583,26.1807635442553,26.1744735187039,26.3461877691627,26.0962035480304,26.0176467092678,27.5616583682483,27.6648782356302,27.6068799040361,27.6101277045619,27.5738770693596,27.5920373881535,18.9442303151747,18.8993404660971,19.9919152715066,19.880608937248,19.2303962709229,19.2795356995249,26.2044172834744,25.3519046630445
24.4461058334442,25.3195604977416,25.1980234734734,27.3440935990829,27.3440935990829,24.7464805031372,19.6464615968334,18.9839734661665,25.5666536706994,25.8865833337422,27.5358243666131,29.972611993447,28.8619554761022,29.5574117768444,22.8782069356494,22.9305233230025,26.4698660530527,26.1661233128352,25.9836773649522,26.3390339395549,26.2023501949218,26.1105391893959,27.7251535816014,27.8698657045015,27.7498598019308,27.6971400589645,27.781006022288,27.804571280719,19.0778968441751,19.0454392871194,20.1433694455857,20.0921116559113,19.3823065057385,19.4326022023787,26.3190663043616,25.4123959181164
24.684109289222,25.385117556743,25.1961994002472,27.2391484905072,27.2391484905072,24.685002645185,19.772191227059,19.0984973043141,25.4688656667381,25.8078329560208,27.7457437493357,30.3322261371427,28.9534444186784,29.7120339879583,23.0827443539651,23.1680226242282,26.3450074421248,26.3866608971925,26.3123127206154,26.1662585467109,26.0279846068574,26.1711601937343,27.8067276351247,27.9936687597155,27.8870787076212,27.7028549042811,27.9504047004608,27.9129762914163,19.2112754753322,19.1733209934821,20.300964721006,20.2413924769144,19.5299722391774,19.5603527390908,26.2784770422332,25.5724312644086
24.7265845941384,25.22785860868,25.1885292031054,27.5578843467618,27.5578843467618,24.6097140984902,19.8792324928152,19.2072472434939,25.6575040820841,26.0759575655009,27.8092665094064,30.4253610320138,29.0823896451602,29.7865578655273,23.3553733631169,23.4115662296896,26.6149023007743,26.1730479628632,26.3929979164117,26.4522908089656,26.4204046031933,26.1686698418193,27.9092685009552,27.9416622140897,27.9921619020703,27.756527806626,28.0714906443925,27.9737122659434,19.3256019330303,19.2960176432806,20.4650603472023,20.4101102429569,19.6780534044894,19.7142798270325,26.3897819729546,25.5897510235274
24.5631993185868,25.2667331074644,25.4316773433503,27.670527812954,27.670527812954,24.6002649610551,20.0092868856016,19.3256135875646,25.7441477807297,26.0976358078602,27.997830093379,30.5545942829885,29.1754723347345,30.0841125129404,23.6090566091902,23.6486335876166,26.5471506206952,26.4414845016382,26.4779323875471,26.4278544981718,26.4480104726094,26.1615701463897,27.7860118334942,27.9801142797061,27.9966922687754,27.8231720263294,28.0200706819843,27.9609248045197,19.4300157554751,19.3996021780052,20.6668043882615,20.588715519331,19.7897725773658,19.8562980003351,26.5286656275004,25.9246065850236
24.9498350348054,25.3043126910702,25.6433135868934,27.7798823821414,27.7798823821414,24.5414780971205,20.0858006131993,19.3852197923831,25.7037972426257,26.1133390100056,28.2536747868351,30.4573187432308,29.1927569585098,30.2335478451756,23.8532919520055,23.847353844435,26.6150052108296,26.4919991179697,26.3440085828099,26.5668761324644,26.3657819096544,26.4342273617061,27.89131476343,28.0048721538511,27.9495332797694,27.947586455442,28.0900139944867,28.0251206767623,19.5230305034022,19.4937076692839,20.8088058479371,20.7457630455682,19.9227925397146,19.9937370630166,26.5304025250075,25.9489997286144
24.9269757759751,25.5146258923495,25.4593330829403,27.9068639795598,27.9068639795598,24.731740452955,20.1737195315049,19.4736541603667,25.8136934197315,26.0163358696086,28.1555211257017,30.4502451434792,29.4422357432548,30.2298141843134,24.1061380092183,24.0596547782223,26.9964367760907,26.6343397167208,26.5831227148676,26.815077915878,26.399626426803,26.4869262506544,27.9697549458356,28.0706021791814,28.0425246757756,28.0162305858887,28.1185454609472,28.0440530233494,19.6067083210296,19.5812573237164,20.9283209712213,20.8901510940562,20.0610732856411,20.1128796921998,26.615060522668,25.684600536539
25.1828804129943,25.8722250446308,25.6348499587875,28.0234523490957,28.0234523490957,24.8652460894457,20.2207430462505,19.5495886547642,25.9101326823606,26.1067347479823,28.0016518578148,30.5055273671907,29.1978071965046,30.3311098847523,24.3510013172652,24.2806194305333,26.7464541471684,26.7689490918782,26.5781940309543,26.531335353179,26.6155658298108,26.3635779707596,28.0753354884624,28.2094722954695,28.1499811250001,28.1240680965284,28.1334883053264,28.1130222676088,19.6876588271954,19.6627502500101,21.1174429920052,21.0546971609967,20.2052009985516,20.2525297156397,26.7529586127878,25.9553565288332
25.243990845356,25.906332241419,25.6041279834725,28.1471999366041,28.1471999366041,24.9373315407891,20.3137309842651,19.627135323922,25.878807384891,26.3207826577963,28.1231050235499,30.5744339204571,29.4811490220339,30.3287260948891,24.5769401750341,24.4890817938642,26.8774117392796,26.7353276325008,26.6727541842777,26.8610077908681,26.6692126823976,26.6973989114724,28.1147583732032,28.161014089957,28.1163463309853,28.221050570679,28.2966809276845,28.1913326906639,19.7807793142687,19.7544198414422,21.2359117774238,21.1890683931985,20.3468044332526,20.3769306576149,26.6488016426476,25.9476137216169
25.2046554142917,25.911485387005,25.7027079336186,28.2860843596047,28.2860843596047,25.2798112996403,20.3882605299139,19.7625180528029,25.9279797373316,26.3391366299535,28.0919716390095,30.716738770629,29.6935168285225,30.3750811932087,24.8378515620366,24.6971671276036,26.9645200363549,26.7268994135773,26.7467424447681,26.7119689158869,26.6759586101535,26.6664000673624,28.1404575278915,28.3335685928793,28.292519770594,28.3548246083102,28.3158863889426,28.2660224661468,19.8769156092152,19.8528418182031,21.4217784934712,21.3691041966099,20.5097536458759,20.5398971769551,26.6174409065519,26.0762801273229
25.1133107504309,25.8997670899368,25.9102523752451,28.3349005740698,28.3349005740698,24.9239423071259,20.4662992594912,19.8383286514661,26.0199334577134,26.3231555258881,28.4134130978543,30.7467392254293,29.6378268882831,30.4879947342147,25.0236716550757,24.9001159333674,26.8827250723665,26.7500132779485,26.7864138596893,26.8764289736815,26.6478166940096,26.7787487310837,28.2630794970122,28.3009093423236,28.389738366795,28.3747026089814,28.3749429073723,28.3107805166942,19.9868861140595,19.9654832203995,21.5900263905589,21.5388124851709,20.6523226797498,20.6900589517671,26.7767979658971,26.1430136422253
25.0726819637569,25.8357738578995,25.9303982432671,28.3459973840639,28.3459973840639,24.829198506461,20.6100752214556,19.9610061304357,25.9435752463181,26.367742696659,28.3805274987242,30.6241573171632,29.6497750155648,30.442260703565,25.2493179537467,25.0793656143818,26.7933802740419,26.6547618868713,26.6350605205432,26.9789277328809,26.6308515861207,26.7651863969951,28.434062687391,28.4349822845398,28.5098725502042,28.4488887302259,28.3426740482625,28.4443879903743,20.1087525046543,20.089739242074,21.7425907189984,21.6930135537438,20.8218739010371,20.8717011394885,26.766935137222,25.8612845599697
25.0747711688343,25.6624192238799,25.7216413135082,28.2633207910064,28.2633207910064,25.0956349134,20.7170796040766,20.0757070435818,25.9977582274213,26.295124684583,28.0680669819679,30.590475024827,29.8804942593796,30.4297459498755,25.4358074330971,25.2439443583728,27.0222382946217,26.7415230458749,26.8285008660839,26.8631216155228,26.7023908379888,26.6742297829818,28.5024767608587,28.5055884196441,28.542960307639,28.4910316719805,28.408461327645,28.4496305393852,20.2279454356612,20.2159659193703,21.8877687508362,21.8448040516029,20.9653325600145,21.0288787642233,26.693538670017,25.789968197309
25.1873559118832,25.8499214813275,25.9135251896339,28.2211925878814,28.2211925878814,25.0554347868727,20.869766806415,20.1819467017892,26.010266400032,26.2182154594935,28.3916874790766,30.5314756362817,29.6668726746217,30.4074193554126,25.5230679216683,25.3735689428882,26.8490804656433,26.9085129282659,26.6027105281966,26.8702879794507,26.6388527987261,26.6999853561545,28.6697202195289,28.6420135499138,28.5177696562966,28.5033113685662,28.5305655673351,28.5431913061227,20.3543483895789,20.3388318399952,21.9993353696612,22.0079188514578,21.1225246791989,21.1743088675197,26.8778405111125,25.9577794659715
25.1691565916691,25.6244751452384,25.7176165990058,28.1585197637693,28.1585197637693,25.0954100703872,20.9319253355932,20.3053406651985,26.0331846655898,26.1572027174953,28.15953401688,30.4152552512588,29.5612764890896,30.2267681750289,25.7012310633304,25.512551711476,26.710023335286,26.7583625484332,26.6258371114391,26.8427062278503,26.5203696797093,26.6925353463551,28.5686645084762,28.5935878757963,28.4641099053125,28.4883345586362,28.5203260784582,28.5996863243648,20.4805749272152,20.4667878761167,22.2360905044101,22.1590848124622,21.2839078647784,21.3532650323853,26.7307546145532,26.1140878616458
24.9793457014614,25.658908685385,25.94899879715,28.1823484847031,28.1823484847031,25.1534285130536,21.1041408781066,20.4143967063932,25.8213497668853,26.1380788635789,28.0844576300886,30.2363058279789,29.72463823052,30.1640733197733,25.9104955015634,25.6359632444569,26.9856713307227,26.7540271562406,26.5418143966986,26.9076443008131,26.6090820587944,26.6264012412524,28.5249976001036,28.6517910823019,28.499202274051,28.4566275513423,28.5929112549139,28.6343815186697,20.6035704279911,20.6042780685422,22.319395413925,22.2499048682505,21.4364159466657,21.5056314285054,26.5831270924648,25.9758072362128
24.9231527831737,25.658675757897,25.6116226937203,28.2464772975188,28.2464772975188,24.8963314041925,21.1948540391022,20.5736580145758,25.8555551454982,26.1530613249942,28.1694866995428,30.2153473678563,29.3774288808421,30.1248919589517,25.8486100482473,25.7027846745255,26.7879416912597,26.6150482680213,26.6406121126535,26.7208536366327,26.4347953528453,26.4483967976872,28.4740694125123,28.5919083117592,28.4510510063458,28.4322453421292,28.5295519334552,28.4997986114363,20.7604440254426,20.752881394146,22.4530075421647,22.3991162444355,21.6257913466689,21.6625671496519,26.5877296173981,25.8131411154781
24.8559254769581,25.6208299649358,25.779045077977,27.8663943603574,27.8663943603574,24.7586616711703,21.3304226477473,20.685167599327,25.7497836087081,25.9529440850465,28.1089609698133,30.0758097764057,29.4231785395622,29.927033092093,25.9034923921069,25.845261143487,26.7719263017929,26.4836971477357,26.5514989402333,26.5177590588931,26.4132843245956,26.4045643762032,28.366769846194,28.5450270702104,28.4007783165408,28.3480960256822,28.3999098853305,28.4433894081118,20.9230503259275,20.9195450494306,22.6234865724154,22.6001465850668,21.7811780794959,21.8493490635654,26.6316996981128,25.6911447894352
24.8129474930048,25.5666612429544,25.5241361164827,27.9295116880684,27.9295116880684,24.9543418569924,21.4592724792938,20.8574092896665,25.4602976814195,25.9906763955825,27.8384651906281,29.8570487946278,29.137445620181,29.7556757186395,25.9106422242553,25.9494444020855,26.6692516468188,26.5746737003597,26.1446416134767,26.5557018885443,26.4381820739675,26.322419775946,28.2964501753017,28.2728929288903,28.1564135631484,28.1849191873748,28.3073237163249,28.2600079436367,21.0930414412261,21.0920963008896,22.7850801373653,22.7784012760818,21.9722227153766,22.0304198758915,26.4347120170354,25.6399683210917
24.4729388189415,25.5768402639802,25.4100680172569,27.7316340529479,27.7316340529479,24.5684588180555,21.617892519338,21.0270776664775,25.5751778682776,25.8493112778432,27.6432928330587,29.6181699889562,29.1507221980483,29.5295199062508,26.0240592562037,25.9506193720075,26.2922326874317,26.4308941778718,26.3601092734595,26.3819521759113,26.1621079547382,26.1206534187656,28.1266593843507,28.1827785437286,28.12969914763,28.1385262507687,28.1586932503295,28.068129594491,21.2768021716174,21.2720359147554,22.9619182278595,22.8409300408879,22.1776105221071,22.2410301141086,26.3207468736682,25.6164081667871
24.4808030787741,25.0852364953369,25.2673323053827,27.5069087412104,27.5069087412104,24.7864770838591,21.7430650270307,21.1687565403932,25.5256051615199,25.6341763694262,27.4700484448953,29.5954019273508,29.0340413378315,29.4596770730277,26.075705076149,25.9838766146803,26.3140849208768,26.1057517430704,25.8871557587989,25.8857984602265,26.0785785770497,25.9301012316076,27.7922485472677,27.9676267177693,27.9969101289518,27.8823508608613,27.9971463544914,27.9483548384424,21.4484530448808,21.4525941494431,23.0735313253974,22.9974053370827,22.3625341913539,22.3951922289035,26.2595964452774,25.5017551905067
24.2033098615354,25.2510028310477,25.2276779417707,27.4407027533172,27.4407027533172,24.4652663422325,21.9119882369611,21.3364402375833,25.2362799657495,25.647612482585,27.6932935691087,29.4380763673045,28.9501531043515,29.3036113484342,25.9867956131191,26.0406279186932,26.0259628058872,25.9921174749589,25.8469130240902,26.1303041278615,25.8621603973671,25.9414728082325,27.7120631420802,27.9045563349559,27.852809544272,27.7620740047456,27.8458472195653,27.7419174858508,21.6200342271247,21.6250173746614,23.1818324542011,23.1618635688519,22.5282656061094,22.5541711224676,26.0491843697968,25.241835352144
24.1167192066037,24.9499801738879,24.9480927552189,27.206160832848,27.206160832848,24.1441068538316,22.0321590027727,21.4500474869096,25.3298282472532,25.3641218364383,27.4150453163145,29.2910462918111,28.7675408933485,29.1536532766157,25.8980747898339,25.8887575312678,25.9290012710628,25.843816686466,25.644783827226,25.9817487004265,25.6439728240701,25.9699109454771,27.5628133364245,27.738989745038,27.6901601734275,27.6653304293131,27.6619719769097,27.6541876034434,21.7920423765266,21.7986993194475,23.2302724273343,23.1733476229682,22.6815094183076,22.6674948378858,26.0737378159372,25.0602893101881
23.987169145555,24.9053676416528,24.9110638648552,27.1255834235428,27.1255834235428,23.9983541324351,22.1370546355995,21.5840851831157,25.0612956748414,25.2842778244028,27.3718079665826,29.0913339685191,28.8307885086374,29.0088006727101,25.8641752944743,25.8838237321586,25.8216397562456,25.7534415524675,25.8094564568526,25.9419584455748,25.5687453943383,25.6225580511195,27.4877542285693,27.6023981399512,27.5260976665244,27.5909406524232,27.4703513560407,27.5580718114505,21.9615896677624,21.9586054923415,23.3087680865482,23.2539936022628,22.7841308271009,22.8065818914931,25.971202294596,24.9095162240745
23.8633352356826,24.9474808420551,25.0616707933466,26.9665963024583,26.9665963024583,24.1209499549349,22.2447712920749,21.729745241029,24.9730144464356,25.2049215090671,27.2652775226932,29.0010738142482,28.529897935863,28.8622033187547,25.790138971247,25.7538137136997,25.7044627340701,25.6745245900566,25.5779632014517,25.6600163820901,25.5533706869891,25.4346719688741,27.2883154533575,27.3913888847305,27.3517209136182,27.4984875870374,27.2877900285491,27.4602930918524,22.0972259300677,22.0949278029564,23.28862930875,23.2439578142306,22.8455434244719,22.8836455963611,25.9008520373587,24.8039485606868
23.8505375443514,24.7416699508967,24.603051911412,26.8450374846872,26.8450374846872,24.1067653000535,22.3206227895618,21.8457731008581,24.9297898764789,25.1532139603907,27.0909048201298,28.9361779171211,28.3534069569728,28.5854552292954,25.6479335691017,25.6330792111925,25.8194968451344,25.5264661736351,25.4817711272746,25.5543397207992,25.4095668175004,25.4673893995215,27.1048966695184,27.2112130494557,27.1850062815837,27.2632414621741,27.1463066016021,27.2818097023761,22.2213462319724,22.2213368368394,23.2896590453754,23.2912260419732,22.9426193699176,22.9545425854368,25.7888545332792,24.7587923506597
