none,bilat,nlm,perc_25,perc_50,perc_75,regNF,regNFNW,regNW,regVC,reg_fst_bilat,reg_rep_mask_perc_95,taa_fst_bilat_50,taa_fst_perc_50,taaW_fst_mask_bilat,taaW_fst_mask_perc,reg_dvr,reg_dvr_mask,reg_fst,reg_fst_mask,reg_rep,reg_rep_mask,taa_dvr,taa_dvr_mask,taa_fst,taa_fst_mask,taa_rep,taa_rep_mask,taaW_dvr,taaW_dvr_mask,taaW_fst,taaW_fst_mask,taaW_rep,taaW_rep_mask,taa_fst_50,taa_fst_25
240.921736834491,197.187375578704,202.920961733218,229.360385923032,144.311397569444,190.627606698495,259.315580873843,252.869640842014,256.570591362847,247.906390335648,188.057527126736,160.393732638889,291.73845666956,342.35173791956,184.42665979456,173.403568793403,234.80097620081,223.504874855324,244.276949869792,225.901996527778,246.198072193287,222.187983940972,537.804230685764,532.587383897569,535.080639829282,527.551457248264,535.341181278935,535.047059461806,229.436760344329,237.292129991319,258.14076208044,249.866440972222,257.279086371528,226.108527560764,384.618674406829,286.817080801505
274.789917896412,221.742757161458,229.062573061343,265.636505353009,165.892486617477,218.165387731481,290.861098090278,283.992757161458,250.717004484954,235.971116898148,180.656411313657,126.251651114005,158.531716941551,206.760795355903,119.18855504919,114.718069661458,228.625737847222,210.130633680556,229.870559895833,211.03984375,231.569241536458,208.661470269097,401.23130787037,382.984267939815,399.63289134838,391.977670355903,392.841607349537,395.146838107639,213.676507523148,206.524232132523,233.984898726852,216.204556568287,235.066003689236,214.711947699653,268.02324254919,233.010324797454
311.246393590856,246.421194299769,242.466949869792,287.335450303819,179.171649667245,232.584673755787,311.753627748843,316.214397786458,269.301205512153,250.69709056713,188.567483000579,130.721433376736,132.523295355903,164.853375651042,99.594380787037,109.932043547454,249.726838831018,224.732814308449,248.684813368056,239.867220775463,243.693591579861,230.199005353009,311.185453197338,300.246497034144,316.620852864583,306.671490162037,304.573075086806,315.340849247685,210.934693287037,205.417766203704,228.42205114294,201.835831163194,237.138989076968,216.064478804977,233.511818576389,239.531285445602
330.071736834491,269.588764829282,266.440616319444,314.769742476852,200.253442201968,264.776829065394,324.926452546296,339.562985387731,286.99033130787,272.307671440972,205.627462745949,134.773091001157,128.746354166667,149.081977358218,95.3090737123843,109.483115957755,266.476935763889,249.774445529514,263.940065104167,254.974780454282,259.223795572917,241.338737702546,275.855609809028,261.983929398148,265.910105251736,258.220229311343,257.421595052083,281.368040726273,225.763376736111,221.930192057292,223.607251519097,188.917152777778,238.856839192708,211.139385850694,228.443318865741,258.053217592593
366.490164207176,271.491611328125,293.295928457755,355.9131640625,220.407580295139,296.647642867477,384.163506944444,414.215353009259,311.636946614583,308.648962673611,219.393153935185,151.313870081019,128.81896556713,149.044659288194,101.234441189236,110.385843460648,281.771798683449,267.675205439815,284.058955439815,285.633657769097,284.601383463542,267.096648943866,258.873739510995,245.660563512731,246.854089626736,240.891187065972,239.838909505208,257.518013237847,230.435718677662,226.867364728009,217.341390335648,190.072608145255,244.383991608796,210.490713614005,239.456364655671,282.4248828125
408.727573061343,318.853208912037,340.23769495081,399.40697229456,246.270936414931,330.283100405093,434.989867983218,487.073564453125,353.208774594907,325.178930121528,238.97138671875,162.261667028356,142.168396990741,153.837905454282,118.953551432292,124.360642722801,317.882256944444,300.459046585648,314.749605758102,299.40416051794,318.114416232639,297.155883608218,268.863560112847,250.893271484375,244.351924551505,235.482502170139,230.475402560764,251.679268663194,244.702800202546,240.949984085648,233.509899811921,206.197038845486,253.148712384259,226.600240523727,260.350173249421,302.251278935185
463.228685257523,341.073198061343,366.192876880787,457.941546585648,274.742077907986,352.625704933449,489.0690234375,546.896452546296,380.611988208912,361.2559765625,259.434763816551,179.958560836227,160.053453052662,167.989059968171,145.736842447917,147.899538483796,342.083212167245,332.568681278935,345.448960141782,329.310771846065,347.886720920139,325.06746166088,296.75509729456,268.729363425926,254.107978153935,245.675607277199,250.633795934606,260.969538122106,277.964245876736,275.6313671875,272.956795428241,231.355475983796,295.830244864005,253.109767433449,279.437288773148,341.825710358796
496.338921440972,374.508096788194,367.86292932581,507.151246744792,304.177647569444,390.909114583333,550.790941840278,607.580377242477,415.488687065972,384.625461516204,289.820006510417,197.859423466435,177.26097583912,180.064947916667,182.260876736111,175.85287109375,373.55199182581,357.975580512153,374.66939489294,356.872872902199,365.98751880787,353.686974826389,317.810266203704,287.289157986111,276.38746166088,260.360607638889,277.515632595486,293.065799696181,309.669038628472,312.845237991898,314.36171911169,263.418853443287,333.800984157986,291.366782045718,307.345477430556,372.998675853588
520.682732566551,415.809697989005,428.751202256944,545.444351490162,330.125251736111,402.894692563657,619.468963758681,678.35923791956,448.201242042824,420.615812355324,299.685935329861,216.177797309028,206.308876229745,197.005948350694,226.119701244213,211.224032118056,392.483706597222,373.565498408565,388.675396412037,376.118141637731,395.975201099537,377.295284649884,333.908682002315,308.692472873264,307.240053891782,289.140344690394,315.988973885995,324.753283420139,354.304569227431,359.451974826389,345.371311848958,303.887680483218,392.753191189236,339.368696469907,343.140559534144,395.281286530671
570.949950086805,451.182626229745,449.88453088831,604.05533203125,357.018637876157,442.483391565393,702.827810691551,764.184429615162,480.966787109375,449.360846715856,326.055266203704,241.685391710069,227.391703920718,217.069188368056,263.821526331019,245.399117838542,437.855807291667,418.137935474537,436.001382016782,406.551353081597,442.953824869792,402.672917028356,362.362870008681,335.516140769676,339.405989583333,318.128585792824,361.228440755208,361.176626519097,406.453342737269,410.523919994213,394.416775173611,339.529778645833,453.565630063657,394.919429615162,358.337849392361,437.047103949653
626.489717158565,484.661394675926,478.510298032407,651.197579571759,375.250520833333,465.12121129919,801.048716001157,839.983697554977,514.90355432581,469.257063440393,334.628321759259,247.670102719907,233.70779333044,221.422183159722,294.414431785301,271.69449291088,450.016312210648,432.172041015625,456.74455114294,422.335612702546,458.55027307581,415.977190031829,384.076350188079,354.908444010417,357.980344690393,336.900632595486,387.159288917824,386.848681640625,456.852331452546,463.946018518518,430.364656756366,373.10210865162,510.424848451968,443.415552662037,369.126283998843,468.399074074074
660.578303674769,481.63160192419,476.378782190394,679.117756799768,414.257583550347,480.862377387153,879.998893229166,909.425512876157,537.92148401331,497.42240306713,335.412681206597,263.907132161458,253.567513744213,233.515294777199,319.856327039931,302.705973668981,477.053540219907,449.789848451968,478.974757306134,449.746589626736,486.203898292824,455.513515625,408.815857566551,384.762175564236,371.435609447338,358.628700810185,418.839154007523,406.998334418403,514.499007161458,526.92853551794,459.987958984375,397.071597222222,563.727025824653,500.385178674768,394.152582465278,482.006304615162
687.154527633102,507.258950737847,522.080708188657,743.987117693866,433.148038917824,499.620631510417,971.002778862847,992.762854456019,532.865279586227,528.844702329282,367.435941478588,281.739474103009,263.939209346065,246.067843605324,344.878166232639,327.598178530093,491.790063295718,464.495699146412,506.928233868634,466.295599681713,499.310491898148,468.03373083044,432.624327256945,408.266892722801,398.467014973958,378.549464337384,453.227220052083,426.210129484954,563.605621021412,583.093488859954,491.073956163194,425.66912145544,616.533203125,546.651272063079,410.519626012732,505.359535951968
721.426509693287,530.597112268519,547.642111183449,785.45138708044,456.678353949653,496.050803674768,1058.53376880787,1066.32708695023,563.023564814815,541.64777379919,372.14972620081,291.052639973958,262.634326171875,253.189582971644,382.116995442708,363.310475622106,514.13984338831,487.076431568287,530.35779333044,486.144697265625,522.88621129919,490.948785445602,457.410054976852,433.206667390046,416.998250506366,399.45781286169,480.080474175347,456.310087167245,616.659816623264,643.138624131944,521.467911603009,462.66113353588,652.636537543403,595.512211371528,423.474817346644,532.006850043403
754.590619212963,575.849879557292,561.959818070023,828.54111400463,478.449084924768,530.18771412037,1138.41346679687,1122.16572410301,600.215453197338,576.136792896412,387.546204065394,306.49539098669,266.449987340856,264.953486328125,415.134554759838,393.73349681713,543.07824146412,511.136897063079,548.223131872106,508.437888093171,546.175309244792,511.44810546875,473.55759693287,450.080724826389,427.09455114294,415.411056857639,497.952484447338,473.303327907986,649.631486906829,687.405341796875,565.499755859375,496.24261754919,701.571102068866,641.302288411458,436.555368923611,540.929131944444
786.082772352431,589.766572627315,579.485927010995,870.238333695023,483.24101526331,525.757117332176,1233.015401114,1195.59994646991,615.27703233507,585.935006872106,400.804007523148,312.762356770833,277.462842881944,277.675601490162,456.345201099537,429.473250868055,558.255613064236,523.914356915509,575.161480396412,511.749527271412,560.292342664931,517.586508608218,486.714416232639,456.596614221644,435.952783926505,420.881433738426,510.085636212384,483.374880280671,697.308123553241,740.140755570023,613.103757957176,539.874521846065,763.615581235532,689.4396875,456.471173683449,571.769129050926
803.932361834491,603.020288990162,593.847205946181,890.88308521412,499.75566478588,570.671766493055,1289.76598415799,1247.6845562066,648.618155743634,608.979645543982,406.497535445602,314.135457899306,283.226723451968,282.198421585648,486.024688946759,453.712195457176,573.213665726273,534.313792317708,586.825324074074,523.630139612269,576.999049117477,530.613079065394,496.155871310764,467.85185474537,443.368939887153,425.052510127315,520.403692853009,483.496411313657,748.526593605324,800.081853660301,655.262079716435,575.882020760995,822.972869646991,727.57060546875,475.104098307292,595.751739728009
830.993458839699,611.845719039352,616.709231770833,893.471707537616,511.5434375,584.876843894676,1334.15407805266,1291.2254047309,646.755965711806,610.436941912616,414.018037109375,312.374933087384,288.922510850694,283.894363425926,505.486129195602,474.029310980903,584.962424045139,533.6130859375,569.544383318866,523.116676793981,577.523647641782,535.370306712963,493.042737268519,462.453217954282,443.667953197338,427.947091652199,517.892147352431,478.775301287616,796.733087745949,857.764385850694,697.509048755787,608.828441840278,861.940845269097,770.780823206018,462.957215350116,597.253270760995
830.836412398727,617.091353804977,608.714388382523,915.99486328125,518.181706090856,574.326489438658,1395.07585648148,1327.69238968461,639.679151837384,606.911676070602,414.779383318866,307.838220124421,281.49654260706,285.198952184606,513.024982277199,482.443547815394,572.667603443287,531.095181568287,567.894288556134,523.975258608218,584.141716941551,519.720109592014,486.296557436343,456.749041160301,447.182720992477,419.658042173032,515.654168475116,482.972044270833,861.24306676794,930.004797815394,727.960087528935,624.599620225694,900.143487774884,816.536430121528,478.362418619792,604.290802951389
829.452944155093,600.378807508681,603.854658564815,879.813666449653,509.956963252315,579.705054615162,1421.30680627894,1348.67410698785,639.997300708912,600.789627459491,389.009286747685,302.413053747106,283.182963324653,278.624221643519,517.855263671875,482.743930121528,565.316415653935,521.848503327546,569.445563512732,517.226930338542,573.913264973958,525.651082175926,474.050399667245,455.226129918981,443.042830946181,421.366361762153,522.388708767361,500.65845594618,930.466146556713,1010.38890046296,737.640456814236,637.827843605324,946.425350839121,861.060060040509,475.655920862269,613.346328125
811.169125795717,604.074487847222,597.002631655093,876.36521556713,494.89554651331,578.26771520544,1440.14018012153,1368.22881872106,608.653305483218,582.752718460648,381.929752242477,296.645252821181,276.796099175347,272.43152379919,509.17458912037,479.479505931713,551.418686342593,517.553369502315,558.923537688079,495.380656467014,571.146224681713,507.357978153935,473.839989510995,445.95902416088,431.595453920718,418.675569299769,510.114919343171,502.206068431713,1004.63934497975,1091.64763744213,724.913189742477,644.640162760417,973.091887297454,890.751982421875,466.551187789352,592.643050853588
796.37318359375,588.083246889468,583.077654441551,860.986952039931,506.575260054977,546.560619212963,1466.73578197338,1384.43019748264,589.493012514468,572.94654224537,376.929796006944,287.749497251157,278.05705186632,273.694354021991,498.694857132523,469.238122829861,532.533329716435,504.207395109954,550.54394603588,497.348241102431,538.896388888889,501.97664098669,473.567591869213,445.232934027778,425.851354166667,411.514041521991,495.885849609375,486.782872902199,1077.81534866898,1173.13455114294,709.720994646991,637.006504629629,971.009870876736,904.883699363426,466.301315465857,583.246224320023
751.274314959491,568.99392578125,570.069975043403,824.252835286458,479.360061487269,532.210374348958,1476.19302625868,1398.12927987558,569.314704137731,560.680883608218,355.270057508681,279.368492476852,259.648754701968,273.175919053819,477.746476779514,452.99509765625,503.114463975694,478.99015733507,524.115569299768,481.908381076389,521.551671006944,481.38695384838,462.706889829282,440.590821759259,409.901832682292,400.727991536458,477.935289351852,469.572653718171,1155.64914966725,1260.37350260417,683.631905381944,618.922667100694,988.780350477431,923.374552589699,444.081869574653,555.972289858218
718.634465784144,527.091494140625,530.032829861111,779.64371057581,457.684905237269,529.04814489294,1482.7871270978,1421.83210105613,537.73503978588,522.114001736111,351.517798032407,265.33412109375,254.458053023727,264.435993923611,448.371416015625,435.117426576967,482.958018301505,461.263356119792,506.36515661169,458.563622323495,496.633742404514,459.401402271412,445.323804615162,429.129339192708,393.528406756366,389.119958043982,463.113374204282,448.14250036169,1229.04235026042,1341.84658058449,652.370056061921,593.853796657986,993.326060836227,933.358820529514,428.31912073206,534.128272569444
685.611858723958,533.576462673611,513.978717809606,742.547281177662,437.873657769097,499.019576099537,1478.6758416522,1420.69926070602,502.172395471644,505.851708260995,326.621804108796,241.094704499421,245.532306857639,252.16507740162,411.28744176794,411.149021267361,457.198756148727,445.748469690394,490.607118055556,439.159020543982,466.234583695023,439.018036024306,428.384059244792,408.128539858217,378.788976056134,373.475362413194,448.941397931134,427.338028790509,1305.88094726563,1422.75893988715,603.751351996528,559.972403428819,1001.65883463542,939.253097873264,405.237465639468,509.771528862847
651.306629412616,487.718092447917,497.52804759838,680.525417028356,414.75437427662,493.24636754919,1488.87381691262,1451.38792064525,485.624151114005,471.876380570023,312.400695891204,231.972257667824,232.136218171296,235.243148509838,357.250084997106,368.379756582755,422.840690827546,417.745416304977,453.429860749421,413.900740740741,441.357541956019,410.670434389468,397.747097439236,379.038350694444,350.550084273727,349.432700737847,420.379794198495,393.560354456019,1351.71853660301,1470.41669415509,560.225591362847,511.482423683449,978.149098668982,928.624580439815,396.469383318866,488.810118634259
609.871323784722,475.858526475694,466.802707248264,640.583986183449,381.6379296875,450.871838469329,1488.02583731192,1463.83170536748,447.302318793403,438.933851634838,293.634140625,215.778052300347,213.040502025463,216.912489872685,311.21706995081,312.52488208912,407.548829210069,395.488799913194,433.468996310764,384.049692925347,405.294521846065,385.712366536458,367.892414279514,343.337839988426,321.846590350116,317.68992223669,385.908681640625,354.382257306134,1366.03690719039,1482.0208380353,502.604842303241,462.463119212963,945.862801649306,890.831044921875,369.575846354167,448.35160192419
584.751181278935,447.998286675347,445.568777488426,605.244011140046,351.234182942708,436.471579861111,1475.0479510272,1480.40872721354,434.066592158565,416.389100477431,272.809763816551,203.320921585648,201.628087022569,201.152531467014,261.396631582755,262.31865234375,391.074892939815,361.32173828125,398.751555627894,355.699905237268,392.08980504919,357.08498119213,336.293032045718,307.813485243056,292.837683738426,284.846723451968,344.301046730324,321.640870225694,1350.45858506944,1464.79928023727,466.233707320602,414.786485821759,891.616205512153,836.630842737268,345.996263382523,441.783415075231
532.2955078125,416.192586082176,407.083435691551,566.85900462963,324.996326316551,401.114918981482,1466.63828559028,1498.94053819444,392.211593605324,383.535280671296,262.706862340856,185.432608506944,183.59072265625,188.370534577546,231.978021918403,228.356880425347,347.88470739294,339.865295862269,376.203323567708,338.510673828125,355.475355179398,335.604188368056,302.913401692708,276.931886574074,259.15459056713,256.086869212963,309.370356264468,288.176598668981,1320.89732277199,1432.5141051794,418.29437608507,375.372322048611,828.517971281829,787.935217737269,321.049867983218,404.143489583333
490.661791087963,372.829497612847,380.385933159722,506.207141565393,294.98927662037,385.860020978009,1455.46122251157,1504.1153729022,365.591721281829,357.597000144676,241.716284722222,171.559139539931,168.591110749421,179.832941984954,209.188478009259,201.150339265046,321.757055844907,311.75212890625,340.446733217593,306.944894386574,327.246635199653,310.484002821181,277.206659071181,257.00876953125,234.477947771991,232.819875940394,279.146702473958,280.470715422454,1286.10571397569,1394.67348271123,394.922080439815,348.223950014468,770.35169994213,724.178953631366,299.96953088831,377.908756148727
441.904457826968,335.988051576968,337.669507740162,460.583461371528,279.611627242477,351.968154296875,1446.55582863137,1518.57441333912,337.607885199653,332.400907479745,216.271243851273,154.28621166088,152.996949146412,163.980907479745,210.121509693287,183.759496527778,295.155237991898,288.500031105324,313.9409765625,285.152047526042,307.779545355903,276.692080439815,274.529288194444,251.781924913194,211.791825810185,207.721158492477,251.15945276331,298.61410083912,1246.46573748553,1345.80616283275,370.567996961806,329.741246021412,690.51281213831,654.687908709491,277.645632957176,347.768273292824
404.735256076389,328.41068395544,312.705713975694,426.342471064815,235.706439525463,325.064363787616,1430.01335033275,1532.53285734954,314.37011682581,299.115247395833,196.910210865162,139.532861328125,134.633830295139,149.664108796296,191.327541232639,178.596859809028,260.904346426505,260.885904947917,290.461262659144,258.448723234954,277.744638671875,259.919845920139,280.884014756944,267.815597873264,190.01001880787,182.011878978588,220.856827618634,316.37343822338,1173.8691478588,1262.22663990162,334.562943431713,307.83507776331,603.483383969907,570.031922743056,251.451247468171,302.880528790509
362.382543041088,270.853967375579,278.229885344329,366.833781467014,217.482475766782,286.718679832176,1420.63539243345,1548.31003942419,270.105462601273,277.390561704282,168.746998697917,123.966481481481,127.565275969329,129.169626736111,187.245125506366,163.641996889468,239.378211805556,237.679093243634,262.446646412037,230.382420789931,252.609231770833,229.246516203704,276.859639033565,265.121695240162,173.993406032986,160.096918041088,188.906599754051,301.522239945023,1098.09194806134,1171.47268771701,313.629260344329,283.935190248843,537.105596426505,502.476624348958,227.032210648148,275.037698206018
324.348869719329,255.018992332176,267.274685329861,317.564697989005,195.471274956597,270.492393663194,1379.32017216435,1546.98004231771,244.785636935764,243.014366681134,156.832834924769,114.758755425347,117.899930193866,119.389324001736,178.18638708044,151.099117838542,220.489584780093,215.100577618634,240.218255208333,208.80003870081,222.497802734375,211.211457248264,275.631695963542,266.184142795139,161.302160734954,144.433276186343,173.001145109954,290.095750506366,1030.83952148437,1087.88028356481,292.512651909722,271.929842303241,468.723504050926,441.346677155671,206.516980613426,254.750511067708
300.597817925347,237.456077473958,241.844157262731,291.893420862269,179.181834490741,253.617842520255,1384.12117259838,1570.28748336227,225.738289568866,226.32115234375,148.019827112269,104.887020760995,106.79470703125,114.377737630208,170.247963324653,143.920506365741,189.442297453704,196.71662145544,221.087870008681,190.996122323495,201.320651765046,196.11609338831,226.548883463542,218.451950954861,143.303190465856,135.152662037037,163.860360966435,235.528829571759,928.558161168982,976.38605432581,270.873408926505,246.916271339699,402.616672453704,380.821208767361,190.060544343171,228.681428313079
273.236950954861,219.69787145544,214.522066695602,264.920344328704,161.162032696759,229.210905309606,1371.31413628472,1586.13263201678,204.558785807292,202.701442418981,130.917418981481,93.2741746238426,89.6649435763889,104.247744140625,153.133274016204,130.495745442708,168.865301649306,177.909516420718,202.447638527199,168.565496600116,180.589714626736,173.782001229745,193.412275028935,185.4994921875,129.220168185764,123.350068359375,140.293528284144,192.580740017361,832.323900824653,876.18447265625,241.966421079282,225.865282841435,340.791156322338,320.308411458333,175.457808159722,202.410042317708
238.574055266204,197.081412760417,193.693968098958,227.080457899306,129.948773148148,209.476088686343,1361.43457863137,1604.13302770544,182.949318576389,176.861217809607,110.807257667824,83.3787673611111,79.7573451967592,89.9684989872685,140.40306712963,110.911416015625,151.200890480324,158.312700376157,171.977455150463,148.770656105324,155.816495225694,150.812971281829,169.635970775463,159.428568793403,113.993855975116,107.727234157986,122.961304253472,163.986595775463,736.267866391782,783.677964771412,219.319919343171,198.171676793981,286.159489655671,264.445696976273,147.909499059606,183.635013744213
207.937475043403,158.541321252893,169.035871672454,199.557059823495,123.894398871528,178.874231047454,1357.6823791956,1630.85086009838,163.495907841435,164.697503616898,101.295775462963,75.6565375434028,71.7846480758102,79.2168167679398,120.000579065394,100.932706163194,137.782002314815,140.799868706597,156.113345630787,135.670153356481,145.405494429977,134.677726417824,144.963926866319,139.13209056713,100.125750144676,97.0346809895833,107.658032045718,133.893826316551,645.884652054398,692.312510489005,187.9727734375,178.475598596644,232.929035011574,219.583881655093,134.337431278935,165.842836009838
179.398764467593,150.405218460648,144.956196469907,168.143622323495,103.604353660301,145.791825448495,1354.52755823206,1636.9004973235,134.412624059606,142.232907624421,91.4198679832176,64.1371122685185,60.9261389612269,65.0499171730324,112.138759403935,85.426849681713,117.34773401331,118.94701208044,135.050594618056,116.240834780093,123.513954354745,115.427873625579,125.130871310764,122.904201750579,86.4602582465278,84.6125408709491,98.5226197193287,113.572469256366,566.79443323206,614.947190031829,168.393530454282,151.790023871528,194.066201895255,181.899349681713,119.417390769676,144.641053240741
156.010035083912,127.919260706018,125.584968894676,141.053139829282,88.9994556568287,131.877043185764,1350.38901909722,1654.18600405093,117.617201967593,118.801734664352,73.5048618344907,55.6012923177083,56.7430266203704,55.8873498987269,92.7508036747685,72.1655852141204,103.457118778935,105.093598451968,110.384816984954,100.027804904514,105.80093713831,96.962410300926,111.257901475694,108.786673177083,75.9205891927083,74.8553389033565,85.8417748119213,94.4444733796296,491.656615306713,540.279437210648,133.980145760995,126.292547743056,158.74472583912,148.024991681134,100.864287471065,122.208588324653
128.833804976852,108.393459201389,104.216100983796,113.849778645833,73.9329861111111,104.864654947917,1341.19900101273,1654.33832465278,94.7519216579861,105.671384548611,62.0455787037037,46.1204984085648,46.2862315538194,48.6383658854167,73.7758680555555,58.3052886284722,86.7118500434028,87.2718742766204,95.9865954137731,86.5931716579861,88.2659602864583,83.3086324508102,101.402706163194,100.185319372106,67.5031155960648,66.3290990306713,73.6117194733796,76.3776656539352,427.251996889468,477.169705584491,107.134847366898,105.979174985532,130.562099609375,124.149357277199,82.4714615885417,98.198453052662
105.686060112847,90.228128978588,87.9184841579861,97.5398517071759,62.7234035011574,99.08484375,1315.05064453125,1663.41835648148,79.2684497974537,82.3710836226852,47.8041460503472,38.9057121672454,38.3870764612269,40.0358539496528,61.1694650607639,48.1729412615741,70.8264380787037,75.0199421296296,77.8505016637731,70.609488208912,69.7335130931713,69.5792234519676,96.4689626736111,92.6388650173611,59.501910083912,59.6395138888889,66.000855396412,68.8970308883102,372.520211226852,421.892483000579,91.00146484375,86.5701352719907,98.7340143952546,98.7650509982639,69.5968702980324,80.972177734375
85.5517798755787,73.781586009838,70.6658875868056,73.0639561631945,47.8063248697917,78.0076851851852,1320.14572952836,1667.92875868056,64.974853515625,64.755982349537,41.470806568287,31.9753602430556,32.4543869357639,32.3845735677083,44.2940704571759,36.4828045428241,56.5509497974537,58.4285167100695,61.1295106336805,56.6120894820602,57.9716221788194,56.9136255787037,81.6139040798611,77.7411338975694,49.6652318431713,50.4783416521991,56.3942523871528,56.5559056712963,317.699203559028,352.483825231481,75.3001841001157,67.4693778935185,75.9819126157407,76.0634230324074,56.0623303674768,68.4130009403935
67.1422037760417,57.6306206597222,59.027310474537,57.4706221064815,39.8853128616898,68.6866981336806,1315.26541413484,1672.23825737847,54.8885485387732,52.4159436487269,34.0020580150463,25.9622450086806,24.7607986111111,24.1184353298611,40.1187778501157,27.6802209924768,44.8660619212963,50.4184888599537,54.0982653356482,47.7572055844907,48.9925806568287,46.2740946903935,65.2598636429398,59.9457458043981,37.560513599537,37.5479318576389,41.4478996672454,44.7807845052083,256.901966869213,282.943475115741,58.5742722800926,52.5157776331019,60.3876262297454,58.1907667824074,48.3745981626158,50.6261216001157
54.4248433883102,49.8501804832176,45.3176891637732,41.4370431857639,27.7338863570602,51.3286244936343,1291.45307255498,1667.90583731192,41.3835152633102,43.3683094618056,28.5600849971065,20.4666326678241,20.2706720196759,16.1619769965278,28.1503063512731,20.1119929108796,36.7723451967593,37.5396307146991,41.0424428530093,36.6455031105324,36.3009262876157,36.8843598090278,48.4688979311343,46.6042552806713,28.599173900463,30.1523846209491,33.932826244213,36.4200593171296,207.433557581018,225.009014395255,41.9671954571759,39.6780862991898,45.8837120225694,42.5465476707176,37.7765505642361,43.6745757378472
38.2687373408565,38.508236400463,36.9778114149306,30.1589232494213,21.7503851996528,46.4795482494213,1274.66587565104,1661.02652633102,32.7229918981481,33.6484957320602,24.4189937789352,15.9332179542824,16.3455555555556,11.5109186921296,17.5805718315972,14.9946538628472,28.9256705729167,31.1125719762732,30.4063953993055,28.332417896412,29.4742849392361,28.7169129774306,37.848671875,35.9543037471065,23.8775376157407,24.2423404947917,25.557783203125,27.9758564814815,163.793998119213,175.577403428819,35.8400434027778,30.9290241608796,35.7507523148148,34.1109385850694,30.197001953125,36.6889163773148
27.4938169126157,29.0578566261574,28.3306969762731,20.9503844762731,13.8035593894676,29.8048802806713,1259.6298791956,1648.4271307147,25.4229376446759,26.886255787037,17.0212981047454,11.8298842592593,12.4308333333333,8.75155381944445,13.7209639033565,10.0986487268519,21.6145576533565,22.5825390625,25.9222674334491,20.3486639178241,21.640357349537,22.1042390046296,31.2700311053241,31.1874395978009,17.8472359664352,20.0926848234954,19.5411216001157,20.342757884838,136.012658420139,140.966482928241,25.1945041232639,21.8454372829861,25.391665943287,21.1174580439815,22.6152687355324,24.4992505787037
27.6495287181713,21.791851490162,20.3552629484954,14.1936921296296,9.90729130497685,25.8976891637731,1240.44620840567,1626.14523256655,19.9423101128472,18.3198589409722,13.7664033564815,8.37806170428241,9.27693576388889,6.7585767505787,8.97824399594908,6.98136357060185,15.0900940393519,20.6604166666667,17.4715690104167,17.0344325086806,18.0422059461806,17.2322967303241,26.4387641059028,25.9764655671296,14.0685648148148,16.1973679832176,16.6974457465278,18.0817603443287,108.597051866319,112.220989221644,20.8679441550926,18.5360590277778,17.7807190393519,15.5179430700231,17.6516626880787,21.1535051359954
19.2542820457176,14.6834092881944,15.8963653790509,9.44034649884259,7.16828667534722,21.7660662615741,1199.00294089988,1594.7541015625,13.4960127314815,14.4644661458333,8.66030418113426,5.26220811631944,6.24073893229167,4.39160445601852,9.76794777199074,4.33072157118056,12.0072189670139,12.8415964988426,13.9783673321759,12.2026707175926,12.6820735677083,12.1326616753472,19.187611400463,19.9369701244213,11.1990057146991,9.85389539930556,12.6987308304398,13.72794921875,87.1913512731481,87.7393326822917,13.5065057146991,12.663169849537,14.0476605902778,12.8771838831019,14.4394444444444,13.7951378038194
15.5320836950231,14.6031354890046,14.8314767795139,6.39139865451389,6.13293438946759,13.0535394965278,1177.49654586227,1560.33700159144,10.9422790075231,11.7157725694444,7.68877314814815,3.52019061053241,4.52246057581019,2.97813946759259,5.07300636574074,2.86569625289352,9.36431532118056,10.8368854890046,9.57279079861111,8.21972692418982,10.4566861979167,8.11815827546296,14.0225083188657,14.4501247829861,8.25237485532408,7.99462999131945,10.0087630208333,9.69847366898148,68.4780924479167,68.6916554542824,10.4304691116898,10.9192780671296,12.3778660300926,8.6499634693287,11.2174240451389,14.1611780237269
11.3533025896991,14.2435167100694,9.0019896556713,4.29600911458333,3.80661530671296,14.0328721788194,1142.91082320602,1522.89287760417,9.18256365740741,9.0498705150463,5.60247432002315,2.37854166666667,4.29009259259259,2.17514539930556,5.0590234375,2.05764431423611,7.60294162326389,6.44799985532408,7.89562934027778,6.45988606770833,7.81748589409722,7.41568865740741,11.2074699797454,11.2157038483796,6.12925311053241,5.51008897569444,7.57211805555555,7.75969401041667,54.8564279513889,53.1320341435185,8.54009440104167,7.90126410590278,8.84678457754629,7.07807689525463,10.1461838107639,10.0179680266204
6.07393265335648,9.22897424768518,8.73080005787037,3.11223198784722,2.81548177083333,11.2085094762731,1107.24541847512,1475.33197374132,7.80072084780092,7.91422960069444,5.35567491319444,1.76199254918981,2.44388382523148,1.4749095775463,3.47013527199074,1.63887080439815,4.72923936631944,4.962841796875,5.21990704571759,5.75860930266204,5.82677336516204,5.98900354456019,8.68543258101852,9.20489474826389,4.80938151041667,4.17817889178241,6.52547887731482,6.15707465277778,43.819087818287,41.1494925491898,7.14800455729167,6.02349826388889,6.43286313657408,6.12129991319444,8.12094292534722,8.42136754918981
7.35361725983796,6.62416666666667,7.69896846064815,2.39723017939815,2.62323459201389,11.8102904369213,1064.878291739,1437.7770099103,5.41932906539352,4.99288773148148,2.96557183159722,1.3023216869213,2.92700846354167,1.23667064525463,2.20361942997685,1.2427025462963,4.90246563946759,4.39323169849537,4.03319444444444,5.04721390335648,4.33552915219907,5.05498372395833,6.98896050347222,6.77261320891204,3.64758716724537,3.40456524884259,5.31769929108796,4.75153537326389,35.5843518518518,31.3080049189815,5.15778609664352,4.89722366898148,6.18238172743056,5.19332935474537,6.51469328703704,6.46368308738426
7.39397967303241,9.09547164351852,5.59870008680556,3.04392867476852,2.06962203414352,8.15572229456019,1036.33630172164,1396.11188512731,4.92036313657407,5.88099681712963,4.22383933738426,3.04392867476852,2.15504195601852,1.03183087384259,2.02550564236111,1.05297309027778,5.08336769386574,3.45883101851852,4.56211733217593,4.29863823784722,4.0453247974537,4.32396412037037,5.43817961516204,4.972373046875,2.89182146990741,2.82329752604167,4.15423213252315,3.70863064236111,28.8683619068287,24.2566775173611,5.08647750289352,3.79918619791667,4.50232349537037,4.59546657986111,6.6208763744213,5.14706452546296
6.58340241608796,5.56969545717593,4.02764069733796,2.80912109375,1.80108217592593,7.64174985532408,990.696396484375,1355.35972041377,5.76068070023148,4.92454318576389,2.14413664641204,1.07956850405093,1.66655164930556,1.10364728009259,2.46659649884259,1.19115740740741,3.07694986979167,3.73662109375,2.43225766782407,3.57324327256944,4.96362087673611,3.26897352430556,4.45403682002315,4.23465711805556,3.07027271412037,2.51190104166667,2.92302408854167,3.22491066261574,22.7988382523148,18.734917896412,3.81440285011574,4.88336877893519,4.52785047743056,3.67368670428241,5.57904369212963,6.26812138310185
6.60698459201389,5.54063006365741,6.58282552083333,2.01370587384259,2.08013961226852,6.50706778067129,959.145048104745,1317.3479937066,4.96526511863426,4.70583405671296,2.42171694155093,3.05360460069444,2.28452582465278,1.19056459780093,3.90370876736111,1.17510525173611,3.48138888888889,3.41188404224537,3.29244249131944,4.43325122974537,3.36296187789352,4.24010814525463,3.93988932291667,3.381513671875,2.481337890625,2.46263744212963,3.17674985532407,2.65298683449074,18.2609982638889,15.0492107928241,5.49946723090278,4.71945855034722,4.67821686921296,4.5229369212963,5.03476019965278,5.69902307581019
8.02326316550926,8.37671838831018,7.54836841724537,2.14841218171296,2.86002567997685,10.1712528935185,923.678305844907,1269.59263418692,5.21656720196759,5.09957175925926,3.83295717592593,1.52895109953704,2.72235460069444,1.30898654513889,3.47940140335648,1.54215928819444,4.02398328993056,3.99971462673611,4.80164894386574,4.99662326388889,5.65707899305556,5.47456163194444,4.01672453703704,3.24891963252315,2.99995732060185,3.10060076678241,3.02243959780093,2.93452473958333,15.996136791088,13.4199352575231,4.87562355324074,5.58125072337963,5.7641724537037,5.78797092013889,5.36605070891204,6.78466435185185
8.69268084490741,7.64465133101852,9.87946361400463,3.10952039930556,3.07913881655093,9.94055953414352,894.71906213831,1232.57072482639,6.21365885416667,6.64842375578704,4.29356626157407,2.17309063946759,2.74070782696759,2.00164822048611,4.37758608217593,2.23078595196759,5.535087890625,8.01718460648148,6.26874421296296,4.15871455439815,5.10474247685185,4.07987594039352,4.97248227719907,4.26845522280093,3.7399146412037,3.77660734953704,3.82082067418981,3.314287109375,15.997978515625,11.794169921875,7.06699435763889,8.32927842881944,5.46385091145833,6.2036498119213,5.97101128472222,7.53324869791667
9.96847511574074,10.8550538917824,10.8097327112269,4.25861364293981,3.74031467013889,15.3946270978009,868.48427734375,1191.67385199653,10.0994035734954,8.439111328125,4.75871057581018,2.95523582175926,3.70362666377315,2.88494285300926,5.788515625,2.97211335358796,5.83815321180556,8.92420934606482,5.77306423611111,8.8280494068287,7.06764720775463,7.97466290509259,6.45939308449074,5.30336443865741,5.28522822627315,5.14870153356481,5.09125687210648,4.97181568287037,15.6175083188657,11.2659566695602,9.35151258680555,9.52886682581019,7.90748155381944,8.44370623553241,7.64017035590278,9.42531756365741
15.9415321180556,14.8563288483796,12.7683420138889,6.03052806712963,5.4884595630787,11.0555338541667,839.690571108218,1154.74582356771,10.366683666088,8.18805989583333,6.26661494502315,4.31247757523148,5.33407045717593,4.09627821180556,11.1539174623843,4.25349392361111,9.71702727141203,10.0321466290509,9.44450231481481,8.82547779224537,9.27544089988426,10.9344429976852,8.0424244068287,7.21290111400463,7.62291666666667,6.74660445601852,7.245244140625,6.90539098668981,15.8385727719907,14.2571256510417,11.1506286168981,12.1707288049768,12.5549696180556,11.894244068287,10.205648509838,10.6858015046296
16.3150618489583,19.931820384838,17.6844986979167,9.31882450810185,7.63182978877315,22.1830345775463,806.497938368056,1118.12446180556,13.7331166811343,16.5498451967593,9.01491319444444,6.00997685185185,6.80441984953704,6.20264286747685,12.5457736545139,7.09852466724537,12.9435478153935,11.5081861255787,11.4462029803241,10.9632486979167,11.8765534577546,11.5096846064815,9.98292390046296,10.1430266203704,10.6044502314815,10.7214814814815,9.72594039351852,9.95033058449074,18.9742990451389,17.7118865740741,18.4014547164352,14.9540100549768,15.8063928674769,14.6176609519676,14.3272254774306,15.0943348524306
23.1461765769676,24.6435536024306,23.110615234375,13.5948643663194,10.810302734375,27.0761089409722,774.908174189815,1071.01897497106,18.2313783998843,17.7969169560185,13.2806901041667,8.26850115740741,8.93493634259259,8.30873625578704,16.5502955005787,9.96725296585648,16.327435619213,16.8031242766204,18.65818359375,16.5989536313657,16.3599066840278,15.098832103588,13.3474591290509,13.8445515046296,14.9341124131944,14.8695475260417,13.6535217737269,13.525,24.334908130787,23.3577423321759,22.6767205584491,22.6075640190972,21.0646433738426,21.1297775607639,18.6782946325231,20.2693395543981
31.3591695601852,31.3821762876157,31.2789525462963,19.0747797309028,15.2231857638889,30.8570167824074,743.854690031829,1027.455859375,24.2425318287037,23.476771556713,16.5193254484954,11.7300372540509,13.5260666232639,12.5833622685185,24.7540154803241,14.7743381076389,22.0562622974537,21.7831901041667,21.603544921875,20.7003540943287,22.1996393952546,20.985628978588,18.236402271412,18.6157291666667,20.1303569878472,19.5146744791667,18.9216923466435,17.6195475260417,33.1022406684028,30.6833582899306,29.2369827835648,28.7119889322917,25.8612923177083,25.9915375434028,23.3250314670139,28.0773376012731
42.533441478588,37.691099537037,36.1156141493056,29.6140896267361,20.5953877314815,40.177972728588,708.645759186921,980.671649667245,29.5429991319444,31.845357349537,23.5204000289352,18.7381510416667,19.654273365162,18.8888592303241,29.5043276186343,21.5438885271991,28.5245750144676,28.0975358072917,29.2836733217593,28.2754412615741,31.77642578125,29.6404741753472,27.0872507957176,24.8863798466435,29.6321752025463,28.542710865162,26.9384385850694,25.2436769386574,40.1215784143519,40.2503606047454,42.6019896556713,38.4551421440972,39.132622974537,36.024427806713,31.9345612702546,36.9323654513889
50.8805414496528,49.4554853877315,50.0575604021991,42.2202047164352,30.2560402199074,52.2287152777778,678.318858145255,938.193786168981,39.1098538773148,41.5287590422454,29.064716796875,23.578255931713,22.7492306857639,25.2199508101852,36.5331651475695,30.2209993489583,37.3439583333333,39.3993601707176,41.63419921875,38.9699757667824,38.9592740885417,37.34818359375,37.1403584346065,33.0971339699074,42.227181712963,39.0978229890046,36.0397052228009,33.3770337818287,56.4991493055556,53.9107335069444,49.215015552662,54.8120717592593,49.4080613425926,48.612652271412,42.3839825665509,46.3089923321759
69.5887174479167,62.3429311342593,59.3024486400463,57.170445240162,36.6619513165509,68.3883561197917,653.171009476273,897.647094184028,50.4741550925926,52.1782403790509,36.3046759259259,29.0422327112268,31.7240277777778,31.9438483796296,50.2799211516204,36.9345073784722,47.884140625,48.4355465133102,52.2736404079861,45.8467107928241,49.519369212963,46.1045428240741,47.8845721209491,42.1973940248843,53.6150368923611,47.4502600549769,43.3518717447917,42.5780201099537,70.8737807436343,68.7454850260417,67.7297779224537,60.81490234375,63.5483373119213,58.553271484375,51.7637934027778,54.6008499710648
80.3308825231481,74.3626425057871,79.46513671875,72.6030139612268,50.1385394965278,72.9935004340278,624.852669994213,847.901416015625,63.5047374131945,62.9813599537037,38.6831202980324,35.4643410011574,36.4784262876157,41.1995185908565,62.8526750578704,45.6539040798611,61.5377437789352,58.686000072338,62.8928255208333,57.2511461950232,61.8829456018519,57.3155501302083,57.3121198640046,51.258119212963,61.831646412037,56.8257052951389,53.8581358506945,53.6712641059028,89.3184953703704,80.7275329137731,83.6893471498843,80.97466796875,80.0650716145833,72.6912134693287,64.3063028067129,70.7145348668981
105.191290509259,86.5625408709491,91.3758239293982,98.6659606481482,63.6793995949074,93.1833134403935,603.253986906829,814.639622757523,75.5475379774306,80.5947193287037,50.7976312934028,41.2164427806713,42.5374837239583,49.4375495515046,74.1579528356481,57.4817487702546,70.859560546875,72.823785083912,77.3559573929398,69.923388671875,76.3082848668981,72.5575329137731,64.9833062065972,62.3894871238426,74.3494798900463,69.0625730613426,66.0510485387731,65.1206684027778,109.296192853009,104.42519495081,99.615945457176,99.3549251302083,103.896665581597,90.4605768952546,78.5670131655093,86.4027376302083
129.267787905093,109.012909071181,103.924949363426,116.996453269676,76.4684013310185,108.413492476852,597.841012008102,792.23216905382,90.4038194444445,95.2604090711806,63.3739930555556,48.010234375,53.820830078125,59.7466196469907,93.5215328414352,75.3870203993055,86.2499851707176,84.128697193287,93.3959313512732,86.3084743923611,88.1464807581018,82.994253833912,78.4721010561342,75.6310065827546,86.7149309172454,82.3068702980324,78.078472583912,77.9206380208333,129.668941695602,129.679674840856,128.073390118634,123.57906177662,121.854935619213,111.981847149884,89.0435163483796,108.542484447338
156.30716833044,125.08830150463,131.210532045718,143.248102936921,90.8209801793981,133.24800817419,596.297977068866,769.903023726852,112.861466290509,120.085142144097,76.4563541666667,55.5261472800926,64.2014048032407,68.3087666377315,110.251849320023,89.6189152922454,100.783460286458,98.5225119357639,107.455120081019,99.3323810040509,104.158907696759,97.7243142361111,91.0204365596065,88.7989431423611,97.5998332609954,92.3385633680555,88.7778783275463,85.6375647424769,159.015289713542,155.128601707176,149.674663990162,142.352974898727,142.690228949653,132.199659288194,108.554272641782,126.374261067708
182.047682653357,159.738607132523,159.452033781829,170.730971137153,112.449733796296,154.349528718171,595.351735387732,753.236138961227,132.302846498843,131.289734157986,87.6293225549769,58.9568370225694,68.1943522135417,74.52982421875,128.204498697917,108.099655309606,115.940728443287,114.648655237269,123.030047743056,114.397614655671,121.871208767361,108.557921368634,99.5074547887732,100.131776258681,107.857326388889,103.641023582176,94.5601378038194,96.4104774305556,185.766591796875,180.119627097801,187.753665726273,171.678146339699,176.605434751157,163.308935546875,123.198544198495,147.061716218171
212.040495515046,165.047432364005,170.352198350694,196.409671947338,129.230712890625,178.641721643519,597.337647569445,733.345314308449,147.308811125579,154.119906684028,102.377953559028,62.5574674479167,80.4585047743056,83.2630906394676,142.354666883681,116.120672743056,138.982642144097,129.154350405093,145.767619357639,131.912726056134,137.113597728588,126.242578125,111.448498625579,109.759574291088,120.042088396991,112.884269024884,104.680831163194,103.626740813079,205.45847583912,209.192789351852,207.052864221644,188.213270399306,201.950479239005,185.112647207755,142.563090639468,160.73923755787
236.565615234375,193.358498987269,191.706207682292,230.324000651042,142.112250795718,207.986297743056,596.678881655092,714.767569444444,169.211170789931,172.263552879051,112.383883825231,73.1146459056713,93.6040172887732,91.095375072338,166.422336877894,136.442120949074,148.040068359375,146.148391927083,161.636729962384,146.634617693866,155.710870225694,139.194930193866,124.894593098958,122.085666594329,133.526695963542,123.93064489294,121.117338686343,120.959206090856,232.46314416956,236.859757667824,236.46037109375,223.273176721644,234.683545283565,218.919771050347,156.742490957755,189.315300202546
